{
  "zonas": [
    {
      "id": 0,
      "restricoes": [
        {
          "classeVeiculo": "TPP",
          "ini": 0.016666666666666666,
          "fim": 0.03333333333333333
        }
      ]
    },
    {
      "id": 1,
      "restricoes": [
        {
          "classeVeiculo": "PADRAO",
          "ini": 0.016666666666666666,
          "fim": 21
        }
      ]
    }
  ],
  "params": {
    "almoco": {
      "ini": 12,
      "fim": 13,
      "atr": 0.5,
      "ant": 0.5
    },"kgHora":2000,
    "cd": {
      "id": 1,
      "x": -38.5929861034,
      "y": -3.7264365955
    },
    "exped": {
      "ini": 8,
      "fim": 18
    }
  },
  "veiculos": [
    {
      "classeVeiculo": "PADRAO",
      "id": "p01",
      "limites": [
        7000,
        10,
        30,
        0,
        0
      ]
    },
    {
      "classeVeiculo": "PADRAO",
      "id": "p02",
      "limites": [
        7000,
        10,
        30,
        0,
        0
      ]
    },
    {
      "classeVeiculo": "PADRAO",
      "id": "p03",
      "limites": [
        7000,
        10,
        30,
        0,
        0
      ]
    },
    {
      "classeVeiculo": "PADRAO",
      "id": "p04",
      "limites": [
        7000,
        10,
        30,
        0,
        0
      ]
    },
    {
      "classeVeiculo": "PADRAO",
      "id": "p05",
      "limites": [
        7000,
        10,
        30,
        0,
        0
      ]
    },
    {
      "classeVeiculo": "PADRAO",
      "id": "p06",
      "limites": [
        7000,
        10,
        30,
        0,
        0
      ]
    },
    {
      "classeVeiculo": "PADRAO",
      "id": "p07",
      "limites": [
        7000,
        10,
        30,
        0,
        0
      ]
    },
    {
      "classeVeiculo": "PADRAO",
      "id": "p08",
      "limites": [
        7000,
        10,
        30,
        0,
        0
      ]
    },
    {
      "classeVeiculo": "PADRAO",
      "id": "p09",
      "limites": [
        7000,
        10,
        30,
        0,
        0
      ]
    },
    {
      "classeVeiculo": "PADRAO",
      "id": "p10",
      "limites": [
        7000,
        10,
        30,
        0,
        0
      ]
    },
    {
      "classeVeiculo": "VUC",
      "id": "v01",
      "limites": [
        3500,
        10,
        30,
        0,
        0
      ]
    },
    {
      "classeVeiculo": "VUC",
      "id": "v02",
      "limites": [
        3500,
        10,
        30,
        0,
        0
      ]
    },
    {
      "classeVeiculo": "VUC",
      "id": "v03",
      "limites": [
        3500,
        10,
        30,
        0,
        0
      ]
    },
    {
      "classeVeiculo": "VUC",
      "id": "v04",
      "limites": [
        3500,
        10,
        30,
        0,
        0
      ]
    },
    {
      "classeVeiculo": "VUC",
      "id": "v05",
      "limites": [
        3500,
        10,
        30,
        0,
        0
      ]
    },
    {
      "classeVeiculo": "VUC",
      "id": "v06",
      "limites": [
        3500,
        10,
        30,
        0,
        0
      ]
    },
    {
      "classeVeiculo": "VUC",
      "id": "v07",
      "limites": [
        3500,
        10,
        30,
        0,
        0
      ]
    },
    {
      "classeVeiculo": "VUC",
      "id": "v08",
      "limites": [
        3500,
        10,
        30,
        0,
        0
      ]
    },
    {
      "classeVeiculo": "VUC",
      "id": "v09",
      "limites": [
        3500,
        10,
        30,
        0,
        0
      ]
    },
    {
      "classeVeiculo": "VUC",
      "id": "v10",
      "limites": [
        3500,
        10,
        30,
        0,
        0
      ]
    }
  ],
  "clientes": [
    {
      "zona": 0,
      "id": 1024,
      "x": -38.5901,
      "y": -3.7585,
      "totais": [
        25.814635,
        0.166666666,
        1,
        0,
        0
      ],
      "jt": {
        "ini": 8,
        "fim": 18
      }
    },
    {
      "zona": 0,
      "id": 1025,
      "x": -38.5655,
      "y": -3.7514,
      "totais": [
        961.785954,
        0.166666666,
        1,
        0,
        0
      ],
      "jt": {
        "ini": 8,
        "fim": 18
      }
    },
    {
      "zona": 0,
      "id": 1027,
      "x": -38.4952,
      "y": -3.7689,
      "totais": [
        702.876598,
        0.166666666,
        1,
        0,
        0
      ],
      "jt": {
        "ini": 8,
        "fim": 12
      }
    },
    {
      "zona": 0,
      "id": 1028,
      "x": -38.4836,
      "y": -3.7802,
      "totais": [
        16.135821,
        0.166666666,
        1,
        0,
        0
      ],
      "jt": {
        "ini": 8,
        "fim": 18
      }
    },
    {
      "zona": 0,
      "id": 1029,
      "x": -38.4974,
      "y": -3.7832,
      "totais": [
        29.445731,
        0.166666666,
        1,
        0,
        0
      ],
      "jt": {
        "ini": 8,
        "fim": 18
      }
    },
    {
      "zona": 0,
      "id": 1030,
      "x": -38.4822,
      "y": -3.7851,
      "totais": [
        270.387485,
        0.166666666,
        1,
        0,
        0
      ],
      "jt": {
        "ini": 8,
        "fim": 18
      }
    },
    {
      "zona": 0,
      "id": 1033,
      "x": -38.4649,
      "y": -3.7609,
      "totais": [
        237.413177,
        0.166666666,
        1,
        0,
        0
      ],
      "jt": {
        "ini": 8,
        "fim": 18
      }
    },
    {
      "zona": 0,
      "id": 1034,
      "x": -38.589,
      "y": -3.7658,
      "totais": [
        804.220596,
        0.166666666,
        1,
        0,
        0
      ],
      "jt": {
        "ini": 8,
        "fim": 18
      }
    },
    {
      "zona": 0,
      "id": 1035,
      "x": -38.4927,
      "y": -3.7722,
      "totais": [
        5835.716659,
        0.166666666,
        1,
        0,
        0
      ],
      "jt": {
        "ini": 8,
        "fim": 18
      }
    },
    {
      "zona": 1,
      "id": 1036,
      "x": -38.5091638207,
      "y": -3.7348454933,
      "totais": [
        146.234237,
        0.166666666,
        1,
        0,
        0
      ],
      "jt": {
        "ini": 8,
        "fim": 18
      }
    },
    {
      "zona": 0,
      "id": 1038,
      "x": -38.5907,
      "y": -3.7828,
      "totais": [
        92.642102,
        0.166666666,
        1,
        0,
        0
      ],
      "jt": {
        "ini": 8,
        "fim": 18
      }
    },
    {
      "zona": 0,
      "id": 1039,
      "x": -38.5421,
      "y": -3.7626,
      "totais": [
        56.541023,
        0.166666666,
        1,
        0,
        0
      ],
      "jt": {
        "ini": 8,
        "fim": 18
      }
    },
    {
      "zona": 0,
      "id": 1040,
      "x": -38.5824,
      "y": -3.7292,
      "totais": [
        319.702772,
        0.166666666,
        1,
        0,
        0
      ],
      "jt": {
        "ini": 14,
        "fim": 18
      }
    },
    {
      "zona": 0,
      "id": 1042,
      "x": -38.5839,
      "y": -3.739,
      "totais": [
        399.025501,
        0.166666666,
        1,
        0,
        0
      ],
      "jt": {
        "ini": 8,
        "fim": 18
      }
    },
    {
      "zona": 0,
      "id": 1043,
      "x": -38.4742,
      "y": -3.7241,
      "totais": [
        125.123128,
        0.166666666,
        1,
        0,
        0
      ],
      "jt": {
        "ini": 8,
        "fim": 18
      }
    },
    {
      "zona": 0,
      "id": 1046,
      "x": -38.5713,
      "y": -3.7803,
      "totais": [
        113.788278,
        0.166666666,
        1,
        0,
        0
      ],
      "jt": {
        "ini": 8,
        "fim": 18
      }
    },
    {
      "zona": 0,
      "id": 1047,
      "x": -38.517215523,
      "y": -3.7185910368,
      "totais": [
        55.916937,
        0.166666666,
        1,
        0,
        0
      ],
      "jt": {
        "ini": 8,
        "fim": 18
      }
    },
    {
      "zona": 0,
      "id": 1049,
      "x": -38.5433116172,
      "y": -3.7373876065,
      "totais": [
        139.061794,
        0.166666666,
        1,
        0,
        0
      ],
      "jt": {
        "ini": 8,
        "fim": 18
      }
    },
    {
      "zona": 0,
      "id": 1050,
      "x": -38.5723,
      "y": -3.7773,
      "totais": [
        37.635484,
        0.166666666,
        1,
        0,
        0
      ],
      "jt": {
        "ini": 8,
        "fim": 12
      }
    },
    {
      "zona": 0,
      "id": 1051,
      "x": -38.5472,
      "y": -3.779,
      "totais": [
        42.871406,
        0.166666666,
        1,
        0,
        0
      ],
      "jt": {
        "ini": 8,
        "fim": 18
      }
    },
    {
      "zona": 0,
      "id": 1053,
      "x": -38.566,
      "y": -3.7784,
      "totais": [
        141.401695,
        0.166666666,
        1,
        0,
        0
      ],
      "jt": {
        "ini": 8,
        "fim": 18
      }
    },
    {
      "zona": 0,
      "id": 1055,
      "x": -38.5539,
      "y": -3.7668,
      "totais": [
        60.100027,
        0.166666666,
        1,
        0,
        0
      ],
      "jt": {
        "ini": 8,
        "fim": 18
      }
    },
    {
      "zona": 0,
      "id": 1057,
      "x": -38.5627,
      "y": -3.7567,
      "totais": [
        15.267767,
        0.166666666,
        1,
        0,
        0
      ],
      "jt": {
        "ini": 8,
        "fim": 18
      }
    },
    {
      "zona": 1,
      "id": 1058,
      "x": -38.5152282173,
      "y": -3.7291981223,
      "totais": [
        589.14941,
        0.166666666,
        1,
        0,
        0
      ],
      "jt": {
        "ini": 8,
        "fim": 18
      }
    },
    {
      "zona": 0,
      "id": 1060,
      "x": -38.5649,
      "y": -3.7895,
      "totais": [
        469.350392,
        0.166666666,
        1,
        0,
        0
      ],
      "jt": {
        "ini": 8,
        "fim": 18
      }
    },
    {
      "zona": 0,
      "id": 1061,
      "x": -38.5380440911,
      "y": -3.7211375313,
      "totais": [
        22.578628,
        0.166666666,
        1,
        0,
        0
      ],
      "jt": {
        "ini": 8,
        "fim": 18
      }
    },
    {
      "zona": 0,
      "id": 1063,
      "x": -38.577,
      "y": -3.7374,
      "totais": [
        175.776466,
        0.166666666,
        1,
        0,
        0
      ],
      "jt": {
        "ini": 8,
        "fim": 18
      }
    },
    {
      "zona": 0,
      "id": 1064,
      "x": -38.5883,
      "y": -3.7313,
      "totais": [
        1179.607595,
        0.166666666,
        1,
        0,
        0
      ],
      "jt": {
        "ini": 8,
        "fim": 18
      }
    },
    {
      "zona": 0,
      "id": 1065,
      "x": -38.5956,
      "y": -3.7616,
      "totais": [
        481.348104,
        0.166666666,
        1,
        0,
        0
      ],
      "jt": {
        "ini": 8,
        "fim": 18
      }
    },
    {
      "zona": 1,
      "id": 1066,
      "x": -38.4934,
      "y": -3.7288,
      "totais": [
        197.019504,
        0.166666666,
        1,
        0,
        0
      ],
      "jt": {
        "ini": 8,
        "fim": 12
      }
    },
    {
      "zona": 0,
      "id": 1068,
      "x": -38.4968,
      "y": -3.771,
      "totais": [
        719.509591,
        0.166666666,
        1,
        0,
        0
      ],
      "jt": {
        "ini": 8,
        "fim": 18
      }
    },
    {
      "zona": 0,
      "id": 1069,
      "x": -38.4936,
      "y": -3.7657,
      "totais": [
        75.532528,
        0.166666666,
        1,
        0,
        0
      ],
      "jt": {
        "ini": 8,
        "fim": 18
      }
    },
    {
      "zona": 0,
      "id": 1070,
      "x": -38.5107934402,
      "y": -3.7211329495,
      "totais": [
        358.042766,
        0.166666666,
        1,
        0,
        0
      ],
      "jt": {
        "ini": 8,
        "fim": 18
      }
    },
    {
      "zona": 0,
      "id": 1072,
      "x": -38.5112,
      "y": -3.7894,
      "totais": [
        784.624793,
        0.166666666,
        1,
        0,
        0
      ],
      "jt": {
        "ini": 8,
        "fim": 18
      }
    },
    {
      "zona": 0,
      "id": 1073,
      "x": -38.5282,
      "y": -3.7612,
      "totais": [
        66.896076,
        0.166666666,
        1,
        0,
        0
      ],
      "jt": {
        "ini": 8,
        "fim": 18
      }
    },
    {
      "zona": 0,
      "id": 1074,
      "x": -38.4748,
      "y": -3.755,
      "totais": [
        500.159166,
        0.166666666,
        1,
        0,
        0
      ],
      "jt": {
        "ini": 8,
        "fim": 18
      }
    },
    {
      "zona": 0,
      "id": 1080,
      "x": -38.4754,
      "y": -3.7789,
      "totais": [
        397.039195,
        0.166666666,
        1,
        0,
        0
      ],
      "jt": {
        "ini": 8,
        "fim": 18
      }
    },
    {
      "zona": 0,
      "id": 1083,
      "x": -38.5160717827,
      "y": -3.7349217076,
      "totais": [
        666.940555,
        0.166666666,
        1,
        0,
        0
      ],
      "jt": {
        "ini": 8,
        "fim": 18
      }
    },
    {
      "zona": 0,
      "id": 1085,
      "x": -38.5493,
      "y": -3.743,
      "totais": [
        355.128035,
        0.166666666,
        1,
        0,
        0
      ],
      "jt": {
        "ini": 8,
        "fim": 18
      }
    },
    {
      "zona": 0,
      "id": 1086,
      "x": -38.5893,
      "y": -3.7518,
      "totais": [
        310.197966,
        0.166666666,
        1,
        0,
        0
      ],
      "jt": {
        "ini": 8,
        "fim": 12
      }
    },
    {
      "zona": 0,
      "id": 1087,
      "x": -38.5755,
      "y": -3.7512,
      "totais": [
        1510.74542,
        0.166666666,
        1,
        0,
        0
      ],
      "jt": {
        "ini": 8,
        "fim": 18
      }
    },
    {
      "zona": 0,
      "id": 1088,
      "x": -38.4642,
      "y": -3.7733,
      "totais": [
        83.804141,
        0.166666666,
        1,
        0,
        0
      ],
      "jt": {
        "ini": 8,
        "fim": 18
      }
    },
    {
      "zona": 0,
      "id": 1090,
      "x": -38.5042,
      "y": -3.7652,
      "totais": [
        147.277274,
        0.166666666,
        1,
        0,
        0
      ],
      "jt": {
        "ini": 8,
        "fim": 18
      }
    },
    {
      "zona": 1,
      "id": 1091,
      "x": -38.5288,
      "y": -3.7277,
      "totais": [
        856.383573,
        0.166666666,
        1,
        0,
        0
      ],
      "jt": {
        "ini": 8,
        "fim": 18
      }
    },
    {
      "zona": 0,
      "id": 1092,
      "x": -38.4702,
      "y": -3.7445,
      "totais": [
        14.78513,
        0.166666666,
        1,
        0,
        0
      ],
      "jt": {
        "ini": 8,
        "fim": 18
      }
    },
    {
      "zona": 0,
      "id": 1093,
      "x": -38.5215,
      "y": -3.7905,
      "totais": [
        69.351583,
        0.166666666,
        1,
        0,
        0
      ],
      "jt": {
        "ini": 8,
        "fim": 18
      }
    },
    {
      "zona": 0,
      "id": 1094,
      "x": -38.575,
      "y": -3.7457,
      "totais": [
        298.697626,
        0.166666666,
        1,
        0,
        0
      ],
      "jt": {
        "ini": 8,
        "fim": 18
      }
    },
    {
      "zona": 0,
      "id": 1095,
      "x": -38.5498,
      "y": -3.7527,
      "totais": [
        213.458137,
        0.166666666,
        1,
        0,
        0
      ],
      "jt": {
        "ini": 8,
        "fim": 18
      }
    },
    {
      "zona": 0,
      "id": 1096,
      "x": -38.535,
      "y": -3.7919,
      "totais": [
        1471.626181,
        0.166666666,
        1,
        0,
        0
      ],
      "jt": {
        "ini": 8,
        "fim": 18
      }
    },
    {
      "zona": 0,
      "id": 1098,
      "x": -38.539897346,
      "y": -3.7404500251,
      "totais": [
        591.283262,
        0.166666666,
        1,
        0,
        0
      ],
      "jt": {
        "ini": 8,
        "fim": 18
      }
    },
    {
      "zona": 0,
      "id": 102,
      "x": -38.5825,
      "y": -3.745,
      "totais": [
        861.293395,
        0.166666666,
        1,
        0,
        0
      ],
      "jt": {
        "ini": 8,
        "fim": 18
      }
    },
    {
      "zona": 0,
      "id": 103,
      "x": -38.5867,
      "y": -3.7375,
      "totais": [
        18.038799,
        0.166666666,
        1,
        0,
        0
      ],
      "jt": {
        "ini": 14,
        "fim": 18
      }
    },
    {
      "zona": 0,
      "id": 107,
      "x": -38.5008,
      "y": -3.7679,
      "totais": [
        1148.61735,
        0.166666666,
        1,
        0,
        0
      ],
      "jt": {
        "ini": 8,
        "fim": 18
      }
    },
    {
      "zona": 0,
      "id": 109,
      "x": -38.5403782924,
      "y": -3.7267862043,
      "totais": [
        7.999969,
        0.166666666,
        1,
        0,
        0
      ],
      "jt": {
        "ini": 8,
        "fim": 18
      }
    },
    {
      "zona": 0,
      "id": 10100,
      "x": -38.4861,
      "y": -3.763,
      "totais": [
        157.41552,
        0.166666666,
        1,
        0,
        0
      ],
      "jt": {
        "ini": 8,
        "fim": 18
      }
    },
    {
      "zona": 0,
      "id": 10101,
      "x": -38.5332,
      "y": -3.777,
      "totais": [
        470.508399,
        0.166666666,
        1,
        0,
        0
      ],
      "jt": {
        "ini": 8,
        "fim": 18
      }
    },
    {
      "zona": 0,
      "id": 10102,
      "x": -38.5612,
      "y": -3.7346,
      "totais": [
        342.384424,
        0.166666666,
        1,
        0,
        0
      ],
      "jt": {
        "ini": 8,
        "fim": 18
      }
    },
    {
      "zona": 0,
      "id": 10103,
      "x": -38.5441,
      "y": -3.7609,
      "totais": [
        405.581087,
        0.166666666,
        1,
        0,
        0
      ],
      "jt": {
        "ini": 8,
        "fim": 18
      }
    },
    {
      "zona": 0,
      "id": 10104,
      "x": -38.4581,
      "y": -3.7603,
      "totais": [
        607.987095,
        0.166666666,
        1,
        0,
        0
      ],
      "jt": {
        "ini": 8,
        "fim": 18
      }
    },
    {
      "zona": 0,
      "id": 10105,
      "x": -38.5596,
      "y": -3.7686,
      "totais": [
        510.783959,
        0.166666666,
        1,
        0,
        0
      ],
      "jt": {
        "ini": 8,
        "fim": 18
      }
    },
    {
      "zona": 0,
      "id": 10106,
      "x": -38.4608,
      "y": -3.7511,
      "totais": [
        645.263177,
        0.166666666,
        1,
        0,
        0
      ],
      "jt": {
        "ini": 8,
        "fim": 18
      }
    },
    {
      "zona": 0,
      "id": 10107,
      "x": -38.5673,
      "y": -3.7778,
      "totais": [
        123.744135,
        0.166666666,
        1,
        0,
        0
      ],
      "jt": {
        "ini": 8,
        "fim": 12
      }
    },
    {
      "zona": 0,
      "id": 10108,
      "x": -38.5703,
      "y": -3.7539,
      "totais": [
        65.139255,
        0.166666666,
        1,
        0,
        0
      ],
      "jt": {
        "ini": 8,
        "fim": 18
      }
    },
    {
      "zona": 0,
      "id": 10110,
      "x": -38.5283,
      "y": -3.7669,
      "totais": [
        415.438486,
        0.166666666,
        1,
        0,
        0
      ],
      "jt": {
        "ini": 8,
        "fim": 18
      }
    },
    {
      "zona": 0,
      "id": 10111,
      "x": -38.5555,
      "y": -3.787,
      "totais": [
        2156.865702,
        0.166666666,
        1,
        0,
        0
      ],
      "jt": {
        "ini": 8,
        "fim": 18
      }
    },
    {
      "zona": 0,
      "id": 10115,
      "x": -38.5173795944,
      "y": -3.7204237357,
      "totais": [
        226.550698,
        0.166666666,
        1,
        0,
        0
      ],
      "jt": {
        "ini": 8,
        "fim": 18
      }
    },
    {
      "zona": 0,
      "id": 10116,
      "x": -38.4866,
      "y": -3.788,
      "totais": [
        1198.73948,
        0.166666666,
        1,
        0,
        0
      ],
      "jt": {
        "ini": 8,
        "fim": 18
      }
    },
    {
      "zona": 1,
      "id": 10117,
      "x": -38.5298,
      "y": -3.7295,
      "totais": [
        220.100228,
        0.166666666,
        1,
        0,
        0
      ],
      "jt": {
        "ini": 8,
        "fim": 18
      }
    },
    {
      "zona": 0,
      "id": 10118,
      "x": -38.5225,
      "y": -3.7752,
      "totais": [
        16.918202,
        0.166666666,
        1,
        0,
        0
      ],
      "jt": {
        "ini": 8,
        "fim": 18
      }
    },
    {
      "zona": 1,
      "id": 10119,
      "x": -38.5007685028,
      "y": -3.7445151477,
      "totais": [
        97.303589,
        0.166666666,
        1,
        0,
        0
      ],
      "jt": {
        "ini": 8,
        "fim": 18
      }
    },
    {
      "zona": 0,
      "id": 10120,
      "x": -38.5705,
      "y": -3.7297,
      "totais": [
        802.788302,
        0.166666666,
        1,
        0,
        0
      ],
      "jt": {
        "ini": 8,
        "fim": 18
      }
    },
    {
      "zona": 1,
      "id": 10121,
      "x": -38.4995,
      "y": -3.7283,
      "totais": [
        52.989305,
        0.166666666,
        1,
        0,
        0
      ],
      "jt": {
        "ini": 8,
        "fim": 18
      }
    },
    {
      "zona": 0,
      "id": 10122,
      "x": -38.5122716825,
      "y": -3.7586157235,
      "totais": [
        349.504051,
        0.166666666,
        1,
        0,
        0
      ],
      "jt": {
        "ini": 8,
        "fim": 18
      }
    },
    {
      "zona": 0,
      "id": 10123,
      "x": -38.5788,
      "y": -3.768,
      "totais": [
        222.530702,
        0.166666666,
        1,
        0,
        0
      ],
      "jt": {
        "ini": 14,
        "fim": 18
      }
    },
    {
      "zona": 0,
      "id": 10124,
      "x": -38.5404841762,
      "y": -3.7326381071,
      "totais": [
        58.143125,
        0.166666666,
        1,
        0,
        0
      ],
      "jt": {
        "ini": 8,
        "fim": 18
      }
    },
    {
      "zona": 0,
      "id": 10125,
      "x": -38.4987,
      "y": -3.7869,
      "totais": [
        426.482752,
        0.166666666,
        1,
        0,
        0
      ],
      "jt": {
        "ini": 8,
        "fim": 18
      }
    },
    {
      "zona": 0,
      "id": 10126,
      "x": -38.5843,
      "y": -3.7761,
      "totais": [
        112.770639,
        0.166666666,
        1,
        0,
        0
      ],
      "jt": {
        "ini": 8,
        "fim": 18
      }
    },
    {
      "zona": 0,
      "id": 10128,
      "x": -38.535,
      "y": -3.7664,
      "totais": [
        111.752252,
        0.166666666,
        1,
        0,
        0
      ],
      "jt": {
        "ini": 8,
        "fim": 18
      }
    },
    {
      "zona": 0,
      "id": 10130,
      "x": -38.4672,
      "y": -3.7651,
      "totais": [
        1249.527754,
        0.166666666,
        1,
        0,
        0
      ],
      "jt": {
        "ini": 8,
        "fim": 18
      }
    },
    {
      "zona": 0,
      "id": 10131,
      "x": -38.5966,
      "y": -3.7218,
      "totais": [
        414.1077,
        0.166666666,
        1,
        0,
        0
      ],
      "jt": {
        "ini": 8,
        "fim": 18
      }
    },
    {
      "zona": 0,
      "id": 10133,
      "x": -38.5949,
      "y": -3.7767,
      "totais": [
        439.42406,
        0.166666666,
        1,
        0,
        0
      ],
      "jt": {
        "ini": 8,
        "fim": 18
      }
    },
    {
      "zona": 1,
      "id": 10134,
      "x": -38.5279,
      "y": -3.7335,
      "totais": [
        294.707311,
        0.166666666,
        1,
        0,
        0
      ],
      "jt": {
        "ini": 8,
        "fim": 18
      }
    },
    {
      "zona": 0,
      "id": 10136,
      "x": -38.5312,
      "y": -3.7585,
      "totais": [
        796.612282,
        0.166666666,
        1,
        0,
        0
      ],
      "jt": {
        "ini": 8,
        "fim": 18
      }
    },
    {
      "zona": 0,
      "id": 10137,
      "x": -38.4955,
      "y": -3.752,
      "totais": [
        182.225048,
        0.166666666,
        1,
        0,
        0
      ],
      "jt": {
        "ini": 8,
        "fim": 18
      }
    },
    {
      "zona": 0,
      "id": 10140,
      "x": -38.5868,
      "y": -3.7391,
      "totais": [
        246.338644,
        0.166666666,
        1,
        0,
        0
      ],
      "jt": {
        "ini": 8,
        "fim": 18
      }
    },
    {
      "zona": 0,
      "id": 10142,
      "x": -38.5923,
      "y": -3.7203,
      "totais": [
        49.216205,
        0.166666666,
        1,
        0,
        0
      ],
      "jt": {
        "ini": 8,
        "fim": 12
      }
    },
    {
      "zona": 0,
      "id": 10143,
      "x": -38.5395374812,
      "y": -3.7241309214,
      "totais": [
        434.981986,
        0.166666666,
        1,
        0,
        0
      ],
      "jt": {
        "ini": 8,
        "fim": 18
      }
    },
    {
      "zona": 0,
      "id": 10144,
      "x": -38.4826,
      "y": -3.761,
      "totais": [
        91.412454,
        0.166666666,
        1,
        0,
        0
      ],
      "jt": {
        "ini": 8,
        "fim": 18
      }
    },
    {
      "zona": 0,
      "id": 10146,
      "x": -38.5545,
      "y": -3.7298,
      "totais": [
        678.393674,
        0.166666666,
        1,
        0,
        0
      ],
      "jt": {
        "ini": 8,
        "fim": 18
      }
    },
    {
      "zona": 0,
      "id": 10147,
      "x": -38.5942,
      "y": -3.7437,
      "totais": [
        27.480683,
        0.166666666,
        1,
        0,
        0
      ],
      "jt": {
        "ini": 8,
        "fim": 18
      }
    },
    {
      "zona": 0,
      "id": 10149,
      "x": -38.5143,
      "y": -3.7858,
      "totais": [
        2166.326746,
        0.166666666,
        1,
        0,
        0
      ],
      "jt": {
        "ini": 8,
        "fim": 18
      }
    },
    {
      "zona": 1,
      "id": 1012,
      "x": -38.4958644968,
      "y": -3.7376868804,
      "totais": [
        191.516277,
        0.166666666,
        1,
        0,
        0
      ],
      "jt": {
        "ini": 8,
        "fim": 18
      }
    },
    {
      "zona": 0,
      "id": 1014,
      "x": -38.5290979719,
      "y": -3.7417848523,
      "totais": [
        812.423696,
        0.166666666,
        1,
        0,
        0
      ],
      "jt": {
        "ini": 14,
        "fim": 18
      }
    },
    {
      "zona": 0,
      "id": 1015,
      "x": -38.4837178017,
      "y": -3.7272230095,
      "totais": [
        603.539346,
        0.166666666,
        1,
        0,
        0
      ],
      "jt": {
        "ini": 8,
        "fim": 18
      }
    },
    {
      "zona": 0,
      "id": 1016,
      "x": -38.5004,
      "y": -3.7886,
      "totais": [
        58.219582,
        0.166666666,
        1,
        0,
        0
      ],
      "jt": {
        "ini": 8,
        "fim": 18
      }
    },
    {
      "zona": 0,
      "id": 1017,
      "x": -38.5504,
      "y": -3.7837,
      "totais": [
        259.024988,
        0.166666666,
        1,
        0,
        0
      ],
      "jt": {
        "ini": 8,
        "fim": 18
      }
    },
    {
      "zona": 0,
      "id": 1019,
      "x": -38.5413,
      "y": -3.7802,
      "totais": [
        30.347856,
        0.166666666,
        1,
        0,
        0
      ],
      "jt": {
        "ini": 8,
        "fim": 18
      }
    },
    {
      "zona": 0,
      "id": 1021,
      "x": -38.4816402355,
      "y": -3.7500493992,
      "totais": [
        1657.690689,
        0.166666666,
        1,
        0,
        0
      ],
      "jt": {
        "ini": 8,
        "fim": 18
      }
    },
    {
      "zona": 0,
      "id": 1022,
      "x": -38.5312,
      "y": -3.7604,
      "totais": [
        313.821373,
        0.166666666,
        1,
        0,
        0
      ],
      "jt": {
        "ini": 8,
        "fim": 18
      }
    },
    {
      "zona": 0,
      "id": 10231,
      "x": -38.4921,
      "y": -3.7611,
      "totais": [
        111.398325,
        0.166666666,
        1,
        0,
        0
      ],
      "jt": {
        "ini": 8,
        "fim": 18
      }
    }
  ]
}



