{
  "zonas": [
    {
      "id": 0,
      "restricoes": [
        {
          "classeVeiculo": "TPP",
          "ini": 0.016666666666666666,
          "fim": 0.03333333333333333
        }
      ]
    },
    {
      "id": 1,
      "restricoes": [
        {
          "classeVeiculo": "PADRAO",
          "ini": 0.016666666666666666,
          "fim": 21
        }
      ]
    },
    {
      "id": 2,
      "restricoes": [
        {
          "classeVeiculo": "VUC",
          "ini": 0.016666666666666666,
          "fim": 23.983333333333334
        },
        {
          "classeVeiculo": "PADRAO",
          "ini": 0.016666666666666666,
          "fim": 23.983333333333334
        }
      ]
    }
  ],
  "params": {
    "almoco": {
      "ini": 12,
      "fim": 13,
      "atr": 0.5,
      "ant": 0.5
    },"kgHora":2000,
    "cd": {
      "id": 1,
      "x": -46.452119,
      "y": -23.434419
    },
    "exped": {
      "ini": 8,
      "fim": 18
    }
  },
  "veiculos": [
    {
      "classeVeiculo": "PADRAO",
      "id": "p01",
      "limites": [
        7000,
        10,
        30,
        0,
        0
      ]
    },
    {
      "classeVeiculo": "PADRAO",
      "id": "p02",
      "limites": [
        7000,
        10,
        30,
        0,
        0
      ]
    },
    {
      "classeVeiculo": "PADRAO",
      "id": "p03",
      "limites": [
        7000,
        10,
        30,
        0,
        0
      ]
    },
    {
      "classeVeiculo": "PADRAO",
      "id": "p04",
      "limites": [
        7000,
        10,
        30,
        0,
        0
      ]
    },
    {
      "classeVeiculo": "PADRAO",
      "id": "p05",
      "limites": [
        7000,
        10,
        30,
        0,
        0
      ]
    },
    {
      "classeVeiculo": "PADRAO",
      "id": "p06",
      "limites": [
        7000,
        10,
        30,
        0,
        0
      ]
    },
    {
      "classeVeiculo": "PADRAO",
      "id": "p07",
      "limites": [
        7000,
        10,
        30,
        0,
        0
      ]
    },
    {
      "classeVeiculo": "PADRAO",
      "id": "p08",
      "limites": [
        7000,
        10,
        30,
        0,
        0
      ]
    },
    {
      "classeVeiculo": "PADRAO",
      "id": "p09",
      "limites": [
        7000,
        10,
        30,
        0,
        0
      ]
    },
    {
      "classeVeiculo": "PADRAO",
      "id": "p10",
      "limites": [
        7000,
        10,
        30,
        0,
        0
      ]
    },
    {
      "classeVeiculo": "VUC",
      "id": "v01",
      "limites": [
        3500,
        10,
        30,
        0,
        0
      ]
    },
    {
      "classeVeiculo": "VUC",
      "id": "v02",
      "limites": [
        3500,
        10,
        30,
        0,
        0
      ]
    },
    {
      "classeVeiculo": "VUC",
      "id": "v03",
      "limites": [
        3500,
        10,
        30,
        0,
        0
      ]
    },
    {
      "classeVeiculo": "VUC",
      "id": "v04",
      "limites": [
        3500,
        10,
        30,
        0,
        0
      ]
    },
    {
      "classeVeiculo": "VUC",
      "id": "v05",
      "limites": [
        3500,
        10,
        30,
        0,
        0
      ]
    },
    {
      "classeVeiculo": "VUC",
      "id": "v06",
      "limites": [
        3500,
        10,
        30,
        0,
        0
      ]
    },
    {
      "classeVeiculo": "VUC",
      "id": "v07",
      "limites": [
        3500,
        10,
        30,
        0,
        0
      ]
    },
    {
      "classeVeiculo": "VUC",
      "id": "v08",
      "limites": [
        3500,
        10,
        30,
        0,
        0
      ]
    },
    {
      "classeVeiculo": "VUC",
      "id": "v09",
      "limites": [
        3500,
        10,
        30,
        0,
        0
      ]
    },
    {
      "classeVeiculo": "VUC",
      "id": "v10",
      "limites": [
        3500,
        10,
        30,
        0,
        0
      ]
    }
  ],
  "clientes": [
    {
      "zona": 0,
      "id": 43264,
      "x": -46.5322148,
      "y": -23.5974792,
      "totais": [
        798.71,
        0.166666666,
        1,
        0,
        0
      ],
      "jt": {
        "ini": 8,
        "fim": 18
      }
    },
    {
      "zona": 0,
      "id": 43522,
      "x": -46.4876918,
      "y": -23.4655675,
      "totais": [
        191.14,
        0.166666666,
        1,
        0,
        0
      ],
      "jt": {
        "ini": 8,
        "fim": 18
      }
    },
    {
      "zona": 0,
      "id": 43267,
      "x": -46.5853664503,
      "y": -23.49564217,
      "totais": [
        1038.63,
        0.166666666,
        1,
        0,
        0
      ],
      "jt": {
        "ini": 8,
        "fim": 12
      }
    },
    {
      "zona": 0,
      "id": 43525,
      "x": -46.6691815,
      "y": -23.6242033,
      "totais": [
        26.14,
        0.166666666,
        1,
        0,
        0
      ],
      "jt": {
        "ini": 8,
        "fim": 18
      }
    },
    {
      "zona": 0,
      "id": 43270,
      "x": -46.6603689,
      "y": -23.5097959,
      "totais": [
        564.17,
        0.166666666,
        1,
        0,
        0
      ],
      "jt": {
        "ini": 8,
        "fim": 18
      }
    },
    {
      "zona": 0,
      "id": 43526,
      "x": -46.4918853626,
      "y": -23.5256505233,
      "totais": [
        560.66,
        0.166666666,
        1,
        0,
        0
      ],
      "jt": {
        "ini": 8,
        "fim": 18
      }
    },
    {
      "zona": 0,
      "id": 1542,
      "x": -46.764453637,
      "y": -23.562111685,
      "totais": [
        1094,
        0.166666666,
        1,
        0,
        0
      ],
      "jt": {
        "ini": 8,
        "fim": 18
      }
    },
    {
      "zona": 0,
      "id": 43527,
      "x": -46.7075338,
      "y": -23.4980942,
      "totais": [
        79.17,
        0.166666666,
        1,
        0,
        0
      ],
      "jt": {
        "ini": 8,
        "fim": 18
      }
    },
    {
      "zona": 0,
      "id": 43528,
      "x": -46.5463393,
      "y": -23.4832405,
      "totais": [
        920.66,
        0.166666666,
        1,
        0,
        0
      ],
      "jt": {
        "ini": 8,
        "fim": 18
      }
    },
    {
      "zona": 0,
      "id": 4358987,
      "x": -46.5062533168,
      "y": -23.4900012129,
      "totais": [
        336.34,
        0.166666666,
        1,
        0,
        0
      ],
      "jt": {
        "ini": 8,
        "fim": 18
      }
    },
    {
      "zona": 0,
      "id": 43275,
      "x": -46.714236,
      "y": -23.6683236,
      "totais": [
        139.52,
        0.166666666,
        1,
        0,
        0
      ],
      "jt": {
        "ini": 8,
        "fim": 18
      }
    },
    {
      "zona": 0,
      "id": 43532,
      "x": -46.6159858,
      "y": -23.4578624,
      "totais": [
        76.34,
        0.166666666,
        1,
        0,
        0
      ],
      "jt": {
        "ini": 8,
        "fim": 18
      }
    },
    {
      "zona": 0,
      "id": 17425,
      "x": -46.5623619706,
      "y": -23.5779361548,
      "totais": [
        63.73,
        0.166666666,
        1,
        0,
        0
      ],
      "jt": {
        "ini": 14,
        "fim": 18
      }
    },
    {
      "zona": 0,
      "id": 43288,
      "x": -46.5612832735,
      "y": -23.5459948913,
      "totais": [
        320.58,
        0.166666666,
        1,
        0,
        0
      ],
      "jt": {
        "ini": 8,
        "fim": 18
      }
    },
    {
      "zona": 1,
      "id": 43289,
      "x": -46.6421007721,
      "y": -23.5826084082,
      "totais": [
        146.66,
        0.166666666,
        1,
        0,
        0
      ],
      "jt": {
        "ini": 8,
        "fim": 18
      }
    },
    {
      "zona": 0,
      "id": 17435,
      "x": -46.5697247447,
      "y": -23.5629908223,
      "totais": [
        16.61,
        0.166666666,
        1,
        0,
        0
      ],
      "jt": {
        "ini": 8,
        "fim": 18
      }
    },
    {
      "zona": 0,
      "id": 43292,
      "x": -46.577381,
      "y": -23.5186765,
      "totais": [
        149.03,
        0.166666666,
        1,
        0,
        0
      ],
      "jt": {
        "ini": 8,
        "fim": 18
      }
    },
    {
      "zona": 0,
      "id": 1564,
      "x": -46.7147823846,
      "y": -23.5691447827,
      "totais": [
        3933.89,
        0.166666666,
        1,
        0,
        0
      ],
      "jt": {
        "ini": 8,
        "fim": 18
      }
    },
    {
      "zona": 0,
      "id": 43301,
      "x": -46.4721992,
      "y": -23.4738544,
      "totais": [
        80.81,
        0.166666666,
        1,
        0,
        0
      ],
      "jt": {
        "ini": 8,
        "fim": 18
      }
    },
    {
      "zona": 0,
      "id": 43312,
      "x": -46.4291846,
      "y": -23.4676701,
      "totais": [
        195.56,
        0.166666666,
        1,
        0,
        0
      ],
      "jt": {
        "ini": 8,
        "fim": 18
      }
    },
    {
      "zona": 2,
      "id": 43313,
      "x": -46.6741295,
      "y": -23.6005402,
      "totais": [
        457.18,
        0.166666666,
        1,
        0,
        0
      ],
      "jt": {
        "ini": 8,
        "fim": 18
      }
    },
    {
      "zona": 2,
      "id": 43314,
      "x": -46.6429437,
      "y": -23.535445,
      "totais": [
        68.77,
        0.166666666,
        1,
        0,
        0
      ],
      "jt": {
        "ini": 8,
        "fim": 18
      }
    },
    {
      "zona": 0,
      "id": 43318,
      "x": -46.5344057,
      "y": -23.5085092,
      "totais": [
        1086.99,
        0.166666666,
        1,
        0,
        0
      ],
      "jt": {
        "ini": 8,
        "fim": 18
      }
    },
    {
      "zona": 0,
      "id": 43575,
      "x": -46.555638,
      "y": -23.672134,
      "totais": [
        165.71,
        0.166666666,
        1,
        0,
        0
      ],
      "jt": {
        "ini": 8,
        "fim": 18
      }
    },
    {
      "zona": 0,
      "id": 43320,
      "x": -46.6262265,
      "y": -23.4539781,
      "totais": [
        93.13,
        0.166666666,
        1,
        0,
        0
      ],
      "jt": {
        "ini": 8,
        "fim": 12
      }
    },
    {
      "zona": 0,
      "id": 43578,
      "x": -46.4366981,
      "y": -23.4689412,
      "totais": [
        552.16,
        0.166666666,
        1,
        0,
        0
      ],
      "jt": {
        "ini": 8,
        "fim": 18
      }
    },
    {
      "zona": 0,
      "id": 43580,
      "x": -46.4965861429,
      "y": -23.534074607,
      "totais": [
        100.9,
        0.166666666,
        1,
        0,
        0
      ],
      "jt": {
        "ini": 8,
        "fim": 18
      }
    },
    {
      "zona": 0,
      "id": 43585,
      "x": -46.5650589,
      "y": -23.4988195,
      "totais": [
        41.8,
        0.166666666,
        1,
        0,
        0
      ],
      "jt": {
        "ini": 8,
        "fim": 18
      }
    },
    {
      "zona": 0,
      "id": 43330,
      "x": -46.5083405,
      "y": -23.5655385,
      "totais": [
        471.06,
        0.166666666,
        1,
        0,
        0
      ],
      "jt": {
        "ini": 8,
        "fim": 18
      }
    },
    {
      "zona": 0,
      "id": 43587,
      "x": -46.6140234291,
      "y": -23.499854979,
      "totais": [
        428.12,
        0.166666666,
        1,
        0,
        0
      ],
      "jt": {
        "ini": 8,
        "fim": 18
      }
    },
    {
      "zona": 0,
      "id": 43332,
      "x": -46.7782486,
      "y": -23.6173973,
      "totais": [
        183.71,
        0.166666666,
        1,
        0,
        0
      ],
      "jt": {
        "ini": 8,
        "fim": 18
      }
    },
    {
      "zona": 0,
      "id": 43333,
      "x": -46.6630702,
      "y": -23.4969591,
      "totais": [
        345.14,
        0.166666666,
        1,
        0,
        0
      ],
      "jt": {
        "ini": 8,
        "fim": 18
      }
    },
    {
      "zona": 1,
      "id": 43589,
      "x": -46.6815454653,
      "y": -23.5351812465,
      "totais": [
        377.02,
        0.166666666,
        1,
        0,
        0
      ],
      "jt": {
        "ini": 8,
        "fim": 18
      }
    },
    {
      "zona": 0,
      "id": 43335,
      "x": -46.6486820477,
      "y": -23.6752614956,
      "totais": [
        285.46,
        0.166666666,
        1,
        0,
        0
      ],
      "jt": {
        "ini": 8,
        "fim": 18
      }
    },
    {
      "zona": 0,
      "id": 43336,
      "x": -46.5307569,
      "y": -23.5458472,
      "totais": [
        126.24,
        0.166666666,
        1,
        0,
        0
      ],
      "jt": {
        "ini": 8,
        "fim": 12
      }
    },
    {
      "zona": 0,
      "id": 43338,
      "x": -46.461219,
      "y": -23.4977035,
      "totais": [
        103.45,
        0.166666666,
        1,
        0,
        0
      ],
      "jt": {
        "ini": 8,
        "fim": 18
      }
    },
    {
      "zona": 0,
      "id": 43339,
      "x": -46.6920211897,
      "y": -23.4647147103,
      "totais": [
        450.55,
        0.166666666,
        1,
        0,
        0
      ],
      "jt": {
        "ini": 8,
        "fim": 18
      }
    },
    {
      "zona": 0,
      "id": 231245,
      "x": -46.5466473929,
      "y": -23.5805735665,
      "totais": [
        18.66,
        0.166666666,
        1,
        0,
        0
      ],
      "jt": {
        "ini": 8,
        "fim": 18
      }
    },
    {
      "zona": 0,
      "id": 43352,
      "x": -46.6883764,
      "y": -23.6710321,
      "totais": [
        325.18,
        0.166666666,
        1,
        0,
        0
      ],
      "jt": {
        "ini": 8,
        "fim": 18
      }
    },
    {
      "zona": 0,
      "id": 43353,
      "x": -46.6867842374,
      "y": -23.4578741568,
      "totais": [
        299.88,
        0.166666666,
        1,
        0,
        0
      ],
      "jt": {
        "ini": 8,
        "fim": 18
      }
    },
    {
      "zona": 0,
      "id": 43355,
      "x": -46.5793654,
      "y": -23.6689624,
      "totais": [
        75.81,
        0.166666666,
        1,
        0,
        0
      ],
      "jt": {
        "ini": 8,
        "fim": 18
      }
    },
    {
      "zona": 0,
      "id": 43356,
      "x": -46.6484876,
      "y": -23.4591593,
      "totais": [
        682.42,
        0.166666666,
        1,
        0,
        0
      ],
      "jt": {
        "ini": 8,
        "fim": 18
      }
    },
    {
      "zona": 0,
      "id": 43613,
      "x": -46.7787901594,
      "y": -23.5134289965,
      "totais": [
        152.95,
        0.166666666,
        1,
        0,
        0
      ],
      "jt": {
        "ini": 8,
        "fim": 18
      }
    },
    {
      "zona": 0,
      "id": 43357,
      "x": -46.5826656,
      "y": -23.4780276,
      "totais": [
        446.08,
        0.166666666,
        1,
        0,
        0
      ],
      "jt": {
        "ini": 8,
        "fim": 18
      }
    },
    {
      "zona": 0,
      "id": 21345,
      "x": -46.7220352666,
      "y": -23.6221127997,
      "totais": [
        82.12,
        0.166666666,
        1,
        0,
        0
      ],
      "jt": {
        "ini": 14,
        "fim": 18
      }
    },
    {
      "zona": 0,
      "id": 21347,
      "x": -46.5879668418,
      "y": -23.6243106427,
      "totais": [
        118.8,
        0.166666666,
        1,
        0,
        0
      ],
      "jt": {
        "ini": 8,
        "fim": 18
      }
    },
    {
      "zona": 0,
      "id": 43627,
      "x": -46.5438588,
      "y": -23.5411395,
      "totais": [
        51.66,
        0.166666666,
        1,
        0,
        0
      ],
      "jt": {
        "ini": 8,
        "fim": 18
      }
    },
    {
      "zona": 0,
      "id": 43628,
      "x": -46.5694348142,
      "y": -23.5460132744,
      "totais": [
        360.12,
        0.166666666,
        1,
        0,
        0
      ],
      "jt": {
        "ini": 8,
        "fim": 18
      }
    },
    {
      "zona": 0,
      "id": 43373,
      "x": -46.5213474766,
      "y": -23.5861313919,
      "totais": [
        17.24,
        0.166666666,
        1,
        0,
        0
      ],
      "jt": {
        "ini": 8,
        "fim": 18
      }
    },
    {
      "zona": 1,
      "id": 43374,
      "x": -46.6061531,
      "y": -23.5977984,
      "totais": [
        105.05,
        0.166666666,
        1,
        0,
        0
      ],
      "jt": {
        "ini": 8,
        "fim": 18
      }
    },
    {
      "zona": 0,
      "id": 43631,
      "x": -46.4629282,
      "y": -23.4568847,
      "totais": [
        48.08,
        0.166666666,
        1,
        0,
        0
      ],
      "jt": {
        "ini": 8,
        "fim": 18
      }
    },
    {
      "zona": 0,
      "id": 43375,
      "x": -46.5473920363,
      "y": -23.5264897785,
      "totais": [
        292.65,
        0.166666666,
        1,
        0,
        0
      ],
      "jt": {
        "ini": 8,
        "fim": 18
      }
    },
    {
      "zona": 0,
      "id": 43376,
      "x": -46.6300974756,
      "y": -23.4824111999,
      "totais": [
        319.59,
        0.166666666,
        1,
        0,
        0
      ],
      "jt": {
        "ini": 8,
        "fim": 18
      }
    },
    {
      "zona": 0,
      "id": 43632,
      "x": -46.5603333078,
      "y": -23.5318251172,
      "totais": [
        103.54,
        0.166666666,
        1,
        0,
        0
      ],
      "jt": {
        "ini": 8,
        "fim": 18
      }
    },
    {
      "zona": 0,
      "id": 43633,
      "x": -46.521373837,
      "y": -23.6262404885,
      "totais": [
        157.39,
        0.166666666,
        1,
        0,
        0
      ],
      "jt": {
        "ini": 8,
        "fim": 18
      }
    },
    {
      "zona": 0,
      "id": 43377,
      "x": -46.5243119,
      "y": -23.5197324,
      "totais": [
        44.18,
        0.166666666,
        1,
        0,
        0
      ],
      "jt": {
        "ini": 8,
        "fim": 18
      }
    },
    {
      "zona": 1,
      "id": 43378,
      "x": -46.7345589,
      "y": -23.5259025,
      "totais": [
        95.04,
        0.166666666,
        1,
        0,
        0
      ],
      "jt": {
        "ini": 8,
        "fim": 18
      }
    },
    {
      "zona": 0,
      "id": 433781,
      "x": -46.777530803,
      "y": -23.5461773231,
      "totais": [
        146.34,
        0.166666666,
        1,
        0,
        0
      ],
      "jt": {
        "ini": 8,
        "fim": 18
      }
    },
    {
      "zona": 0,
      "id": 43636,
      "x": -46.5494789,
      "y": -23.4781816,
      "totais": [
        125.1,
        0.166666666,
        1,
        0,
        0
      ],
      "jt": {
        "ini": 8,
        "fim": 12
      }
    },
    {
      "zona": 0,
      "id": 43637,
      "x": -46.5633373,
      "y": -23.6642156,
      "totais": [
        709.81,
        0.166666666,
        1,
        0,
        0
      ],
      "jt": {
        "ini": 8,
        "fim": 18
      }
    },
    {
      "zona": 0,
      "id": 43639,
      "x": -46.6033672,
      "y": -23.517316,
      "totais": [
        117.6,
        0.166666666,
        1,
        0,
        0
      ],
      "jt": {
        "ini": 8,
        "fim": 18
      }
    },
    {
      "zona": 0,
      "id": 43384,
      "x": -46.5402978,
      "y": -23.5981043,
      "totais": [
        905.72,
        0.166666666,
        1,
        0,
        0
      ],
      "jt": {
        "ini": 8,
        "fim": 18
      }
    },
    {
      "zona": 1,
      "id": 43641,
      "x": -46.6217457,
      "y": -23.5292826,
      "totais": [
        125.25,
        0.166666666,
        1,
        0,
        0
      ],
      "jt": {
        "ini": 8,
        "fim": 18
      }
    },
    {
      "zona": 0,
      "id": 43386,
      "x": -46.603797643,
      "y": -23.6349925768,
      "totais": [
        202.37,
        0.166666666,
        1,
        0,
        0
      ],
      "jt": {
        "ini": 8,
        "fim": 18
      }
    },
    {
      "zona": 0,
      "id": 142457,
      "x": -46.6369787414,
      "y": -23.4999127273,
      "totais": [
        488.37,
        0.166666666,
        1,
        0,
        0
      ],
      "jt": {
        "ini": 8,
        "fim": 18
      }
    },
    {
      "zona": 0,
      "id": 43388,
      "x": -46.56124,
      "y": -23.6706495,
      "totais": [
        102.58,
        0.166666666,
        1,
        0,
        0
      ],
      "jt": {
        "ini": 8,
        "fim": 18
      }
    },
    {
      "zona": 0,
      "id": 21374,
      "x": -46.7589590295,
      "y": -23.5812329194,
      "totais": [
        69,
        0.166666666,
        1,
        0,
        0
      ],
      "jt": {
        "ini": 8,
        "fim": 18
      }
    },
    {
      "zona": 0,
      "id": 43397,
      "x": -46.6139636,
      "y": -23.6843804,
      "totais": [
        348.54,
        0.166666666,
        1,
        0,
        0
      ],
      "jt": {
        "ini": 8,
        "fim": 18
      }
    },
    {
      "zona": 0,
      "id": 43399,
      "x": -46.5765811,
      "y": -23.6723784,
      "totais": [
        379.41,
        0.166666666,
        1,
        0,
        0
      ],
      "jt": {
        "ini": 8,
        "fim": 18
      }
    },
    {
      "zona": 0,
      "id": 43401,
      "x": -46.6974258453,
      "y": -23.4973589965,
      "totais": [
        1960.36,
        0.166666666,
        1,
        0,
        0
      ],
      "jt": {
        "ini": 8,
        "fim": 18
      }
    },
    {
      "zona": 0,
      "id": 43402,
      "x": -46.6598532629,
      "y": -23.6597213398,
      "totais": [
        59.62,
        0.166666666,
        1,
        0,
        0
      ],
      "jt": {
        "ini": 8,
        "fim": 18
      }
    },
    {
      "zona": 0,
      "id": 43406,
      "x": -46.482899,
      "y": -23.461929,
      "totais": [
        173.31,
        0.166666666,
        1,
        0,
        0
      ],
      "jt": {
        "ini": 14,
        "fim": 18
      }
    },
    {
      "zona": 0,
      "id": 43407,
      "x": -46.4973884,
      "y": -23.4397371,
      "totais": [
        130.21,
        0.166666666,
        1,
        0,
        0
      ],
      "jt": {
        "ini": 8,
        "fim": 18
      }
    },
    {
      "zona": 0,
      "id": 43408,
      "x": -46.5146105778,
      "y": -23.5335033954,
      "totais": [
        601.63,
        0.166666666,
        1,
        0,
        0
      ],
      "jt": {
        "ini": 8,
        "fim": 18
      }
    },
    {
      "zona": 0,
      "id": 43411,
      "x": -46.4721992,
      "y": -23.4738544,
      "totais": [
        159.8,
        0.166666666,
        1,
        0,
        0
      ],
      "jt": {
        "ini": 8,
        "fim": 18
      }
    },
    {
      "zona": 0,
      "id": 43437,
      "x": -46.4735423,
      "y": -23.4612951,
      "totais": [
        31.09,
        0.166666666,
        1,
        0,
        0
      ],
      "jt": {
        "ini": 8,
        "fim": 18
      }
    },
    {
      "zona": 1,
      "id": 43441,
      "x": -46.5927439,
      "y": -23.5257385,
      "totais": [
        708.67,
        0.166666666,
        1,
        0,
        0
      ],
      "jt": {
        "ini": 8,
        "fim": 18
      }
    },
    {
      "zona": 0,
      "id": 43442,
      "x": -46.5723993,
      "y": -23.5056234,
      "totais": [
        76.51,
        0.166666666,
        1,
        0,
        0
      ],
      "jt": {
        "ini": 8,
        "fim": 18
      }
    },
    {
      "zona": 1,
      "id": 43443,
      "x": -46.6974335,
      "y": -23.513515,
      "totais": [
        27.79,
        0.166666666,
        1,
        0,
        0
      ],
      "jt": {
        "ini": 8,
        "fim": 18
      }
    },
    {
      "zona": 0,
      "id": 43444,
      "x": -46.5018171,
      "y": -23.5724025,
      "totais": [
        275.19,
        0.166666666,
        1,
        0,
        0
      ],
      "jt": {
        "ini": 8,
        "fim": 18
      }
    },
    {
      "zona": 0,
      "id": 43445,
      "x": -46.4867538,
      "y": -23.4578972,
      "totais": [
        75.48,
        0.166666666,
        1,
        0,
        0
      ],
      "jt": {
        "ini": 8,
        "fim": 18
      }
    },
    {
      "zona": 0,
      "id": 43448,
      "x": -46.4815692,
      "y": -23.4608587,
      "totais": [
        211.87,
        0.166666666,
        1,
        0,
        0
      ],
      "jt": {
        "ini": 8,
        "fim": 18
      }
    },
    {
      "zona": 0,
      "id": 213451,
      "x": -46.560493804,
      "y": -23.5970573892,
      "totais": [
        87.71,
        0.166666666,
        1,
        0,
        0
      ],
      "jt": {
        "ini": 8,
        "fim": 18
      }
    },
    {
      "zona": 0,
      "id": 1487,
      "x": -46.7437939126,
      "y": -23.5717821944,
      "totais": [
        418.96,
        0.166666666,
        1,
        0,
        0
      ],
      "jt": {
        "ini": 8,
        "fim": 18
      }
    },
    {
      "zona": 0,
      "id": 43478,
      "x": -46.5776164,
      "y": -23.5124599,
      "totais": [
        440.45,
        0.166666666,
        1,
        0,
        0
      ],
      "jt": {
        "ini": 8,
        "fim": 12
      }
    },
    {
      "zona": 0,
      "id": 43482,
      "x": -46.4291846,
      "y": -23.4676701,
      "totais": [
        10.63,
        0.166666666,
        1,
        0,
        0
      ],
      "jt": {
        "ini": 8,
        "fim": 18
      }
    },
    {
      "zona": 0,
      "id": 43483,
      "x": -46.6791371,
      "y": -23.5047769,
      "totais": [
        56.51,
        0.166666666,
        1,
        0,
        0
      ],
      "jt": {
        "ini": 8,
        "fim": 18
      }
    },
    {
      "zona": 0,
      "id": 43488,
      "x": -46.6734684,
      "y": -23.5088157,
      "totais": [
        7.26,
        0.166666666,
        1,
        0,
        0
      ],
      "jt": {
        "ini": 8,
        "fim": 18
      }
    },
    {
      "zona": 0,
      "id": 43492,
      "x": -46.5254388,
      "y": -23.5559757,
      "totais": [
        205.83,
        0.166666666,
        1,
        0,
        0
      ],
      "jt": {
        "ini": 8,
        "fim": 18
      }
    },
    {
      "zona": 0,
      "id": 43493,
      "x": -46.5593989545,
      "y": -23.62985057,
      "totais": [
        21.99,
        0.166666666,
        1,
        0,
        0
      ],
      "jt": {
        "ini": 8,
        "fim": 18
      }
    },
    {
      "zona": 0,
      "id": 247524,
      "x": -46.5442297656,
      "y": -23.5563972932,
      "totais": [
        598.27,
        0.166666666,
        1,
        0,
        0
      ],
      "jt": {
        "ini": 8,
        "fim": 18
      }
    },
    {
      "zona": 0,
      "id": 43496,
      "x": -46.7065025,
      "y": -23.6470384,
      "totais": [
        57.73,
        0.166666666,
        1,
        0,
        0
      ],
      "jt": {
        "ini": 8,
        "fim": 18
      }
    },
    {
      "zona": 0,
      "id": 43499,
      "x": -46.509155,
      "y": -23.5499475,
      "totais": [
        272.54,
        0.166666666,
        1,
        0,
        0
      ],
      "jt": {
        "ini": 8,
        "fim": 18
      }
    },
    {
      "zona": 0,
      "id": 43255,
      "x": -46.4973884,
      "y": -23.4397371,
      "totais": [
        418.63,
        0.166666666,
        1,
        0,
        0
      ],
      "jt": {
        "ini": 14,
        "fim": 18
      }
    },
    {
      "zona": 0,
      "id": 43512,
      "x": -46.4735738,
      "y": -23.4577907,
      "totais": [
        55.33,
        0.166666666,
        1,
        0,
        0
      ],
      "jt": {
        "ini": 8,
        "fim": 18
      }
    },
    {
      "zona": 0,
      "id": 43256,
      "x": -46.6032489512,
      "y": -23.4929963523,
      "totais": [
        135.81,
        0.166666666,
        1,
        0,
        0
      ],
      "jt": {
        "ini": 8,
        "fim": 18
      }
    },
    {
      "zona": 1,
      "id": 43258,
      "x": -46.6957578,
      "y": -23.5532638,
      "totais": [
        484.58,
        0.166666666,
        1,
        0,
        0
      ],
      "jt": {
        "ini": 8,
        "fim": 18
      }
    },
    {
      "zona": 0,
      "id": 43259,
      "x": -46.4867538,
      "y": -23.4578972,
      "totais": [
        43.93,
        0.166666666,
        1,
        0,
        0
      ],
      "jt": {
        "ini": 8,
        "fim": 18
      }
    },
    {
      "zona": 0,
      "id": 43517,
      "x": -46.565843,
      "y": -23.5139556,
      "totais": [
        391.75,
        0.166666666,
        1,
        0,
        0
      ],
      "jt": {
        "ini": 8,
        "fim": 18
      }
    },
    {
      "zona": 0,
      "id": 432621,
      "x": -46.5919731,
      "y": -23.6534894,
      "totais": [
        107.92,
        0.166666666,
        1,
        0,
        0
      ],
      "jt": {
        "ini": 8,
        "fim": 12
      }
    }
  ]
}



