{
  "zonas": [
    {
      "id": 0,
      "restricoes": [
        {
          "classeVeiculo": "TPP",
          "ini": 0.016666666666666666,
          "fim": 0.03333333333333333
        }
      ]
    },
    {
      "id": 1,
      "restricoes": [
        {
          "classeVeiculo": "PADRAO",
          "ini": 0.016666666666666666,
          "fim": 21
        }
      ]
    }
  ],
  "params": {
    "almoco": {
      "ini": 12,
      "fim": 13,
      "atr": 0.5,
      "ant": 0.5
    },"kgHora":2000,
    "cd": {
      "id": 1,
      "x": -34.87974058615,
      "y": -8.04574330043902
    },
    "exped": {
      "ini": 8,
      "fim": 18
    }
  },
  "veiculos": [
    {
      "classeVeiculo": "PADRAO",
      "id": "p01",
      "limites": [
        7000,
        10,
        30,
        0,
        0
      ]
    },
    {
      "classeVeiculo": "PADRAO",
      "id": "p02",
      "limites": [
        7000,
        10,
        30,
        0,
        0
      ]
    },
    {
      "classeVeiculo": "PADRAO",
      "id": "p03",
      "limites": [
        7000,
        10,
        30,
        0,
        0
      ]
    },
    {
      "classeVeiculo": "PADRAO",
      "id": "p04",
      "limites": [
        7000,
        10,
        30,
        0,
        0
      ]
    },
    {
      "classeVeiculo": "PADRAO",
      "id": "p05",
      "limites": [
        7000,
        10,
        30,
        0,
        0
      ]
    },
    {
      "classeVeiculo": "PADRAO",
      "id": "p06",
      "limites": [
        7000,
        10,
        30,
        0,
        0
      ]
    },
    {
      "classeVeiculo": "PADRAO",
      "id": "p07",
      "limites": [
        7000,
        10,
        30,
        0,
        0
      ]
    },
    {
      "classeVeiculo": "PADRAO",
      "id": "p08",
      "limites": [
        7000,
        10,
        30,
        0,
        0
      ]
    },
    {
      "classeVeiculo": "PADRAO",
      "id": "p09",
      "limites": [
        7000,
        10,
        30,
        0,
        0
      ]
    },
    {
      "classeVeiculo": "PADRAO",
      "id": "p10",
      "limites": [
        7000,
        10,
        30,
        0,
        0
      ]
    },
    {
      "classeVeiculo": "VUC",
      "id": "v01",
      "limites": [
        3500,
        10,
        30,
        0,
        0
      ]
    },
    {
      "classeVeiculo": "VUC",
      "id": "v02",
      "limites": [
        3500,
        10,
        30,
        0,
        0
      ]
    },
    {
      "classeVeiculo": "VUC",
      "id": "v03",
      "limites": [
        3500,
        10,
        30,
        0,
        0
      ]
    },
    {
      "classeVeiculo": "VUC",
      "id": "v04",
      "limites": [
        3500,
        10,
        30,
        0,
        0
      ]
    },
    {
      "classeVeiculo": "VUC",
      "id": "v05",
      "limites": [
        3500,
        10,
        30,
        0,
        0
      ]
    },
    {
      "classeVeiculo": "VUC",
      "id": "v06",
      "limites": [
        3500,
        10,
        30,
        0,
        0
      ]
    },
    {
      "classeVeiculo": "VUC",
      "id": "v07",
      "limites": [
        3500,
        10,
        30,
        0,
        0
      ]
    },
    {
      "classeVeiculo": "VUC",
      "id": "v08",
      "limites": [
        3500,
        10,
        30,
        0,
        0
      ]
    },
    {
      "classeVeiculo": "VUC",
      "id": "v09",
      "limites": [
        3500,
        10,
        30,
        0,
        0
      ]
    },
    {
      "classeVeiculo": "VUC",
      "id": "v10",
      "limites": [
        3500,
        10,
        30,
        0,
        0
      ]
    }
  ],
  "clientes": [
    {
      "zona": 1,
      "id": 5376,
      "x": -34.8720306615466,
      "y": -8.06267386306306,
      "totais": [
        139.061794,
        0.166666666,
        1,
        0,
        0
      ],
      "jt": {
        "ini": 8,
        "fim": 12
      }
    },
    {
      "zona": 0,
      "id": 79111,
      "x": -34.8940153970746,
      "y": -8.06116223946574,
      "totais": [
        37.635484,
        0.166666666,
        1,
        0,
        0
      ],
      "jt": {
        "ini": 8,
        "fim": 18
      }
    },
    {
      "zona": 0,
      "id": 12,
      "x": -34.8869161595603,
      "y": -8.03319607910965,
      "totais": [
        42.871406,
        0.166666666,
        1,
        0,
        0
      ],
      "jt": {
        "ini": 8,
        "fim": 18
      }
    },
    {
      "zona": 0,
      "id": 4877,
      "x": -34.8811146321293,
      "y": -8.05209231685584,
      "totais": [
        141.401695,
        0.166666666,
        1,
        0,
        0
      ],
      "jt": {
        "ini": 14,
        "fim": 18
      }
    },
    {
      "zona": 0,
      "id": 4367,
      "x": -34.9335573866702,
      "y": -8.06085991292179,
      "totais": [
        60.100027,
        0.166666666,
        1,
        0,
        0
      ],
      "jt": {
        "ini": 8,
        "fim": 18
      }
    },
    {
      "zona": 0,
      "id": 90126,
      "x": -34.9218016600337,
      "y": -8.09925357354797,
      "totais": [
        15.267767,
        0.166666666,
        1,
        0,
        0
      ],
      "jt": {
        "ini": 8,
        "fim": 18
      }
    },
    {
      "zona": 0,
      "id": 3862,
      "x": -34.9260764697197,
      "y": -8.05345284204131,
      "totais": [
        5859.14941,
        0.166666666,
        1,
        0,
        0
      ],
      "jt": {
        "ini": 8,
        "fim": 18
      }
    },
    {
      "zona": 0,
      "id": 23,
      "x": -34.9095115821864,
      "y": -8.04740615311448,
      "totais": [
        469.350392,
        0.166666666,
        1,
        0,
        0
      ],
      "jt": {
        "ini": 8,
        "fim": 18
      }
    },
    {
      "zona": 0,
      "id": 3356,
      "x": -34.8795115784971,
      "y": -8.03017259490563,
      "totais": [
        22.578628,
        0.166666666,
        1,
        0,
        0
      ],
      "jt": {
        "ini": 8,
        "fim": 18
      }
    },
    {
      "zona": 0,
      "id": 7199,
      "x": -34.9156947890537,
      "y": -8.11315903657013,
      "totais": [
        175.776466,
        0.166666666,
        1,
        0,
        0
      ],
      "jt": {
        "ini": 8,
        "fim": 18
      }
    },
    {
      "zona": 0,
      "id": 78110,
      "x": -34.8773741736541,
      "y": -8.04037676827471,
      "totais": [
        1179.607595,
        0.166666666,
        1,
        0,
        0
      ],
      "jt": {
        "ini": 8,
        "fim": 18
      }
    },
    {
      "zona": 1,
      "id": 34,
      "x": -34.8860001289133,
      "y": -8.07280166472581,
      "totais": [
        481.348104,
        0.166666666,
        1,
        0,
        0
      ],
      "jt": {
        "ini": 8,
        "fim": 18
      }
    },
    {
      "zona": 0,
      "id": 2850,
      "x": -34.8738627228406,
      "y": -8.04680147925839,
      "totais": [
        197.019504,
        0.166666666,
        1,
        0,
        0
      ],
      "jt": {
        "ini": 8,
        "fim": 12
      }
    },
    {
      "zona": 0,
      "id": 6692,
      "x": -34.8951604353834,
      "y": -8.04831316440959,
      "totais": [
        719.509591,
        0.166666666,
        1,
        0,
        0
      ],
      "jt": {
        "ini": 8,
        "fim": 18
      }
    },
    {
      "zona": 0,
      "id": 89125,
      "x": -34.9379848681307,
      "y": -8.0820222249138,
      "totais": [
        75.532528,
        0.166666666,
        1,
        0,
        0
      ],
      "jt": {
        "ini": 8,
        "fim": 18
      }
    },
    {
      "zona": 0,
      "id": 2345,
      "x": -34.8928703587659,
      "y": -8.1133101802658,
      "totais": [
        358.042766,
        0.166666666,
        1,
        0,
        0
      ],
      "jt": {
        "ini": 8,
        "fim": 18
      }
    },
    {
      "zona": 0,
      "id": 6187,
      "x": -34.9077558567797,
      "y": -8.12917995180121,
      "totais": [
        784.624793,
        0.166666666,
        1,
        0,
        0
      ],
      "jt": {
        "ini": 8,
        "fim": 18
      }
    },
    {
      "zona": 0,
      "id": 812,
      "x": -34.9037100547554,
      "y": -8.13235383080486,
      "totais": [
        66.896076,
        0.166666666,
        1,
        0,
        0
      ],
      "jt": {
        "ini": 8,
        "fim": 18
      }
    },
    {
      "zona": 0,
      "id": 1836,
      "x": -34.9126413535637,
      "y": -8.07363314618348,
      "totais": [
        500.159166,
        0.166666666,
        1,
        0,
        0
      ],
      "jt": {
        "ini": 8,
        "fim": 18
      }
    },
    {
      "zona": 0,
      "id": 45,
      "x": -34.8897405873886,
      "y": -8.05791222453415,
      "totais": [
        397.039195,
        0.166666666,
        1,
        0,
        0
      ],
      "jt": {
        "ini": 8,
        "fim": 18
      }
    },
    {
      "zona": 0,
      "id": 1325,
      "x": -34.9142444071959,
      "y": -8.06887148997593,
      "totais": [
        666.940555,
        0.166666666,
        1,
        0,
        0
      ],
      "jt": {
        "ini": 8,
        "fim": 18
      }
    },
    {
      "zona": 0,
      "id": 5679,
      "x": -34.9153894455047,
      "y": -8.04211522628948,
      "totais": [
        355.128035,
        0.166666666,
        1,
        0,
        0
      ],
      "jt": {
        "ini": 8,
        "fim": 18
      }
    },
    {
      "zona": 0,
      "id": 5172,
      "x": -34.9364581503857,
      "y": -8.09925357354797,
      "totais": [
        310.197966,
        0.166666666,
        1,
        0,
        0
      ],
      "jt": {
        "ini": 8,
        "fim": 18
      }
    },
    {
      "zona": 1,
      "id": 77109,
      "x": -34.9018016575741,
      "y": -8.07695848686093,
      "totais": [
        1510.74542,
        0.166666666,
        1,
        0,
        0
      ],
      "jt": {
        "ini": 8,
        "fim": 18
      }
    },
    {
      "zona": 0,
      "id": 100151,
      "x": -34.8870688313349,
      "y": -8.05095858682243,
      "totais": [
        83.804141,
        0.166666666,
        1,
        0,
        0
      ],
      "jt": {
        "ini": 8,
        "fim": 18
      }
    },
    {
      "zona": 0,
      "id": 57,
      "x": -34.9324123483615,
      "y": -8.07854563548721,
      "totais": [
        147.277274,
        0.166666666,
        1,
        0,
        0
      ],
      "jt": {
        "ini": 8,
        "fim": 18
      }
    },
    {
      "zona": 0,
      "id": 88120,
      "x": -34.8872978389966,
      "y": -8.10499719262614,
      "totais": [
        856.383573,
        0.166666666,
        1,
        0,
        0
      ],
      "jt": {
        "ini": 8,
        "fim": 18
      }
    },
    {
      "zona": 0,
      "id": 4670,
      "x": -34.9155421172792,
      "y": -8.09366102360817,
      "totais": [
        14.78513,
        0.166666666,
        1,
        0,
        0
      ],
      "jt": {
        "ini": 8,
        "fim": 18
      }
    },
    {
      "zona": 0,
      "id": 4165,
      "x": -34.9158474608282,
      "y": -8.08156875842623,
      "totais": [
        69.351583,
        0.166666666,
        1,
        0,
        0
      ],
      "jt": {
        "ini": 8,
        "fim": 18
      }
    },
    {
      "zona": 0,
      "id": 3660,
      "x": -34.9330993713467,
      "y": -8.06841800872109,
      "totais": [
        298.697626,
        0.166666666,
        1,
        0,
        0
      ],
      "jt": {
        "ini": 14,
        "fim": 18
      }
    },
    {
      "zona": 0,
      "id": 99149,
      "x": -34.9288245616607,
      "y": -8.08625455421831,
      "totais": [
        213.458137,
        0.166666666,
        1,
        0,
        0
      ],
      "jt": {
        "ini": 8,
        "fim": 18
      }
    },
    {
      "zona": 0,
      "id": 76108,
      "x": -34.8885192131926,
      "y": -8.09018453451554,
      "totais": [
        1471.626181,
        0.166666666,
        1,
        0,
        0
      ],
      "jt": {
        "ini": 8,
        "fim": 18
      }
    },
    {
      "zona": 0,
      "id": 87119,
      "x": -34.8776795172031,
      "y": -8.08202222975236,
      "totais": [
        591.283262,
        0.166666666,
        1,
        0,
        0
      ],
      "jt": {
        "ini": 8,
        "fim": 18
      }
    },
    {
      "zona": 0,
      "id": 3153,
      "x": -34.8967634890156,
      "y": -8.05617382260527,
      "totais": [
        861.293395,
        0.166666666,
        1,
        0,
        0
      ],
      "jt": {
        "ini": 8,
        "fim": 18
      }
    },
    {
      "zona": 0,
      "id": 6995,
      "x": -34.9309619665037,
      "y": -8.09139375151451,
      "totais": [
        18.038799,
        0.166666666,
        1,
        0,
        0
      ],
      "jt": {
        "ini": 8,
        "fim": 18
      }
    },
    {
      "zona": 0,
      "id": 2648,
      "x": -34.923710057215,
      "y": -8.06342968134311,
      "totais": [
        1148.61735,
        0.166666666,
        1,
        0,
        0
      ],
      "jt": {
        "ini": 8,
        "fim": 18
      }
    },
    {
      "zona": 1,
      "id": 6490,
      "x": -34.8698932567035,
      "y": -8.05360400810792,
      "totais": [
        7.999969,
        0.166666666,
        1,
        0,
        0
      ],
      "jt": {
        "ini": 8,
        "fim": 18
      }
    },
    {
      "zona": 0,
      "id": 1629,
      "x": -34.9089495982938,
      "y": -8.09541965839672,
      "totais": [
        157.41552,
        0.166666666,
        1,
        0,
        0
      ],
      "jt": {
        "ini": 8,
        "fim": 18
      }
    },
    {
      "zona": 0,
      "id": 2143,
      "x": -34.9194352475289,
      "y": -8.08791724286529,
      "totais": [
        470.508399,
        0.166666666,
        1,
        0,
        0
      ],
      "jt": {
        "ini": 8,
        "fim": 12
      }
    },
    {
      "zona": 0,
      "id": 5985,
      "x": -34.8989008938586,
      "y": -8.11708875418205,
      "totais": [
        342.384424,
        0.166666666,
        1,
        0,
        0
      ],
      "jt": {
        "ini": 8,
        "fim": 18
      }
    },
    {
      "zona": 1,
      "id": 610,
      "x": -34.8869161595604,
      "y": -8.06977856543448,
      "totais": [
        405.581087,
        0.166666666,
        1,
        0,
        0
      ],
      "jt": {
        "ini": 8,
        "fim": 18
      }
    },
    {
      "zona": 0,
      "id": 75107,
      "x": -34.9218016600337,
      "y": -8.03274255791431,
      "totais": [
        607.987095,
        0.166666666,
        1,
        0,
        0
      ],
      "jt": {
        "ini": 8,
        "fim": 18
      }
    },
    {
      "zona": 0,
      "id": 98147,
      "x": -34.9166108197007,
      "y": -8.12101843335314,
      "totais": [
        510.783959,
        0.166666666,
        1,
        0,
        0
      ],
      "jt": {
        "ini": 8,
        "fim": 18
      }
    },
    {
      "zona": 0,
      "id": 1123,
      "x": -34.9079848644414,
      "y": -8.05609824991145,
      "totais": [
        645.263177,
        0.166666666,
        1,
        0,
        0
      ],
      "jt": {
        "ini": 8,
        "fim": 18
      }
    },
    {
      "zona": 0,
      "id": 5477,
      "x": -34.8921069998934,
      "y": -8.07983046784278,
      "totais": [
        123.744135,
        0.166666666,
        1,
        0,
        0
      ],
      "jt": {
        "ini": 8,
        "fim": 18
      }
    },
    {
      "zona": 0,
      "id": 86118,
      "x": -34.8900459309376,
      "y": -8.09562598243573,
      "totais": [
        65.139255,
        0.166666666,
        1,
        0,
        0
      ],
      "jt": {
        "ini": 8,
        "fim": 18
      }
    },
    {
      "zona": 0,
      "id": 4969,
      "x": -34.9114199793677,
      "y": -8.12948222707419,
      "totais": [
        415.438486,
        0.166666666,
        1,
        0,
        0
      ],
      "jt": {
        "ini": 8,
        "fim": 18
      }
    },
    {
      "zona": 0,
      "id": 4468,
      "x": -34.9213436447102,
      "y": -8.07340627453434,
      "totais": [
        2156.865702,
        0.166666666,
        1,
        0,
        0
      ],
      "jt": {
        "ini": 14,
        "fim": 18
      }
    },
    {
      "zona": 0,
      "id": 97145,
      "x": -34.9251604390727,
      "y": -8.10590407235514,
      "totais": [
        226.550698,
        0.166666666,
        1,
        0,
        0
      ],
      "jt": {
        "ini": 8,
        "fim": 18
      }
    },
    {
      "zona": 0,
      "id": 3963,
      "x": -34.9259237979452,
      "y": -8.04619680450013,
      "totais": [
        1198.73948,
        0.166666666,
        1,
        0,
        0
      ],
      "jt": {
        "ini": 8,
        "fim": 18
      }
    },
    {
      "zona": 0,
      "id": 74106,
      "x": -34.9123360100147,
      "y": -8.05753430602898,
      "totais": [
        220.100228,
        0.166666666,
        1,
        0,
        0
      ],
      "jt": {
        "ini": 8,
        "fim": 18
      }
    },
    {
      "zona": 0,
      "id": 85117,
      "x": -34.9001222680546,
      "y": -8.12404123731542,
      "totais": [
        16.918202,
        0.166666666,
        1,
        0,
        0
      ],
      "jt": {
        "ini": 8,
        "fim": 18
      }
    },
    {
      "zona": 0,
      "id": 3457,
      "x": -34.8830230293106,
      "y": -8.04045234931345,
      "totais": [
        97.303589,
        0.166666666,
        1,
        0,
        0
      ],
      "jt": {
        "ini": 8,
        "fim": 18
      }
    },
    {
      "zona": 0,
      "id": 2951,
      "x": -34.8831757010851,
      "y": -8.04649914180236,
      "totais": [
        802.788302,
        0.166666666,
        1,
        0,
        0
      ],
      "jt": {
        "ini": 8,
        "fim": 18
      }
    },
    {
      "zona": 0,
      "id": 6793,
      "x": -34.9172215067987,
      "y": -8.03485898582443,
      "totais": [
        52.989305,
        0.166666666,
        1,
        0,
        0
      ],
      "jt": {
        "ini": 8,
        "fim": 18
      }
    },
    {
      "zona": 0,
      "id": 96139,
      "x": -34.8717253179976,
      "y": -8.03727774706565,
      "totais": [
        349.504051,
        0.166666666,
        1,
        0,
        0
      ],
      "jt": {
        "ini": 8,
        "fim": 18
      }
    },
    {
      "zona": 0,
      "id": 2446,
      "x": -34.8849314264918,
      "y": -8.09547483209698,
      "totais": [
        222.530702,
        0.166666666,
        1,
        0,
        0
      ],
      "jt": {
        "ini": 8,
        "fim": 18
      }
    },
    {
      "zona": 1,
      "id": 6288,
      "x": -34.8792062349481,
      "y": -8.0712900545633,
      "totais": [
        58.143125,
        0.166666666,
        1,
        0,
        0
      ],
      "jt": {
        "ini": 8,
        "fim": 18
      }
    },
    {
      "zona": 1,
      "id": 73105,
      "x": -34.8801986014823,
      "y": -8.06229595389164,
      "totais": [
        426.482752,
        0.166666666,
        1,
        0,
        0
      ],
      "jt": {
        "ini": 8,
        "fim": 18
      }
    },
    {
      "zona": 0,
      "id": 1426,
      "x": -34.933786394332,
      "y": -8.03773126319336,
      "totais": [
        112.770639,
        0.166666666,
        1,
        0,
        0
      ],
      "jt": {
        "ini": 8,
        "fim": 18
      }
    },
    {
      "zona": 0,
      "id": 1938,
      "x": -34.8983665426479,
      "y": -8.06214480551336,
      "totais": [
        111.752252,
        0.166666666,
        1,
        0,
        0
      ],
      "jt": {
        "ini": 8,
        "fim": 18
      }
    },
    {
      "zona": 0,
      "id": 5780,
      "x": -34.9282138745627,
      "y": -8.0324402101693,
      "totais": [
        1249.527754,
        0.166666666,
        1,
        0,
        0
      ],
      "jt": {
        "ini": 8,
        "fim": 18
      }
    },
    {
      "zona": 0,
      "id": 84116,
      "x": -34.9040917341917,
      "y": -8.11950702283769,
      "totais": [
        414.1077,
        0.166666666,
        1,
        0,
        0
      ],
      "jt": {
        "ini": 8,
        "fim": 18
      }
    },
    {
      "zona": 0,
      "id": 921,
      "x": -34.9354657838515,
      "y": -8.05617382260527,
      "totais": [
        439.42406,
        0.166666666,
        1,
        0,
        0
      ],
      "jt": {
        "ini": 8,
        "fim": 18
      }
    },
    {
      "zona": 0,
      "id": 5275,
      "x": -34.9004276116036,
      "y": -8.03999883622765,
      "totais": [
        294.707311,
        0.166666666,
        1,
        0,
        0
      ],
      "jt": {
        "ini": 8,
        "fim": 18
      }
    },
    {
      "zona": 0,
      "id": 4771,
      "x": -34.9117253229167,
      "y": -8.09003338213559,
      "totais": [
        796.612282,
        0.166666666,
        1,
        0,
        0
      ],
      "jt": {
        "ini": 8,
        "fim": 18
      }
    },
    {
      "zona": 0,
      "id": 95138,
      "x": -34.9059237954857,
      "y": -8.10529948609629,
      "totais": [
        182.225048,
        0.166666666,
        1,
        0,
        0
      ],
      "jt": {
        "ini": 8,
        "fim": 18
      }
    },
    {
      "zona": 1,
      "id": 72102,
      "x": -34.8692825696056,
      "y": -8.0566271309389,
      "totais": [
        246.338644,
        0.166666666,
        1,
        0,
        0
      ],
      "jt": {
        "ini": 8,
        "fim": 18
      }
    },
    {
      "zona": 1,
      "id": 4266,
      "x": -34.8936337176384,
      "y": -8.07506901804988,
      "totais": [
        49.216205,
        0.166666666,
        1,
        0,
        0
      ],
      "jt": {
        "ini": 8,
        "fim": 18
      }
    },
    {
      "zona": 0,
      "id": 83115,
      "x": -34.8992062374076,
      "y": -8.03455663965571,
      "totais": [
        434.981986,
        0.166666666,
        1,
        0,
        0
      ],
      "jt": {
        "ini": 14,
        "fim": 18
      }
    },
    {
      "zona": 0,
      "id": 3761,
      "x": -34.9279085310137,
      "y": -8.07204584451116,
      "totais": [
        91.412454,
        0.166666666,
        1,
        0,
        0
      ],
      "jt": {
        "ini": 8,
        "fim": 18
      }
    },
    {
      "zona": 0,
      "id": 3254,
      "x": -34.8770688301051,
      "y": -8.03758009120711,
      "totais": [
        678.393674,
        0.166666666,
        1,
        0,
        0
      ],
      "jt": {
        "ini": 8,
        "fim": 18
      }
    },
    {
      "zona": 0,
      "id": 7096,
      "x": -34.9367634939347,
      "y": -8.07234816269002,
      "totais": [
        27.480683,
        0.166666666,
        1,
        0,
        0
      ],
      "jt": {
        "ini": 8,
        "fim": 18
      }
    },
    {
      "zona": 0,
      "id": 94136,
      "x": -34.9239390648767,
      "y": -8.03697540269889,
      "totais": [
        2166.326746,
        0.166666666,
        1,
        0,
        0
      ],
      "jt": {
        "ini": 8,
        "fim": 18
      }
    },
    {
      "zona": 0,
      "id": 2749,
      "x": -34.9105802846079,
      "y": -8.03259138406995,
      "totais": [
        191.516277,
        0.166666666,
        1,
        0,
        0
      ],
      "jt": {
        "ini": 8,
        "fim": 18
      }
    },
    {
      "zona": 0,
      "id": 6591,
      "x": -34.8798932579333,
      "y": -8.04816200234241,
      "totais": [
        812.423696,
        0.166666666,
        1,
        0,
        0
      ],
      "jt": {
        "ini": 8,
        "fim": 18
      }
    },
    {
      "zona": 0,
      "id": 1730,
      "x": -34.8965845540944,
      "y": -8.08842752847839,
      "totais": [
        603.539346,
        0.166666666,
        1,
        0,
        0
      ],
      "jt": {
        "ini": 8,
        "fim": 18
      }
    },
    {
      "zona": 0,
      "id": 82114,
      "x": -34.8833283728596,
      "y": -8.05723197677445,
      "totais": [
        58.219582,
        0.166666666,
        1,
        0,
        0
      ],
      "jt": {
        "ini": 8,
        "fim": 18
      }
    },
    {
      "zona": 0,
      "id": 2244,
      "x": -34.9029466958829,
      "y": -8.11451932778485,
      "totais": [
        259.024988,
        0.166666666,
        1,
        0,
        0
      ],
      "jt": {
        "ini": 8,
        "fim": 18
      }
    },
    {
      "zona": 0,
      "id": 6086,
      "x": -34.9071451696817,
      "y": -8.1173910385602,
      "totais": [
        30.347856,
        0.166666666,
        1,
        0,
        0
      ],
      "jt": {
        "ini": 8,
        "fim": 12
      }
    },
    {
      "zona": 0,
      "id": 711,
      "x": -34.8802749373696,
      "y": -8.0834583835505,
      "totais": [
        1657.690689,
        0.166666666,
        1,
        0,
        0
      ],
      "jt": {
        "ini": 8,
        "fim": 18
      }
    },
    {
      "zona": 0,
      "id": 1224,
      "x": -34.8937863894129,
      "y": -8.10409031085296,
      "totais": [
        313.821373,
        0.166666666,
        1,
        0,
        0
      ],
      "jt": {
        "ini": 8,
        "fim": 18
      }
    },
    {
      "zona": 0,
      "id": 5578,
      "x": -34.9193589116417,
      "y": -8.05904594891391,
      "totais": [
        111.398325,
        0.166666666,
        1,
        0,
        0
      ],
      "jt": {
        "ini": 8,
        "fim": 18
      }
    },
    {
      "zona": 0,
      "id": 93135,
      "x": -34.9221070035827,
      "y": -8.08051066797349,
      "totais": [
        283.381686,
        0.166666666,
        1,
        0,
        0
      ],
      "jt": {
        "ini": 8,
        "fim": 18
      }
    },
    {
      "zona": 0,
      "id": 5071,
      "x": -34.8992825732949,
      "y": -8.0698540144594,
      "totais": [
        317.650725,
        0.166666666,
        1,
        0,
        0
      ],
      "jt": {
        "ini": 8,
        "fim": 18
      }
    },
    {
      "zona": 0,
      "id": 81113,
      "x": -34.8924123434424,
      "y": -8.0454409564161,
      "totais": [
        14.076804,
        0.166666666,
        1,
        0,
        0
      ],
      "jt": {
        "ini": 8,
        "fim": 18
      }
    },
    {
      "zona": 0,
      "id": 4569,
      "x": -34.9233283777787,
      "y": -8.08761493634853,
      "totais": [
        124.356993,
        0.166666666,
        1,
        0,
        0
      ],
      "jt": {
        "ini": 8,
        "fim": 18
      }
    },
    {
      "zona": 0,
      "id": 4064,
      "x": -34.9295879205332,
      "y": -8.04665031065341,
      "totais": [
        95.426193,
        0.166666666,
        1,
        0,
        0
      ],
      "jt": {
        "ini": 8,
        "fim": 18
      }
    },
    {
      "zona": 0,
      "id": 92131,
      "x": -34.9132520406617,
      "y": -8.10318342703582,
      "totais": [
        624.045359,
        0.166666666,
        1,
        0,
        0
      ],
      "jt": {
        "ini": 8,
        "fim": 18
      }
    },
    {
      "zona": 0,
      "id": 3558,
      "x": -34.9356947915132,
      "y": -8.046952647807,
      "totais": [
        114.536953,
        0.166666666,
        1,
        0,
        0
      ],
      "jt": {
        "ini": 8,
        "fim": 18
      }
    },
    {
      "zona": 0,
      "id": 3052,
      "x": -34.8874505107711,
      "y": -8.06078433698421,
      "totais": [
        37.764538,
        0.166666666,
        1,
        0,
        0
      ],
      "jt": {
        "ini": 14,
        "fim": 18
      }
    },
    {
      "zona": 0,
      "id": 6894,
      "x": -34.9190535680927,
      "y": -8.11648418474335,
      "totais": [
        3183.387603,
        0.166666666,
        1,
        0,
        0
      ],
      "jt": {
        "ini": 8,
        "fim": 18
      }
    },
    {
      "zona": 0,
      "id": 80112,
      "x": -34.8976031837754,
      "y": -8.04536537614268,
      "totais": [
        458.022399,
        0.166666666,
        1,
        0,
        0
      ],
      "jt": {
        "ini": 8,
        "fim": 18
      }
    },
    {
      "zona": 0,
      "id": 2547,
      "x": -34.9212673088229,
      "y": -8.05042950886,
      "totais": [
        82.656127,
        0.166666666,
        1,
        0,
        0
      ],
      "jt": {
        "ini": 8,
        "fim": 18
      }
    },
    {
      "zona": 1,
      "id": 6389,
      "x": -34.8784428760756,
      "y": -8.06176689187583,
      "totais": [
        1468.259793,
        0.166666666,
        1,
        0,
        0
      ],
      "jt": {
        "ini": 8,
        "fim": 18
      }
    },
    {
      "zona": 0,
      "id": 91127,
      "x": -34.9083665438777,
      "y": -8.083231466389,
      "totais": [
        364.021059,
        0.166666666,
        1,
        0,
        0
      ],
      "jt": {
        "ini": 8,
        "fim": 18
      }
    },
    {
      "zona": 0,
      "id": 1527,
      "x": -34.9200459346269,
      "y": -8.10575292587561,
      "totais": [
        120.495304,
        0.166666666,
        1,
        0,
        0
      ],
      "jt": {
        "ini": 8,
        "fim": 18
      }
    },
    {
      "zona": 0,
      "id": 2042,
      "x": -34.8960764660304,
      "y": -8.0529993348871,
      "totais": [
        159.892488,
        0.166666666,
        1,
        0,
        0
      ],
      "jt": {
        "ini": 8,
        "fim": 12
      }
    },
    {
      "zona": 0,
      "id": 5883,
      "x": -34.9327940277977,
      "y": -8.03092846806717,
      "totais": [
        381.301582,
        0.166666666,
        1,
        0,
        0
      ],
      "jt": {
        "ini": 8,
        "fim": 18
      }
    },
    {
      "zona": 0,
      "id": 10221,
      "x": -34.8900459309376,
      "y": -8.0491446099073,
      "totais": [
        91.477839,
        0.166666666,
        1,
        0,
        0
      ],
      "jt": {
        "ini": 8,
        "fim": 18
      }
    }
  ]
}



