{
  "zonas": [
    {
      "id": 0,
      "restricoes": [
        {
          "classeVeiculo": "TPP",
          "ini": 0.016666666666666666,
          "fim": 0.03333333333333333
        }
      ]
    },
    {
      "id": 1,
      "restricoes": [
        {
          "classeVeiculo": "PADRAO",
          "ini": 0.016666666666666666,
          "fim": 21
        }
      ]
    }
  ],
  "params": {
    "almoco": {
      "ini": 12,
      "fim": 13,
      "atr": 0.5,
      "ant": 0.5
    },"kgHora":2000,
    "cd": {
      "id": 1,
      "x": -34.87974058615,
      "y": -8.04574330043902
    },
    "exped": {
      "ini": 8,
      "fim": 18
    }
  },
  "veiculos": [
    {
      "classeVeiculo": "PADRAO",
      "id": "p01",
      "limites": [
        7000,
        10,
        30,
        0,
        0
      ]
    },
    {
      "classeVeiculo": "PADRAO",
      "id": "p02",
      "limites": [
        7000,
        10,
        30,
        0,
        0
      ]
    },
    {
      "classeVeiculo": "PADRAO",
      "id": "p03",
      "limites": [
        7000,
        10,
        30,
        0,
        0
      ]
    },
    {
      "classeVeiculo": "PADRAO",
      "id": "p04",
      "limites": [
        7000,
        10,
        30,
        0,
        0
      ]
    },
    {
      "classeVeiculo": "PADRAO",
      "id": "p05",
      "limites": [
        7000,
        10,
        30,
        0,
        0
      ]
    },
    {
      "classeVeiculo": "PADRAO",
      "id": "p06",
      "limites": [
        7000,
        10,
        30,
        0,
        0
      ]
    },
    {
      "classeVeiculo": "PADRAO",
      "id": "p07",
      "limites": [
        7000,
        10,
        30,
        0,
        0
      ]
    },
    {
      "classeVeiculo": "PADRAO",
      "id": "p08",
      "limites": [
        7000,
        10,
        30,
        0,
        0
      ]
    },
    {
      "classeVeiculo": "PADRAO",
      "id": "p09",
      "limites": [
        7000,
        10,
        30,
        0,
        0
      ]
    },
    {
      "classeVeiculo": "PADRAO",
      "id": "p10",
      "limites": [
        7000,
        10,
        30,
        0,
        0
      ]
    },
    {
      "classeVeiculo": "VUC",
      "id": "v01",
      "limites": [
        3500,
        10,
        30,
        0,
        0
      ]
    },
    {
      "classeVeiculo": "VUC",
      "id": "v02",
      "limites": [
        3500,
        10,
        30,
        0,
        0
      ]
    },
    {
      "classeVeiculo": "VUC",
      "id": "v03",
      "limites": [
        3500,
        10,
        30,
        0,
        0
      ]
    },
    {
      "classeVeiculo": "VUC",
      "id": "v04",
      "limites": [
        3500,
        10,
        30,
        0,
        0
      ]
    },
    {
      "classeVeiculo": "VUC",
      "id": "v05",
      "limites": [
        3500,
        10,
        30,
        0,
        0
      ]
    },
    {
      "classeVeiculo": "VUC",
      "id": "v06",
      "limites": [
        3500,
        10,
        30,
        0,
        0
      ]
    },
    {
      "classeVeiculo": "VUC",
      "id": "v07",
      "limites": [
        3500,
        10,
        30,
        0,
        0
      ]
    },
    {
      "classeVeiculo": "VUC",
      "id": "v08",
      "limites": [
        3500,
        10,
        30,
        0,
        0
      ]
    },
    {
      "classeVeiculo": "VUC",
      "id": "v09",
      "limites": [
        3500,
        10,
        30,
        0,
        0
      ]
    },
    {
      "classeVeiculo": "VUC",
      "id": "v10",
      "limites": [
        3500,
        10,
        30,
        0,
        0
      ]
    }
  ],
  "clientes": [
    {
      "zona": 0,
      "id": 7172,
      "x": -34.9364581503857,
      "y": -8.09925357354797,
      "totais": [
        170.630373,
        0.166666666,
        1,
        0,
        0
      ],
      "jt": {
        "ini": 8,
        "fim": 18
      }
    },
    {
      "zona": 0,
      "id": 100101,
      "x": -34.9166108197007,
      "y": -8.15215222274271,
      "totais": [
        224.730297,
        0.166666666,
        1,
        0,
        0
      ],
      "jt": {
        "ini": 8,
        "fim": 12
      }
    },
    {
      "zona": 0,
      "id": 3846,
      "x": -34.8849314264918,
      "y": -8.09547483209698,
      "totais": [
        257.740767,
        0.166666666,
        1,
        0,
        0
      ],
      "jt": {
        "ini": 8,
        "fim": 18
      }
    },
    {
      "zona": 0,
      "id": 111112,
      "x": -34.8976031837754,
      "y": -8.04536537614268,
      "totais": [
        2323.388377,
        0.166666666,
        1,
        0,
        0
      ],
      "jt": {
        "ini": 8,
        "fim": 18
      }
    },
    {
      "zona": 0,
      "id": 122123,
      "x": -34.9196642551907,
      "y": -8.13915491548693,
      "totais": [
        705.278053,
        0.166666666,
        1,
        0,
        0
      ],
      "jt": {
        "ini": 8,
        "fim": 18
      }
    },
    {
      "zona": 0,
      "id": 133134,
      "x": -34.9456184568558,
      "y": -8.08837070221544,
      "totais": [
        152.251112,
        0.166666666,
        1,
        0,
        0
      ],
      "jt": {
        "ini": 8,
        "fim": 18
      }
    },
    {
      "zona": 0,
      "id": 3343,
      "x": -34.9194352475289,
      "y": -8.08791724286529,
      "totais": [
        501.438421,
        0.166666666,
        1,
        0,
        0
      ],
      "jt": {
        "ini": 14,
        "fim": 18
      }
    },
    {
      "zona": 0,
      "id": 144145,
      "x": -34.9251604390727,
      "y": -8.10590407235514,
      "totais": [
        404.511263,
        0.166666666,
        1,
        0,
        0
      ],
      "jt": {
        "ini": 8,
        "fim": 18
      }
    },
    {
      "zona": 1,
      "id": 6676,
      "x": -34.9477558616988,
      "y": -8.03878946551997,
      "totais": [
        105.339864,
        0.166666666,
        1,
        0,
        0
      ],
      "jt": {
        "ini": 8,
        "fim": 18
      }
    },
    {
      "zona": 0,
      "id": 2838,
      "x": -34.8983665426479,
      "y": -8.06214480551336,
      "totais": [
        38.482841,
        0.166666666,
        1,
        0,
        0
      ],
      "jt": {
        "ini": 8,
        "fim": 18
      }
    },
    {
      "zona": 0,
      "id": 23,
      "x": -34.9095115821864,
      "y": -8.04740615311448,
      "totais": [
        641.815736,
        0.166666666,
        1,
        0,
        0
      ],
      "jt": {
        "ini": 8,
        "fim": 18
      }
    },
    {
      "zona": 0,
      "id": 9495,
      "x": -34.9309619665037,
      "y": -8.09139375151451,
      "totais": [
        458.987467,
        0.166666666,
        1,
        0,
        0
      ],
      "jt": {
        "ini": 8,
        "fim": 18
      }
    },
    {
      "zona": 0,
      "id": 2329,
      "x": -34.927374179803,
      "y": -8.19703502027521,
      "totais": [
        1397.063864,
        0.166666666,
        1,
        0,
        0
      ],
      "jt": {
        "ini": 8,
        "fim": 18
      }
    },
    {
      "zona": 0,
      "id": 6169,
      "x": -34.9233283777787,
      "y": -8.08761493634853,
      "totais": [
        620.125199,
        0.166666666,
        1,
        0,
        0
      ],
      "jt": {
        "ini": 8,
        "fim": 18
      }
    },
    {
      "zona": 0,
      "id": 99100,
      "x": -34.9101986051717,
      "y": -8.13492314302627,
      "totais": [
        309.359876,
        0.166666666,
        1,
        0,
        0
      ],
      "jt": {
        "ini": 8,
        "fim": 18
      }
    },
    {
      "zona": 1,
      "id": 8990,
      "x": -34.8698932567035,
      "y": -8.05360400810792,
      "totais": [
        256.588198,
        0.166666666,
        1,
        0,
        0
      ],
      "jt": {
        "ini": 8,
        "fim": 12
      }
    },
    {
      "zona": 0,
      "id": 110111,
      "x": -34.8940153970746,
      "y": -8.06116223946574,
      "totais": [
        275.814457,
        0.166666666,
        1,
        0,
        0
      ],
      "jt": {
        "ini": 8,
        "fim": 18
      }
    },
    {
      "zona": 0,
      "id": 1824,
      "x": -34.8937863894129,
      "y": -8.10409031085296,
      "totais": [
        76.051919,
        0.166666666,
        1,
        0,
        0
      ],
      "jt": {
        "ini": 8,
        "fim": 18
      }
    },
    {
      "zona": 0,
      "id": 5664,
      "x": -34.9295879205332,
      "y": -8.04665031065341,
      "totais": [
        188.262401,
        0.166666666,
        1,
        0,
        0
      ],
      "jt": {
        "ini": 8,
        "fim": 18
      }
    },
    {
      "zona": 1,
      "id": 34,
      "x": -34.8860001289133,
      "y": -8.07280166472581,
      "totais": [
        348.04043,
        0.166666666,
        1,
        0,
        0
      ],
      "jt": {
        "ini": 8,
        "fim": 18
      }
    },
    {
      "zona": 0,
      "id": 121122,
      "x": -34.9343207455427,
      "y": -8.11799560663411,
      "totais": [
        401.714511,
        0.166666666,
        1,
        0,
        0
      ],
      "jt": {
        "ini": 8,
        "fim": 18
      }
    },
    {
      "zona": 0,
      "id": 8485,
      "x": -34.8989008938586,
      "y": -8.11708875418205,
      "totais": [
        99.191155,
        0.166666666,
        1,
        0,
        0
      ],
      "jt": {
        "ini": 8,
        "fim": 18
      }
    },
    {
      "zona": 0,
      "id": 1319,
      "x": -34.9208092934994,
      "y": -8.16257998951026,
      "totais": [
        27.869014,
        0.166666666,
        1,
        0,
        0
      ],
      "jt": {
        "ini": 8,
        "fim": 18
      }
    },
    {
      "zona": 0,
      "id": 5159,
      "x": -34.9387482270032,
      "y": -8.04891783380724,
      "totais": [
        318.729627,
        0.166666666,
        1,
        0,
        0
      ],
      "jt": {
        "ini": 8,
        "fim": 18
      }
    },
    {
      "zona": 0,
      "id": 132133,
      "x": -34.9636337262468,
      "y": -8.08262684610445,
      "totais": [
        2745.267596,
        0.166666666,
        1,
        0,
        0
      ],
      "jt": {
        "ini": 8,
        "fim": 18
      }
    },
    {
      "zona": 1,
      "id": 810,
      "x": -34.8869161595604,
      "y": -8.06977856543448,
      "totais": [
        29.900672,
        0.166666666,
        1,
        0,
        0
      ],
      "jt": {
        "ini": 14,
        "fim": 18
      }
    },
    {
      "zona": 0,
      "id": 143144,
      "x": -34.9459238004048,
      "y": -8.06418549247746,
      "totais": [
        220.819511,
        0.166666666,
        1,
        0,
        0
      ],
      "jt": {
        "ini": 8,
        "fim": 18
      }
    },
    {
      "zona": 0,
      "id": 7980,
      "x": -34.9282138745627,
      "y": -8.0324402101693,
      "totais": [
        156.354894,
        0.166666666,
        1,
        0,
        0
      ],
      "jt": {
        "ini": 8,
        "fim": 18
      }
    },
    {
      "zona": 0,
      "id": 45,
      "x": -34.8897405873886,
      "y": -8.05791222453415,
      "totais": [
        21.410179,
        0.166666666,
        1,
        0,
        0
      ],
      "jt": {
        "ini": 8,
        "fim": 18
      }
    },
    {
      "zona": 0,
      "id": 4654,
      "x": -34.8770688301051,
      "y": -8.03758009120711,
      "totais": [
        305.996675,
        0.166666666,
        1,
        0,
        0
      ],
      "jt": {
        "ini": 8,
        "fim": 18
      }
    },
    {
      "zona": 0,
      "id": 7475,
      "x": -34.9004276116036,
      "y": -8.03999883622765,
      "totais": [
        26.326748,
        0.166666666,
        1,
        0,
        0
      ],
      "jt": {
        "ini": 8,
        "fim": 12
      }
    },
    {
      "zona": 0,
      "id": 4149,
      "x": -34.9105802846079,
      "y": -8.03259138406995,
      "totais": [
        2.366301,
        0.166666666,
        1,
        0,
        0
      ],
      "jt": {
        "ini": 8,
        "fim": 18
      }
    },
    {
      "zona": 0,
      "id": 109110,
      "x": -34.8773741736541,
      "y": -8.04037676827471,
      "totais": [
        100.375945,
        0.166666666,
        1,
        0,
        0
      ],
      "jt": {
        "ini": 8,
        "fim": 18
      }
    },
    {
      "zona": 0,
      "id": 56,
      "x": -34.9586718935755,
      "y": -8.05194117827169,
      "totais": [
        1321.112902,
        0.166666666,
        1,
        0,
        0
      ],
      "jt": {
        "ini": 8,
        "fim": 18
      }
    },
    {
      "zona": 0,
      "id": 120121,
      "x": -34.9538627326788,
      "y": -8.02518379676276,
      "totais": [
        218.650945,
        0.166666666,
        1,
        0,
        0
      ],
      "jt": {
        "ini": 8,
        "fim": 18
      }
    },
    {
      "zona": 0,
      "id": 6970,
      "x": -34.9511146407378,
      "y": -8.11436818454392,
      "totais": [
        123.773215,
        0.166666666,
        1,
        0,
        0
      ],
      "jt": {
        "ini": 8,
        "fim": 18
      }
    },
    {
      "zona": 0,
      "id": 3644,
      "x": -34.9029466958829,
      "y": -8.11451932778485,
      "totais": [
        188.999446,
        0.166666666,
        1,
        0,
        0
      ],
      "jt": {
        "ini": 8,
        "fim": 18
      }
    },
    {
      "zona": 0,
      "id": 142143,
      "x": -34.9428703649148,
      "y": -8.0221602529281,
      "totais": [
        152.413371,
        0.166666666,
        1,
        0,
        0
      ],
      "jt": {
        "ini": 8,
        "fim": 18
      }
    },
    {
      "zona": 0,
      "id": 131132,
      "x": -34.9541680762278,
      "y": -8.07144120747475,
      "totais": [
        43.535189,
        0.166666666,
        1,
        0,
        0
      ],
      "jt": {
        "ini": 14,
        "fim": 18
      }
    },
    {
      "zona": 0,
      "id": 67,
      "x": -34.9324123483615,
      "y": -8.07854563548721,
      "totais": [
        345.356525,
        0.166666666,
        1,
        0,
        0
      ],
      "jt": {
        "ini": 8,
        "fim": 18
      }
    },
    {
      "zona": 0,
      "id": 3140,
      "x": -34.930427615293,
      "y": -8.13295837633834,
      "totais": [
        40.37477,
        0.166666666,
        1,
        0,
        0
      ],
      "jt": {
        "ini": 8,
        "fim": 18
      }
    },
    {
      "zona": 0,
      "id": 9798,
      "x": -34.9459238004048,
      "y": -8.04271990713567,
      "totais": [
        743.949926,
        0.166666666,
        1,
        0,
        0
      ],
      "jt": {
        "ini": 8,
        "fim": 18
      }
    },
    {
      "zona": 0,
      "id": 6472,
      "x": -34.9068398261327,
      "y": -8.00432088685379,
      "totais": [
        798.705472,
        0.166666666,
        1,
        0,
        0
      ],
      "jt": {
        "ini": 8,
        "fim": 18
      }
    },
    {
      "zona": 1,
      "id": 2636,
      "x": -34.8830230293106,
      "y": -8.07091228377718,
      "totais": [
        191.143592,
        0.166666666,
        1,
        0,
        0
      ],
      "jt": {
        "ini": 8,
        "fim": 18
      }
    },
    {
      "zona": 1,
      "id": 108109,
      "x": -34.9018016575741,
      "y": -8.07695848686093,
      "totais": [
        1038.629405,
        0.166666666,
        1,
        0,
        0
      ],
      "jt": {
        "ini": 8,
        "fim": 18
      }
    },
    {
      "zona": 0,
      "id": 9293,
      "x": -34.9172215067987,
      "y": -8.03485898582443,
      "totais": [
        26.141705,
        0.166666666,
        1,
        0,
        0
      ],
      "jt": {
        "ini": 8,
        "fim": 18
      }
    },
    {
      "zona": 0,
      "id": 78,
      "x": -34.9171451709114,
      "y": -8.01747371554732,
      "totais": [
        564.172423,
        0.166666666,
        1,
        0,
        0
      ],
      "jt": {
        "ini": 8,
        "fim": 18
      }
    },
    {
      "zona": 0,
      "id": 2127,
      "x": -34.9200459346269,
      "y": -8.10575292587561,
      "totais": [
        560.660297,
        0.166666666,
        1,
        0,
        0
      ],
      "jt": {
        "ini": 14,
        "fim": 18
      }
    },
    {
      "zona": 0,
      "id": 5967,
      "x": -34.9335573866702,
      "y": -8.06085991292179,
      "totais": [
        1093.997613,
        0.166666666,
        1,
        0,
        0
      ],
      "jt": {
        "ini": 8,
        "fim": 18
      }
    },
    {
      "zona": 0,
      "id": 119120,
      "x": -34.8872978389966,
      "y": -8.10499719262614,
      "totais": [
        79.174527,
        0.166666666,
        1,
        0,
        0
      ],
      "jt": {
        "ini": 8,
        "fim": 18
      }
    },
    {
      "zona": 0,
      "id": 130131,
      "x": -34.9132520406617,
      "y": -8.10318342703582,
      "totais": [
        920.661878,
        0.166666666,
        1,
        0,
        0
      ],
      "jt": {
        "ini": 8,
        "fim": 18
      }
    },
    {
      "zona": 1,
      "id": 8788,
      "x": -34.8792062349481,
      "y": -8.0712900545633,
      "totais": [
        336.344974,
        0.166666666,
        1,
        0,
        0
      ],
      "jt": {
        "ini": 8,
        "fim": 18
      }
    },
    {
      "zona": 0,
      "id": 141142,
      "x": -34.9135573842107,
      "y": -8.02790496698067,
      "totais": [
        16.606401,
        0.166666666,
        1,
        0,
        0
      ],
      "jt": {
        "ini": 8,
        "fim": 18
      }
    },
    {
      "zona": 0,
      "id": 1622,
      "x": -34.8900459309376,
      "y": -8.0491446099073,
      "totais": [
        139.52308,
        0.166666666,
        1,
        0,
        0
      ],
      "jt": {
        "ini": 8,
        "fim": 18
      }
    },
    {
      "zona": 0,
      "id": 5462,
      "x": -34.9260764697197,
      "y": -8.05345284204131,
      "totais": [
        76.336072,
        0.166666666,
        1,
        0,
        0
      ],
      "jt": {
        "ini": 8,
        "fim": 18
      }
    },
    {
      "zona": 1,
      "id": 8283,
      "x": -34.9002749398291,
      "y": -8.07431320619824,
      "totais": [
        63.72622,
        0.166666666,
        1,
        0,
        0
      ],
      "jt": {
        "ini": 8,
        "fim": 18
      }
    },
    {
      "zona": 0,
      "id": 1117,
      "x": -34.8982138708734,
      "y": -8.02352085043697,
      "totais": [
        320.576265,
        0.166666666,
        1,
        0,
        0
      ],
      "jt": {
        "ini": 8,
        "fim": 12
      }
    },
    {
      "zona": 0,
      "id": 4957,
      "x": -34.8830230293106,
      "y": -8.04045234931345,
      "totais": [
        146.662478,
        0.166666666,
        1,
        0,
        0
      ],
      "jt": {
        "ini": 8,
        "fim": 18
      }
    },
    {
      "zona": 0,
      "id": 7778,
      "x": -34.9193589116417,
      "y": -8.05904594891391,
      "totais": [
        16.609687,
        0.166666666,
        1,
        0,
        0
      ],
      "jt": {
        "ini": 8,
        "fim": 18
      }
    },
    {
      "zona": 0,
      "id": 4452,
      "x": -34.8874505107711,
      "y": -8.06078433698421,
      "totais": [
        149.029,
        0.166666666,
        1,
        0,
        0
      ],
      "jt": {
        "ini": 8,
        "fim": 18
      }
    },
    {
      "zona": 1,
      "id": 107108,
      "x": -34.8877558543201,
      "y": -8.07325511702247,
      "totais": [
        393.888201,
        0.166666666,
        1,
        0,
        0
      ],
      "jt": {
        "ini": 8,
        "fim": 18
      }
    },
    {
      "zona": 1,
      "id": 118119,
      "x": -34.8772215018796,
      "y": -8.06766220594028,
      "totais": [
        80.81144,
        0.166666666,
        1,
        0,
        0
      ],
      "jt": {
        "ini": 8,
        "fim": 18
      }
    },
    {
      "zona": 0,
      "id": 7273,
      "x": -34.9486718923458,
      "y": -8.05753430602898,
      "totais": [
        195.555112,
        0.166666666,
        1,
        0,
        0
      ],
      "jt": {
        "ini": 8,
        "fim": 18
      }
    },
    {
      "zona": 0,
      "id": 3947,
      "x": -34.9212673088229,
      "y": -8.05042950886,
      "totais": [
        457.18379,
        0.166666666,
        1,
        0,
        0
      ],
      "jt": {
        "ini": 8,
        "fim": 18
      }
    },
    {
      "zona": 0,
      "id": 129130,
      "x": -34.9224123471317,
      "y": -8.13099360002193,
      "totais": [
        68.773754,
        0.166666666,
        1,
        0,
        0
      ],
      "jt": {
        "ini": 8,
        "fim": 18
      }
    },
    {
      "zona": 0,
      "id": 140141,
      "x": -34.8851604341536,
      "y": -8.02246260832363,
      "totais": [
        1086.986575,
        0.166666666,
        1,
        0,
        0
      ],
      "jt": {
        "ini": 8,
        "fim": 18
      }
    },
    {
      "zona": 1,
      "id": 3442,
      "x": -34.927068836254,
      "y": -8.14384003999819,
      "totais": [
        165.707209,
        0.166666666,
        1,
        0,
        0
      ],
      "jt": {
        "ini": 8,
        "fim": 18
      }
    },
    {
      "zona": 1,
      "id": 6777,
      "x": -34.8772978377668,
      "y": -8.06418545909213,
      "totais": [
        93.131119,
        0.166666666,
        1,
        0,
        0
      ],
      "jt": {
        "ini": 8,
        "fim": 18
      }
    },
    {
      "zona": 0,
      "id": 106107,
      "x": -34.9218016600337,
      "y": -8.03274255791431,
      "totais": [
        552.158877,
        0.166666666,
        1,
        0,
        0
      ],
      "jt": {
        "ini": 8,
        "fim": 12
      }
    },
    {
      "zona": 0,
      "id": 2939,
      "x": -34.955465786311,
      "y": -8.08519647605543,
      "totais": [
        100.896023,
        0.166666666,
        1,
        0,
        0
      ],
      "jt": {
        "ini": 8,
        "fim": 18
      }
    },
    {
      "zona": 0,
      "id": 9596,
      "x": -34.9367634939347,
      "y": -8.07234816269002,
      "totais": [
        41.797561,
        0.166666666,
        1,
        0,
        0
      ],
      "jt": {
        "ini": 8,
        "fim": 18
      }
    },
    {
      "zona": 0,
      "id": 2430,
      "x": -34.934091737881,
      "y": -8.22000338354058,
      "totais": [
        471.063878,
        0.166666666,
        1,
        0,
        0
      ],
      "jt": {
        "ini": 8,
        "fim": 18
      }
    },
    {
      "zona": 0,
      "id": 6270,
      "x": -34.9155421172792,
      "y": -8.09366102360817,
      "totais": [
        428.115573,
        0.166666666,
        1,
        0,
        0
      ],
      "jt": {
        "ini": 8,
        "fim": 18
      }
    },
    {
      "zona": 0,
      "id": 117118,
      "x": -34.8900459309376,
      "y": -8.09562598243573,
      "totais": [
        183.713969,
        0.166666666,
        1,
        0,
        0
      ],
      "jt": {
        "ini": 8,
        "fim": 18
      }
    },
    {
      "zona": 0,
      "id": 128129,
      "x": -34.9361528068367,
      "y": -8.11255446121908,
      "totais": [
        345.138154,
        0.166666666,
        1,
        0,
        0
      ],
      "jt": {
        "ini": 8,
        "fim": 18
      }
    },
    {
      "zona": 0,
      "id": 9091,
      "x": -34.8798932579333,
      "y": -8.04816200234241,
      "totais": [
        377.01504,
        0.166666666,
        1,
        0,
        0
      ],
      "jt": {
        "ini": 14,
        "fim": 18
      }
    },
    {
      "zona": 0,
      "id": 1925,
      "x": -34.9142444071959,
      "y": -8.06887148997593,
      "totais": [
        285.457055,
        0.166666666,
        1,
        0,
        0
      ],
      "jt": {
        "ini": 8,
        "fim": 18
      }
    },
    {
      "zona": 0,
      "id": 5765,
      "x": -34.9158474608282,
      "y": -8.08156875842623,
      "totais": [
        126.243672,
        0.166666666,
        1,
        0,
        0
      ],
      "jt": {
        "ini": 8,
        "fim": 18
      }
    },
    {
      "zona": 0,
      "id": 150151,
      "x": -34.8721069974338,
      "y": -8.05141208736128,
      "totais": [
        103.453475,
        0.166666666,
        1,
        0,
        0
      ],
      "jt": {
        "ini": 8,
        "fim": 18
      }
    },
    {
      "zona": 0,
      "id": 139140,
      "x": -34.8811909680166,
      "y": -8.01913668660638,
      "totais": [
        450.545259,
        0.166666666,
        1,
        0,
        0
      ],
      "jt": {
        "ini": 8,
        "fim": 18
      }
    },
    {
      "zona": 0,
      "id": 8586,
      "x": -34.9071451696817,
      "y": -8.1173910385602,
      "totais": [
        18.655872,
        0.166666666,
        1,
        0,
        0
      ],
      "jt": {
        "ini": 8,
        "fim": 18
      }
    },
    {
      "zona": 0,
      "id": 1420,
      "x": -34.9244734160875,
      "y": -8.17769221175045,
      "totais": [
        325.182912,
        0.166666666,
        1,
        0,
        0
      ],
      "jt": {
        "ini": 8,
        "fim": 18
      }
    },
    {
      "zona": 0,
      "id": 5260,
      "x": -34.9330993713467,
      "y": -8.06841800872109,
      "totais": [
        299.876122,
        0.166666666,
        1,
        0,
        0
      ],
      "jt": {
        "ini": 8,
        "fim": 18
      }
    },
    {
      "zona": 1,
      "id": 911,
      "x": -34.8705039438016,
      "y": -8.05640077197137,
      "totais": [
        75.807001,
        0.166666666,
        1,
        0,
        0
      ],
      "jt": {
        "ini": 8,
        "fim": 18
      }
    },
    {
      "zona": 0,
      "id": 8081,
      "x": -34.9514199842868,
      "y": -8.04423160530596,
      "totais": [
        682.417899,
        0.166666666,
        1,
        0,
        0
      ],
      "jt": {
        "ini": 8,
        "fim": 18
      }
    },
    {
      "zona": 0,
      "id": 4755,
      "x": -34.8792062349481,
      "y": -8.02639320799839,
      "totais": [
        152.953257,
        0.166666666,
        1,
        0,
        0
      ],
      "jt": {
        "ini": 8,
        "fim": 18
      }
    },
    {
      "zona": 0,
      "id": 105106,
      "x": -34.9123360100147,
      "y": -8.05753430602898,
      "totais": [
        446.077194,
        0.166666666,
        1,
        0,
        0
      ],
      "jt": {
        "ini": 8,
        "fim": 18
      }
    },
    {
      "zona": 0,
      "id": 116117,
      "x": -34.9001222680546,
      "y": -8.12404123731542,
      "totais": [
        82.122035,
        0.166666666,
        1,
        0,
        0
      ],
      "jt": {
        "ini": 8,
        "fim": 18
      }
    },
    {
      "zona": 0,
      "id": 7576,
      "x": -34.8720306615466,
      "y": -8.06267386306306,
      "totais": [
        118.803186,
        0.166666666,
        1,
        0,
        0
      ],
      "jt": {
        "ini": 8,
        "fim": 18
      }
    },
    {
      "zona": 0,
      "id": 127128,
      "x": -34.9272978439157,
      "y": -8.12948222707418,
      "totais": [
        51.660889,
        0.166666666,
        1,
        0,
        0
      ],
      "jt": {
        "ini": 8,
        "fim": 18
      }
    },
    {
      "zona": 0,
      "id": 138139,
      "x": -34.8717253179976,
      "y": -8.03727774706565,
      "totais": [
        360.118782,
        0.166666666,
        1,
        0,
        0
      ],
      "jt": {
        "ini": 8,
        "fim": 18
      }
    },
    {
      "zona": 0,
      "id": 4250,
      "x": -34.8738627228406,
      "y": -8.04680147925839,
      "totais": [
        17.236137,
        0.166666666,
        1,
        0,
        0
      ],
      "jt": {
        "ini": 14,
        "fim": 18
      }
    },
    {
      "zona": 0,
      "id": 149150,
      "x": -34.9471451746008,
      "y": -8.0702319306874,
      "totais": [
        105.054496,
        0.166666666,
        1,
        0,
        0
      ],
      "jt": {
        "ini": 8,
        "fim": 18
      }
    },
    {
      "zona": 1,
      "id": 7071,
      "x": -34.8951604353834,
      "y": -8.07333067783208,
      "totais": [
        48.079113,
        0.166666666,
        1,
        0,
        0
      ],
      "jt": {
        "ini": 8,
        "fim": 18
      }
    },
    {
      "zona": 0,
      "id": 3745,
      "x": -34.8928703587659,
      "y": -8.1133101802658,
      "totais": [
        292.647284,
        0.166666666,
        1,
        0,
        0
      ],
      "jt": {
        "ini": 8,
        "fim": 18
      }
    },
    {
      "zona": 1,
      "id": 104105,
      "x": -34.8801986014823,
      "y": -8.06229595389164,
      "totais": [
        319.588188,
        0.166666666,
        1,
        0,
        0
      ],
      "jt": {
        "ini": 8,
        "fim": 18
      }
    },
    {
      "zona": 0,
      "id": 3242,
      "x": -34.8837100522958,
      "y": -8.06539476863484,
      "totais": [
        103.535565,
        0.166666666,
        1,
        0,
        0
      ],
      "jt": {
        "ini": 8,
        "fim": 18
      }
    },
    {
      "zona": 0,
      "id": 9899,
      "x": -34.9156947890537,
      "y": -8.11315903657013,
      "totais": [
        157.392639,
        0.166666666,
        1,
        0,
        0
      ],
      "jt": {
        "ini": 8,
        "fim": 18
      }
    },
    {
      "zona": 0,
      "id": 115116,
      "x": -34.9040917341917,
      "y": -8.11950702283769,
      "totais": [
        44.184429,
        0.166666666,
        1,
        0,
        0
      ],
      "jt": {
        "ini": 8,
        "fim": 18
      }
    },
    {
      "zona": 0,
      "id": 6574,
      "x": -34.9138627277597,
      "y": -8.00220430003014,
      "totais": [
        95.037195,
        0.166666666,
        1,
        0,
        0
      ],
      "jt": {
        "ini": 8,
        "fim": 18
      }
    },
    {
      "zona": 0,
      "id": 126127,
      "x": -34.9083665438777,
      "y": -8.083231466389,
      "totais": [
        146.342396,
        0.166666666,
        1,
        0,
        0
      ],
      "jt": {
        "ini": 8,
        "fim": 18
      }
    },
    {
      "zona": 0,
      "id": 1200,
      "x": -34.8869161595603,
      "y": -8.03319607910965,
      "totais": [
        125.103617,
        0.166666666,
        1,
        0,
        0
      ],
      "jt": {
        "ini": 8,
        "fim": 12
      }
    },
    {
      "zona": 0,
      "id": 137138,
      "x": -34.9059237954857,
      "y": -8.10529948609629,
      "totais": [
        709.812393,
        0.166666666,
        1,
        0,
        0
      ],
      "jt": {
        "ini": 8,
        "fim": 18
      }
    },
    {
      "zona": 0,
      "id": 2737,
      "x": -34.944473418547,
      "y": -8.01686899711292,
      "totais": [
        117.599631,
        0.166666666,
        1,
        0,
        0
      ],
      "jt": {
        "ini": 8,
        "fim": 18
      }
    },
    {
      "zona": 0,
      "id": 9394,
      "x": -34.9190535680927,
      "y": -8.11648418474335,
      "totais": [
        905.72041,
        0.166666666,
        1,
        0,
        0
      ],
      "jt": {
        "ini": 8,
        "fim": 18
      }
    },
    {
      "zona": 0,
      "id": 2228,
      "x": -34.931648989489,
      "y": -8.16499798351716,
      "totais": [
        125.245355,
        0.166666666,
        1,
        0,
        0
      ],
      "jt": {
        "ini": 8,
        "fim": 18
      }
    },
    {
      "zona": 0,
      "id": 6068,
      "x": -34.9213436447102,
      "y": -8.07340627453434,
      "totais": [
        202.366022,
        0.166666666,
        1,
        0,
        0
      ],
      "jt": {
        "ini": 8,
        "fim": 18
      }
    },
    {
      "zona": 0,
      "id": 148149,
      "x": -34.9288245616607,
      "y": -8.08625455421831,
      "totais": [
        488.372571,
        0.166666666,
        1,
        0,
        0
      ],
      "jt": {
        "ini": 8,
        "fim": 18
      }
    },
    {
      "zona": 1,
      "id": 8889,
      "x": -34.8784428760756,
      "y": -8.06176689187583,
      "totais": [
        102.581852,
        0.166666666,
        1,
        0,
        0
      ],
      "jt": {
        "ini": 8,
        "fim": 18
      }
    },
    {
      "zona": 1,
      "id": 1723,
      "x": -34.8803512732568,
      "y": -8.06773779277161,
      "totais": [
        69.001419,
        0.166666666,
        1,
        0,
        0
      ],
      "jt": {
        "ini": 8,
        "fim": 18
      }
    },
    {
      "zona": 0,
      "id": 5563,
      "x": -34.9259237979452,
      "y": -8.04619680450013,
      "totais": [
        348.542767,
        0.166666666,
        1,
        0,
        0
      ],
      "jt": {
        "ini": 8,
        "fim": 18
      }
    },
    {
      "zona": 0,
      "id": 8384,
      "x": -34.9303512794057,
      "y": -8.11104301886322,
      "totais": [
        379.414899,
        0.166666666,
        1,
        0,
        0
      ],
      "jt": {
        "ini": 8,
        "fim": 18
      }
    },
    {
      "zona": 0,
      "id": 103104,
      "x": -34.9126413535637,
      "y": -8.01974140166929,
      "totais": [
        1960.358363,
        0.166666666,
        1,
        0,
        0
      ],
      "jt": {
        "ini": 8,
        "fim": 12
      }
    },
    {
      "zona": 0,
      "id": 1218,
      "x": -34.9458474645175,
      "y": -8.12086729255759,
      "totais": [
        59.621553,
        0.166666666,
        1,
        0,
        0
      ],
      "jt": {
        "ini": 8,
        "fim": 18
      }
    },
    {
      "zona": 0,
      "id": 5058,
      "x": -34.9356947915132,
      "y": -8.046952647807,
      "totais": [
        173.309901,
        0.166666666,
        1,
        0,
        0
      ],
      "jt": {
        "ini": 8,
        "fim": 18
      }
    },
    {
      "zona": 0,
      "id": 114115,
      "x": -34.8992062374076,
      "y": -8.03455663965571,
      "totais": [
        130.214033,
        0.166666666,
        1,
        0,
        0
      ],
      "jt": {
        "ini": 8,
        "fim": 18
      }
    },
    {
      "zona": 0,
      "id": 7879,
      "x": -34.9153894455047,
      "y": -8.04211522628948,
      "totais": [
        601.630445,
        0.166666666,
        1,
        0,
        0
      ],
      "jt": {
        "ini": 8,
        "fim": 18
      }
    },
    {
      "zona": 0,
      "id": 125126,
      "x": -34.9218016600337,
      "y": -8.09925357354797,
      "totais": [
        159.79982,
        0.166666666,
        1,
        0,
        0
      ],
      "jt": {
        "ini": 8,
        "fim": 18
      }
    },
    {
      "zona": 1,
      "id": 4553,
      "x": -34.8811909680166,
      "y": -8.0640343268927,
      "totais": [
        31.093523,
        0.166666666,
        1,
        0,
        0
      ],
      "jt": {
        "ini": 8,
        "fim": 18
      }
    },
    {
      "zona": 0,
      "id": 136137,
      "x": -34.9416489907187,
      "y": -8.03092846806717,
      "totais": [
        708.668299,
        0.166666666,
        1,
        0,
        0
      ],
      "jt": {
        "ini": 8,
        "fim": 18
      }
    },
    {
      "zona": 0,
      "id": 7374,
      "x": -34.9199695987397,
      "y": -8.02669556024486,
      "totais": [
        76.513395,
        0.166666666,
        1,
        0,
        0
      ],
      "jt": {
        "ini": 8,
        "fim": 18
      }
    },
    {
      "zona": 0,
      "id": 147148,
      "x": -34.9095879180737,
      "y": -8.14822284878124,
      "totais": [
        27.789591,
        0.166666666,
        1,
        0,
        0
      ],
      "jt": {
        "ini": 8,
        "fim": 18
      }
    },
    {
      "zona": 0,
      "id": 4048,
      "x": -34.923710057215,
      "y": -8.06342968134311,
      "totais": [
        275.187942,
        0.166666666,
        1,
        0,
        0
      ],
      "jt": {
        "ini": 8,
        "fim": 18
      }
    },
    {
      "zona": 0,
      "id": 6869,
      "x": -34.9114199793677,
      "y": -8.12948222707419,
      "totais": [
        75.478772,
        0.166666666,
        1,
        0,
        0
      ],
      "jt": {
        "ini": 8,
        "fim": 18
      }
    },
    {
      "zona": 1,
      "id": 102103,
      "x": -34.8760001276836,
      "y": -8.06992960782815,
      "totais": [
        211.870951,
        0.166666666,
        1,
        0,
        0
      ],
      "jt": {
        "ini": 8,
        "fim": 18
      }
    },
    {
      "zona": 0,
      "id": 3543,
      "x": -34.9108856281569,
      "y": -8.14232871549919,
      "totais": [
        87.7116,
        0.166666666,
        1,
        0,
        0
      ],
      "jt": {
        "ini": 8,
        "fim": 18
      }
    },
    {
      "zona": 1,
      "id": 113114,
      "x": -34.8737100510661,
      "y": -8.0643366513974,
      "totais": [
        418.959396,
        0.166666666,
        1,
        0,
        0
      ],
      "jt": {
        "ini": 8,
        "fim": 18
      }
    },
    {
      "zona": 0,
      "id": 124125,
      "x": -34.9379848681307,
      "y": -8.0820222249138,
      "totais": [
        440.449601,
        0.166666666,
        1,
        0,
        0
      ],
      "jt": {
        "ini": 8,
        "fim": 18
      }
    },
    {
      "zona": 0,
      "id": 3040,
      "x": -34.953633725017,
      "y": -8.10272998436084,
      "totais": [
        10.63392,
        0.166666666,
        1,
        0,
        0
      ],
      "jt": {
        "ini": 8,
        "fim": 18
      }
    },
    {
      "zona": 0,
      "id": 9697,
      "x": -34.9468398310518,
      "y": -8.0496736720387,
      "totais": [
        56.508794,
        0.166666666,
        1,
        0,
        0
      ],
      "jt": {
        "ini": 8,
        "fim": 18
      }
    },
    {
      "zona": 0,
      "id": 146147,
      "x": -34.9166108197007,
      "y": -8.12101843335314,
      "totais": [
        7.262587,
        0.166666666,
        1,
        0,
        0
      ],
      "jt": {
        "ini": 8,
        "fim": 18
      }
    },
    {
      "zona": 0,
      "id": 135136,
      "x": -34.9239390648767,
      "y": -8.03697540269889,
      "totais": [
        205.834249,
        0.166666666,
        1,
        0,
        0
      ],
      "jt": {
        "ini": 8,
        "fim": 18
      }
    },
    {
      "zona": 0,
      "id": 6371,
      "x": -34.9117253229167,
      "y": -8.09003338213559,
      "totais": [
        21.989432,
        0.166666666,
        1,
        0,
        0
      ],
      "jt": {
        "ini": 8,
        "fim": 18
      }
    },
    {
      "zona": 0,
      "id": 2535,
      "x": -34.926152805607,
      "y": -8.00658864624963,
      "totais": [
        598.270983,
        0.166666666,
        1,
        0,
        0
      ],
      "jt": {
        "ini": 8,
        "fim": 18
      }
    },
    {
      "zona": 0,
      "id": 9192,
      "x": -34.8951604353834,
      "y": -8.04831316440959,
      "totais": [
        57.72536,
        0.166666666,
        1,
        0,
        0
      ],
      "jt": {
        "ini": 8,
        "fim": 18
      }
    },
    {
      "zona": 0,
      "id": 2026,
      "x": -34.933786394332,
      "y": -8.03773126319336,
      "totais": [
        272.536326,
        0.166666666,
        1,
        0,
        0
      ],
      "jt": {
        "ini": 8,
        "fim": 18
      }
    },
    {
      "zona": 1,
      "id": 5866,
      "x": -34.8936337176384,
      "y": -8.07506901804988,
      "totais": [
        418.625339,
        0.166666666,
        1,
        0,
        0
      ],
      "jt": {
        "ini": 8,
        "fim": 18
      }
    },
    {
      "zona": 0,
      "id": 8687,
      "x": -34.9077558567797,
      "y": -8.12917995180121,
      "totais": [
        55.326621,
        0.166666666,
        1,
        0,
        0
      ],
      "jt": {
        "ini": 8,
        "fim": 18
      }
    },
    {
      "zona": 1,
      "id": 101102,
      "x": -34.8692825696056,
      "y": -8.0566271309389,
      "totais": [
        135.805122,
        0.166666666,
        1,
        0,
        0
      ],
      "jt": {
        "ini": 8,
        "fim": 18
      }
    },
    {
      "zona": 0,
      "id": 112113,
      "x": -34.8924123434424,
      "y": -8.0454409564161,
      "totais": [
        484.579632,
        0.166666666,
        1,
        0,
        0
      ],
      "jt": {
        "ini": 8,
        "fim": 18
      }
    },
    {
      "zona": 0,
      "id": 1521,
      "x": -34.9354657838515,
      "y": -8.05617382260527,
      "totais": [
        43.928139,
        0.166666666,
        1,
        0,
        0
      ],
      "jt": {
        "ini": 8,
        "fim": 18
      }
    },
    {
      "zona": 0,
      "id": 5361,
      "x": -34.9279085310137,
      "y": -8.07204584451116,
      "totais": [
        391.747542,
        0.166666666,
        1,
        0,
        0
      ],
      "jt": {
        "ini": 8,
        "fim": 18
      }
    },
    {
      "zona": 0,
      "id": 1012,
      "x": -34.9037100547554,
      "y": -8.13235383080486,
      "totais": [
        107.918642,
        0.166666666,
        1,
        0,
        0
      ],
      "jt": {
        "ini": 8,
        "fim": 18
      }
    },
    {
      "zona": 0,
      "id": 123124,
      "x": -34.9404276165228,
      "y": -8.09471907955243,
      "totais": [
        135.885035,
        0.166666666,
        1,
        0,
        0
      ],
      "jt": {
        "ini": 8,
        "fim": 18
      }
    },
    {
      "zona": 0,
      "id": 134135,
      "x": -34.9221070035827,
      "y": -8.08051066797349,
      "totais": [
        208.817217,
        0.166666666,
        1,
        0,
        0
      ],
      "jt": {
        "ini": 8,
        "fim": 18
      }
    },
    {
      "zona": 0,
      "id": 8182,
      "x": -34.9550841068748,
      "y": -8.04030117834118,
      "totais": [
        136.845606,
        0.166666666,
        1,
        0,
        0
      ],
      "jt": {
        "ini": 14,
        "fim": 18
      }
    },
    {
      "zona": 0,
      "id": 4856,
      "x": -34.8795115784971,
      "y": -8.03017259490563,
      "totais": [
        72.740793,
        0.166666666,
        1,
        0,
        0
      ],
      "jt": {
        "ini": 8,
        "fim": 18
      }
    },
    {
      "zona": 0,
      "id": 145146,
      "x": -34.9050077648387,
      "y": -8.13945718323822,
      "totais": [
        147.283133,
        0.166666666,
        1,
        0,
        0
      ],
      "jt": {
        "ini": 8,
        "fim": 18
      }
    },
    {
      "zona": 0,
      "id": 7677,
      "x": -34.8921069998934,
      "y": -8.07983046784278,
      "totais": [
        242.487218,
        0.166666666,
        1,
        0,
        0
      ],
      "jt": {
        "ini": 8,
        "fim": 18
      }
    },
    {
      "zona": 0,
      "id": 4351,
      "x": -34.8831757010851,
      "y": -8.04649914180236,
      "totais": [
        496.174517,
        0.166666666,
        1,
        0,
        0
      ],
      "jt": {
        "ini": 8,
        "fim": 18
      }
    }
  ]
}



