{
  "zonas": [
    {
      "id": 0,
      "restricoes": [
        {
          "classeVeiculo": "TPP",
          "ini": 0.016666666666666666,
          "fim": 0.03333333333333333
        }
      ]
    },
    {
      "id": 1,
      "restricoes": [
        {
          "classeVeiculo": "PADRAO",
          "ini": 0.016666666666666666,
          "fim": 21
        }
      ]
    }
  ],
  "params": {
    "almoco": {
      "ini": 12,
      "fim": 13,
      "atr": 0.5,
      "ant": 0.5
    },"kgHora":2000,
    "cd": {
      "id": 1,
      "x": -34.87974058615,
      "y": -8.04574330043902
    },
    "exped": {
      "ini": 8,
      "fim": 18
    }
  },
  "veiculos": [
    {
      "classeVeiculo": "PADRAO",
      "id": "p01",
      "limites": [
        7000,
        10,
        30,
        0,
        0
      ]
    },
    {
      "classeVeiculo": "PADRAO",
      "id": "p02",
      "limites": [
        7000,
        10,
        30,
        0,
        0
      ]
    },
    {
      "classeVeiculo": "PADRAO",
      "id": "p03",
      "limites": [
        7000,
        10,
        30,
        0,
        0
      ]
    },
    {
      "classeVeiculo": "PADRAO",
      "id": "p04",
      "limites": [
        7000,
        10,
        30,
        0,
        0
      ]
    },
    {
      "classeVeiculo": "PADRAO",
      "id": "p05",
      "limites": [
        7000,
        10,
        30,
        0,
        0
      ]
    },
    {
      "classeVeiculo": "PADRAO",
      "id": "p06",
      "limites": [
        7000,
        10,
        30,
        0,
        0
      ]
    },
    {
      "classeVeiculo": "PADRAO",
      "id": "p07",
      "limites": [
        7000,
        10,
        30,
        0,
        0
      ]
    },
    {
      "classeVeiculo": "PADRAO",
      "id": "p08",
      "limites": [
        7000,
        10,
        30,
        0,
        0
      ]
    },
    {
      "classeVeiculo": "PADRAO",
      "id": "p09",
      "limites": [
        7000,
        10,
        30,
        0,
        0
      ]
    },
    {
      "classeVeiculo": "PADRAO",
      "id": "p10",
      "limites": [
        7000,
        10,
        30,
        0,
        0
      ]
    },
    {
      "classeVeiculo": "VUC",
      "id": "v01",
      "limites": [
        3500,
        10,
        30,
        0,
        0
      ]
    },
    {
      "classeVeiculo": "VUC",
      "id": "v02",
      "limites": [
        3500,
        10,
        30,
        0,
        0
      ]
    },
    {
      "classeVeiculo": "VUC",
      "id": "v03",
      "limites": [
        3500,
        10,
        30,
        0,
        0
      ]
    },
    {
      "classeVeiculo": "VUC",
      "id": "v04",
      "limites": [
        3500,
        10,
        30,
        0,
        0
      ]
    },
    {
      "classeVeiculo": "VUC",
      "id": "v05",
      "limites": [
        3500,
        10,
        30,
        0,
        0
      ]
    },
    {
      "classeVeiculo": "VUC",
      "id": "v06",
      "limites": [
        3500,
        10,
        30,
        0,
        0
      ]
    },
    {
      "classeVeiculo": "VUC",
      "id": "v07",
      "limites": [
        3500,
        10,
        30,
        0,
        0
      ]
    },
    {
      "classeVeiculo": "VUC",
      "id": "v08",
      "limites": [
        3500,
        10,
        30,
        0,
        0
      ]
    },
    {
      "classeVeiculo": "VUC",
      "id": "v09",
      "limites": [
        3500,
        10,
        30,
        0,
        0
      ]
    },
    {
      "classeVeiculo": "VUC",
      "id": "v10",
      "limites": [
        3500,
        10,
        30,
        0,
        0
      ]
    }
  ],
  "clientes": [
    {
      "zona": 0,
      "id": 42113,
      "x": -34.8924123434424,
      "y": -8.0454409564161,
      "totais": [
        95.868973,
        0.166666666,
        1,
        0,
        0
      ],
      "jt": {
        "ini": 8,
        "fim": 18
      }
    },
    {
      "zona": 0,
      "id": 1029,
      "x": -34.906317515221,
      "y": -8.05958796236677,
      "totais": [
        192.992871,
        0.166666666,
        1,
        0,
        0
      ],
      "jt": {
        "ini": 8,
        "fim": 18
      }
    },
    {
      "zona": 0,
      "id": 2053,
      "x": -34.8967634890156,
      "y": -8.05617382260527,
      "totais": [
        89.195931,
        0.166666666,
        1,
        0,
        0
      ],
      "jt": {
        "ini": 8,
        "fim": 12
      }
    },
    {
      "zona": 0,
      "id": 3078,
      "x": -34.9193589116417,
      "y": -8.05904594891391,
      "totais": [
        73.688805,
        0.166666666,
        1,
        0,
        0
      ],
      "jt": {
        "ini": 8,
        "fim": 18
      }
    },
    {
      "zona": 0,
      "id": 1543,
      "x": -34.9194352475289,
      "y": -8.08791724286529,
      "totais": [
        106.133829,
        0.166666666,
        1,
        0,
        0
      ],
      "jt": {
        "ini": 8,
        "fim": 18
      }
    },
    {
      "zona": 0,
      "id": 48135,
      "x": -34.9221070035827,
      "y": -8.08051066797349,
      "totais": [
        1058.759113,
        0.166666666,
        1,
        0,
        0
      ],
      "jt": {
        "ini": 8,
        "fim": 18
      }
    },
    {
      "zona": 0,
      "id": 3592,
      "x": -34.8951604353834,
      "y": -8.04831316440959,
      "totais": [
        115.855812,
        0.166666666,
        1,
        0,
        0
      ],
      "jt": {
        "ini": 8,
        "fim": 18
      }
    },
    {
      "zona": 0,
      "id": 36105,
      "x": -34.8809619603548,
      "y": -8.08648127061829,
      "totais": [
        77.758218,
        0.166666666,
        1,
        0,
        0
      ],
      "jt": {
        "ini": 8,
        "fim": 18
      }
    },
    {
      "zona": 0,
      "id": 2571,
      "x": -34.9117253229167,
      "y": -8.09003338213559,
      "totais": [
        339.428616,
        0.166666666,
        1,
        0,
        0
      ],
      "jt": {
        "ini": 8,
        "fim": 18
      }
    },
    {
      "zona": 0,
      "id": 13,
      "x": -34.9095115821864,
      "y": -8.04740615311448,
      "totais": [
        128.115883,
        0.166666666,
        1,
        0,
        0
      ],
      "jt": {
        "ini": 8,
        "fim": 18
      }
    },
    {
      "zona": 0,
      "id": 47127,
      "x": -34.9083665438777,
      "y": -8.083231466389,
      "totais": [
        158.557115,
        0.166666666,
        1,
        0,
        0
      ],
      "jt": {
        "ini": 8,
        "fim": 18
      }
    },
    {
      "zona": 0,
      "id": 24,
      "x": -34.9131757047744,
      "y": -8.05299937744157,
      "totais": [
        505.698306,
        0.166666666,
        1,
        0,
        0
      ],
      "jt": {
        "ini": 8,
        "fim": 12
      }
    },
    {
      "zona": 0,
      "id": 41112,
      "x": -34.8976031837754,
      "y": -8.04536537614268,
      "totais": [
        68.075644,
        0.166666666,
        1,
        0,
        0
      ],
      "jt": {
        "ini": 8,
        "fim": 18
      }
    },
    {
      "zona": 0,
      "id": 410,
      "x": -34.8882902055309,
      "y": -8.06660419449241,
      "totais": [
        156.895384,
        0.166666666,
        1,
        0,
        0
      ],
      "jt": {
        "ini": 8,
        "fim": 18
      }
    },
    {
      "zona": 0,
      "id": 925,
      "x": -34.9142444071959,
      "y": -8.06887148997593,
      "totais": [
        1740.446204,
        0.166666666,
        1,
        0,
        0
      ],
      "jt": {
        "ini": 8,
        "fim": 18
      }
    },
    {
      "zona": 0,
      "id": 1952,
      "x": -34.8874505107711,
      "y": -8.06078433698421,
      "totais": [
        40.003695,
        0.166666666,
        1,
        0,
        0
      ],
      "jt": {
        "ini": 8,
        "fim": 18
      }
    },
    {
      "zona": 0,
      "id": 2977,
      "x": -34.8921069998934,
      "y": -8.07983046784278,
      "totais": [
        525.117481,
        0.166666666,
        1,
        0,
        0
      ],
      "jt": {
        "ini": 8,
        "fim": 18
      }
    },
    {
      "zona": 0,
      "id": 1442,
      "x": -34.8960764660304,
      "y": -8.0529993348871,
      "totais": [
        181.789445,
        0.166666666,
        1,
        0,
        0
      ],
      "jt": {
        "ini": 8,
        "fim": 18
      }
    },
    {
      "zona": 0,
      "id": 35,
      "x": -34.8897405873886,
      "y": -8.05791222453415,
      "totais": [
        203.480218,
        0.166666666,
        1,
        0,
        0
      ],
      "jt": {
        "ini": 8,
        "fim": 18
      }
    },
    {
      "zona": 0,
      "id": 3491,
      "x": -34.8798932579333,
      "y": -8.04816200234241,
      "totais": [
        1375.665515,
        0.166666666,
        1,
        0,
        0
      ],
      "jt": {
        "ini": 8,
        "fim": 18
      }
    },
    {
      "zona": 0,
      "id": 2470,
      "x": -34.9155421172792,
      "y": -8.09366102360817,
      "totais": [
        52.556543,
        0.166666666,
        1,
        0,
        0
      ],
      "jt": {
        "ini": 8,
        "fim": 18
      }
    },
    {
      "zona": 0,
      "id": 46120,
      "x": -34.8872978389966,
      "y": -8.10499719262614,
      "totais": [
        897.14164,
        0.166666666,
        1,
        0,
        0
      ],
      "jt": {
        "ini": 8,
        "fim": 18
      }
    },
    {
      "zona": 0,
      "id": 40111,
      "x": -34.8940153970746,
      "y": -8.06116223946574,
      "totais": [
        415.569514,
        0.166666666,
        1,
        0,
        0
      ],
      "jt": {
        "ini": 8,
        "fim": 18
      }
    },
    {
      "zona": 0,
      "id": 824,
      "x": -34.8937863894129,
      "y": -8.10409031085296,
      "totais": [
        186.864013,
        0.166666666,
        1,
        0,
        0
      ],
      "jt": {
        "ini": 14,
        "fim": 18
      }
    },
    {
      "zona": 0,
      "id": 1338,
      "x": -34.8983665426479,
      "y": -8.06214480551336,
      "totais": [
        41.040968,
        0.166666666,
        1,
        0,
        0
      ],
      "jt": {
        "ini": 8,
        "fim": 18
      }
    },
    {
      "zona": 0,
      "id": 1851,
      "x": -34.8831757010851,
      "y": -8.04649914180236,
      "totais": [
        195.110647,
        0.166666666,
        1,
        0,
        0
      ],
      "jt": {
        "ini": 8,
        "fim": 18
      }
    },
    {
      "zona": 1,
      "id": 2876,
      "x": -34.8720306615466,
      "y": -8.06267386306306,
      "totais": [
        3063.564492,
        0.166666666,
        1,
        0,
        0
      ],
      "jt": {
        "ini": 8,
        "fim": 18
      }
    },
    {
      "zona": 1,
      "id": 3390,
      "x": -34.8698932567035,
      "y": -8.05360400810792,
      "totais": [
        25.048427,
        0.166666666,
        1,
        0,
        0
      ],
      "jt": {
        "ini": 8,
        "fim": 18
      }
    },
    {
      "zona": 0,
      "id": 45119,
      "x": -34.8776795172031,
      "y": -8.08202222975236,
      "totais": [
        2724.193834,
        0.166666666,
        1,
        0,
        0
      ],
      "jt": {
        "ini": 8,
        "fim": 18
      }
    },
    {
      "zona": 0,
      "id": 2369,
      "x": -34.9233283777787,
      "y": -8.08761493634853,
      "totais": [
        349.754031,
        0.166666666,
        1,
        0,
        0
      ],
      "jt": {
        "ini": 8,
        "fim": 18
      }
    },
    {
      "zona": 1,
      "id": 39109,
      "x": -34.9018016575741,
      "y": -8.07695848686093,
      "totais": [
        298.652088,
        0.166666666,
        1,
        0,
        0
      ],
      "jt": {
        "ini": 8,
        "fim": 18
      }
    },
    {
      "zona": 0,
      "id": 723,
      "x": -34.9079848644414,
      "y": -8.05609824991145,
      "totais": [
        25.814635,
        0.166666666,
        1,
        0,
        0
      ],
      "jt": {
        "ini": 8,
        "fim": 18
      }
    },
    {
      "zona": 0,
      "id": 2771,
      "x": -34.8992825732949,
      "y": -8.0698540144594,
      "totais": [
        961.785954,
        0.166666666,
        1,
        0,
        0
      ],
      "jt": {
        "ini": 8,
        "fim": 18
      }
    },
    {
      "zona": 0,
      "id": 1236,
      "x": -34.9126413535637,
      "y": -8.07363314618348,
      "totais": [
        702.876598,
        0.166666666,
        1,
        0,
        0
      ],
      "jt": {
        "ini": 8,
        "fim": 18
      }
    },
    {
      "zona": 0,
      "id": 1750,
      "x": -34.8738627228406,
      "y": -8.04680147925839,
      "totais": [
        16.135821,
        0.166666666,
        1,
        0,
        0
      ],
      "jt": {
        "ini": 8,
        "fim": 18
      }
    },
    {
      "zona": 0,
      "id": 44118,
      "x": -34.8900459309376,
      "y": -8.09562598243573,
      "totais": [
        29.445731,
        0.166666666,
        1,
        0,
        0
      ],
      "jt": {
        "ini": 14,
        "fim": 18
      }
    },
    {
      "zona": 1,
      "id": 3289,
      "x": -34.8784428760756,
      "y": -8.06176689187583,
      "totais": [
        270.387485,
        0.166666666,
        1,
        0,
        0
      ],
      "jt": {
        "ini": 8,
        "fim": 18
      }
    },
    {
      "zona": 0,
      "id": 2268,
      "x": -34.9213436447102,
      "y": -8.07340627453434,
      "totais": [
        237.413177,
        0.166666666,
        1,
        0,
        0
      ],
      "jt": {
        "ini": 8,
        "fim": 18
      }
    },
    {
      "zona": 0,
      "id": 38108,
      "x": -34.8885192131926,
      "y": -8.09018453451554,
      "totais": [
        804.220596,
        0.166666666,
        1,
        0,
        0
      ],
      "jt": {
        "ini": 8,
        "fim": 18
      }
    },
    {
      "zona": 0,
      "id": 50151,
      "x": -34.8870688313349,
      "y": -8.05095858682243,
      "totais": [
        5835.716659,
        0.166666666,
        1,
        0,
        0
      ],
      "jt": {
        "ini": 8,
        "fim": 18
      }
    },
    {
      "zona": 0,
      "id": 1130,
      "x": -34.9222473640536,
      "y": -8.06497323704181,
      "totais": [
        146.234237,
        0.166666666,
        1,
        0,
        0
      ],
      "jt": {
        "ini": 8,
        "fim": 18
      }
    },
    {
      "zona": 0,
      "id": 43114,
      "x": -34.8833283728596,
      "y": -8.05723197677445,
      "totais": [
        92.642102,
        0.166666666,
        1,
        0,
        0
      ],
      "jt": {
        "ini": 8,
        "fim": 18
      }
    },
    {
      "zona": 0,
      "id": 622,
      "x": -34.8900459309376,
      "y": -8.0491446099073,
      "totais": [
        56.541023,
        0.166666666,
        1,
        0,
        0
      ],
      "jt": {
        "ini": 8,
        "fim": 18
      }
    },
    {
      "zona": 0,
      "id": 1646,
      "x": -34.8849314264918,
      "y": -8.09547483209698,
      "totais": [
        319.702772,
        0.166666666,
        1,
        0,
        0
      ],
      "jt": {
        "ini": 8,
        "fim": 18
      }
    },
    {
      "zona": 0,
      "id": 37106,
      "x": -34.9123360100147,
      "y": -8.05753430602898,
      "totais": [
        399.025501,
        0.166666666,
        1,
        0,
        0
      ],
      "jt": {
        "ini": 8,
        "fim": 18
      }
    },
    {
      "zona": 0,
      "id": 49138,
      "x": -34.9059237954857,
      "y": -8.10529948609629,
      "totais": [
        125.123128,
        0.166666666,
        1,
        0,
        0
      ],
      "jt": {
        "ini": 8,
        "fim": 12
      }
    },
    {
      "zona": 1,
      "id": 3188,
      "x": -34.8792062349481,
      "y": -8.0712900545633,
      "totais": [
        113.788278,
        0.166666666,
        1,
        0,
        0
      ],
      "jt": {
        "ini": 8,
        "fim": 18
      }
    },
    {
      "zona": 0,
      "id": 2165,
      "x": -34.9158474608282,
      "y": -8.08156875842623,
      "totais": [
        55.916937,
        0.166666666,
        1,
        0,
        0
      ],
      "jt": {
        "ini": 8,
        "fim": 18
      }
    },
    {
      "zona": 0,
      "id": 26771,
      "x": -34.8811146321293,
      "y": -8.05209231685584,
      "totais": [
        139.061794,
        0.166666666,
        1,
        0,
        0
      ],
      "jt": {
        "ini": 8,
        "fim": 18
      }
    },
    {
      "zona": 0,
      "id": 511,
      "x": -34.8802749373696,
      "y": -8.0834583835505,
      "totais": [
        37.635484,
        0.166666666,
        1,
        0,
        0
      ],
      "jt": {
        "ini": 8,
        "fim": 18
      }
    }
  ]
}



