{
  "zonas": [
    {
      "id": 0,
      "restricoes": [
        {
          "classeVeiculo": "TPP",
          "ini": 0.016666666666666666,
          "fim": 0.03333333333333333
        }
      ]
    },
    {
      "id": 1,
      "restricoes": [
        {
          "classeVeiculo": "PADRAO",
          "ini": 0.016666666666666666,
          "fim": 21
        }
      ]
    },
    {
      "id": 2,
      "restricoes": [
        {
          "classeVeiculo": "VUC",
          "ini": 0.016666666666666666,
          "fim": 23.983333333333334
        },
        {
          "classeVeiculo": "PADRAO",
          "ini": 0.016666666666666666,
          "fim": 23.983333333333334
        }
      ]
    }
  ],
  "params": {
    "almoco": {
      "ini": 12,
      "fim": 13,
      "atr": 0.5,
      "ant": 0.5
    },"kgHora":2000,
    "cd": {
      "id": 1,
      "x": -46.452119,
      "y": -23.434419
    },
    "exped": {
      "ini": 8,
      "fim": 18
    }
  },
  "veiculos": [
    {
      "classeVeiculo": "PADRAO",
      "id": "p01",
      "limites": [
        7000,
        10,
        30,
        0,
        0
      ]
    },
    {
      "classeVeiculo": "PADRAO",
      "id": "p02",
      "limites": [
        7000,
        10,
        30,
        0,
        0
      ]
    },
    {
      "classeVeiculo": "PADRAO",
      "id": "p03",
      "limites": [
        7000,
        10,
        30,
        0,
        0
      ]
    },
    {
      "classeVeiculo": "PADRAO",
      "id": "p04",
      "limites": [
        7000,
        10,
        30,
        0,
        0
      ]
    },
    {
      "classeVeiculo": "PADRAO",
      "id": "p05",
      "limites": [
        7000,
        10,
        30,
        0,
        0
      ]
    },
    {
      "classeVeiculo": "PADRAO",
      "id": "p06",
      "limites": [
        7000,
        10,
        30,
        0,
        0
      ]
    },
    {
      "classeVeiculo": "PADRAO",
      "id": "p07",
      "limites": [
        7000,
        10,
        30,
        0,
        0
      ]
    },
    {
      "classeVeiculo": "PADRAO",
      "id": "p08",
      "limites": [
        7000,
        10,
        30,
        0,
        0
      ]
    },
    {
      "classeVeiculo": "PADRAO",
      "id": "p09",
      "limites": [
        7000,
        10,
        30,
        0,
        0
      ]
    },
    {
      "classeVeiculo": "PADRAO",
      "id": "p10",
      "limites": [
        7000,
        10,
        30,
        0,
        0
      ]
    },
    {
      "classeVeiculo": "VUC",
      "id": "v01",
      "limites": [
        3500,
        10,
        30,
        0,
        0
      ]
    },
    {
      "classeVeiculo": "VUC",
      "id": "v02",
      "limites": [
        3500,
        10,
        30,
        0,
        0
      ]
    },
    {
      "classeVeiculo": "VUC",
      "id": "v03",
      "limites": [
        3500,
        10,
        30,
        0,
        0
      ]
    },
    {
      "classeVeiculo": "VUC",
      "id": "v04",
      "limites": [
        3500,
        10,
        30,
        0,
        0
      ]
    },
    {
      "classeVeiculo": "VUC",
      "id": "v05",
      "limites": [
        3500,
        10,
        30,
        0,
        0
      ]
    },
    {
      "classeVeiculo": "VUC",
      "id": "v06",
      "limites": [
        3500,
        10,
        30,
        0,
        0
      ]
    },
    {
      "classeVeiculo": "VUC",
      "id": "v07",
      "limites": [
        3500,
        10,
        30,
        0,
        0
      ]
    },
    {
      "classeVeiculo": "VUC",
      "id": "v08",
      "limites": [
        3500,
        10,
        30,
        0,
        0
      ]
    },
    {
      "classeVeiculo": "VUC",
      "id": "v09",
      "limites": [
        3500,
        10,
        30,
        0,
        0
      ]
    },
    {
      "classeVeiculo": "VUC",
      "id": "v10",
      "limites": [
        3500,
        10,
        30,
        0,
        0
      ]
    }
  ],
  "clientes": [
    {
      "zona": 0,
      "id": 43522,
      "x": -46.4876918,
      "y": -23.4655675,
      "totais": [
        224.73,
        0.166666666,
        1,
        0,
        0
      ],
      "jt": {
        "ini": 8,
        "fim": 18
      }
    },
    {
      "zona": 0,
      "id": 43267,
      "x": -46.5853664503,
      "y": -23.49564217,
      "totais": [
        257.74,
        0.166666666,
        1,
        0,
        0
      ],
      "jt": {
        "ini": 8,
        "fim": 18
      }
    },
    {
      "zona": 0,
      "id": 43526,
      "x": -46.4918853626,
      "y": -23.5256505233,
      "totais": [
        2323.39,
        0.166666666,
        1,
        0,
        0
      ],
      "jt": {
        "ini": 8,
        "fim": 18
      }
    },
    {
      "zona": 0,
      "id": 43527,
      "x": -46.7075338,
      "y": -23.4980942,
      "totais": [
        705.28,
        0.166666666,
        1,
        0,
        0
      ],
      "jt": {
        "ini": 8,
        "fim": 12
      }
    },
    {
      "zona": 0,
      "id": 43528,
      "x": -46.5463393,
      "y": -23.4832405,
      "totais": [
        152.25,
        0.166666666,
        1,
        0,
        0
      ],
      "jt": {
        "ini": 8,
        "fim": 18
      }
    },
    {
      "zona": 0,
      "id": 4358987,
      "x": -46.5062533168,
      "y": -23.4900012129,
      "totais": [
        501.44,
        0.166666666,
        1,
        0,
        0
      ],
      "jt": {
        "ini": 8,
        "fim": 18
      }
    },
    {
      "zona": 0,
      "id": 43532,
      "x": -46.6159858,
      "y": -23.4578624,
      "totais": [
        404.51,
        0.166666666,
        1,
        0,
        0
      ],
      "jt": {
        "ini": 8,
        "fim": 18
      }
    },
    {
      "zona": 0,
      "id": 43407,
      "x": -46.4973884,
      "y": -23.4397371,
      "totais": [
        105.34,
        0.166666666,
        1,
        0,
        0
      ],
      "jt": {
        "ini": 8,
        "fim": 18
      }
    },
    {
      "zona": 0,
      "id": 43408,
      "x": -46.5146105778,
      "y": -23.5335033954,
      "totais": [
        38.48,
        0.166666666,
        1,
        0,
        0
      ],
      "jt": {
        "ini": 8,
        "fim": 18
      }
    },
    {
      "zona": 0,
      "id": 17425,
      "x": -46.5623619706,
      "y": -23.5779361548,
      "totais": [
        641.82,
        0.166666666,
        1,
        0,
        0
      ],
      "jt": {
        "ini": 8,
        "fim": 18
      }
    },
    {
      "zona": 0,
      "id": 43411,
      "x": -46.4721992,
      "y": -23.4738544,
      "totais": [
        458.99,
        0.166666666,
        1,
        0,
        0
      ],
      "jt": {
        "ini": 8,
        "fim": 18
      }
    },
    {
      "zona": 0,
      "id": 43288,
      "x": -46.5612832735,
      "y": -23.5459948913,
      "totais": [
        1397.06,
        0.166666666,
        1,
        0,
        0
      ],
      "jt": {
        "ini": 8,
        "fim": 18
      }
    },
    {
      "zona": 1,
      "id": 43289,
      "x": -46.6421007721,
      "y": -23.5826084082,
      "totais": [
        620.13,
        0.166666666,
        1,
        0,
        0
      ],
      "jt": {
        "ini": 8,
        "fim": 18
      }
    },
    {
      "zona": 0,
      "id": 17435,
      "x": -46.5697247447,
      "y": -23.5629908223,
      "totais": [
        309.36,
        0.166666666,
        1,
        0,
        0
      ],
      "jt": {
        "ini": 8,
        "fim": 18
      }
    },
    {
      "zona": 0,
      "id": 43301,
      "x": -46.4721992,
      "y": -23.4738544,
      "totais": [
        256.59,
        0.166666666,
        1,
        0,
        0
      ],
      "jt": {
        "ini": 14,
        "fim": 18
      }
    },
    {
      "zona": 0,
      "id": 43437,
      "x": -46.4735423,
      "y": -23.4612951,
      "totais": [
        275.81,
        0.166666666,
        1,
        0,
        0
      ],
      "jt": {
        "ini": 8,
        "fim": 18
      }
    },
    {
      "zona": 0,
      "id": 43312,
      "x": -46.4291846,
      "y": -23.4676701,
      "totais": [
        76.05,
        0.166666666,
        1,
        0,
        0
      ],
      "jt": {
        "ini": 8,
        "fim": 18
      }
    },
    {
      "zona": 2,
      "id": 43313,
      "x": -46.6741295,
      "y": -23.6005402,
      "totais": [
        188.26,
        0.166666666,
        1,
        0,
        0
      ],
      "jt": {
        "ini": 8,
        "fim": 18
      }
    },
    {
      "zona": 0,
      "id": 43442,
      "x": -46.5723993,
      "y": -23.5056234,
      "totais": [
        348.04,
        0.166666666,
        1,
        0,
        0
      ],
      "jt": {
        "ini": 8,
        "fim": 18
      }
    },
    {
      "zona": 1,
      "id": 43443,
      "x": -46.6974335,
      "y": -23.513515,
      "totais": [
        401.71,
        0.166666666,
        1,
        0,
        0
      ],
      "jt": {
        "ini": 8,
        "fim": 18
      }
    },
    {
      "zona": 0,
      "id": 43318,
      "x": -46.5344057,
      "y": -23.5085092,
      "totais": [
        99.19,
        0.166666666,
        1,
        0,
        0
      ],
      "jt": {
        "ini": 8,
        "fim": 18
      }
    },
    {
      "zona": 0,
      "id": 43320,
      "x": -46.6262265,
      "y": -23.4539781,
      "totais": [
        27.87,
        0.166666666,
        1,
        0,
        0
      ],
      "jt": {
        "ini": 8,
        "fim": 18
      }
    },
    {
      "zona": 0,
      "id": 43578,
      "x": -46.4366981,
      "y": -23.4689412,
      "totais": [
        318.73,
        0.166666666,
        1,
        0,
        0
      ],
      "jt": {
        "ini": 8,
        "fim": 18
      }
    },
    {
      "zona": 0,
      "id": 43585,
      "x": -46.5650589,
      "y": -23.4988195,
      "totais": [
        2745.27,
        0.166666666,
        1,
        0,
        0
      ],
      "jt": {
        "ini": 8,
        "fim": 18
      }
    },
    {
      "zona": 0,
      "id": 43587,
      "x": -46.6140234291,
      "y": -23.499854979,
      "totais": [
        29.9,
        0.166666666,
        1,
        0,
        0
      ],
      "jt": {
        "ini": 8,
        "fim": 18
      }
    },
    {
      "zona": 0,
      "id": 43333,
      "x": -46.6630702,
      "y": -23.4969591,
      "totais": [
        220.82,
        0.166666666,
        1,
        0,
        0
      ],
      "jt": {
        "ini": 8,
        "fim": 12
      }
    },
    {
      "zona": 1,
      "id": 43589,
      "x": -46.6815454653,
      "y": -23.5351812465,
      "totais": [
        156.35,
        0.166666666,
        1,
        0,
        0
      ],
      "jt": {
        "ini": 8,
        "fim": 18
      }
    },
    {
      "zona": 0,
      "id": 43338,
      "x": -46.461219,
      "y": -23.4977035,
      "totais": [
        21.41,
        0.166666666,
        1,
        0,
        0
      ],
      "jt": {
        "ini": 8,
        "fim": 18
      }
    },
    {
      "zona": 0,
      "id": 43339,
      "x": -46.6920211897,
      "y": -23.4647147103,
      "totais": [
        306,
        0.166666666,
        1,
        0,
        0
      ],
      "jt": {
        "ini": 8,
        "fim": 18
      }
    },
    {
      "zona": 0,
      "id": 43353,
      "x": -46.6867842374,
      "y": -23.4578741568,
      "totais": [
        26.33,
        0.166666666,
        1,
        0,
        0
      ],
      "jt": {
        "ini": 8,
        "fim": 18
      }
    },
    {
      "zona": 0,
      "id": 43482,
      "x": -46.4291846,
      "y": -23.4676701,
      "totais": [
        2.37,
        0.166666666,
        1,
        0,
        0
      ],
      "jt": {
        "ini": 8,
        "fim": 18
      }
    },
    {
      "zona": 0,
      "id": 43356,
      "x": -46.6484876,
      "y": -23.4591593,
      "totais": [
        100.38,
        0.166666666,
        1,
        0,
        0
      ],
      "jt": {
        "ini": 8,
        "fim": 18
      }
    },
    {
      "zona": 0,
      "id": 43357,
      "x": -46.5826656,
      "y": -23.4780276,
      "totais": [
        1321.11,
        0.166666666,
        1,
        0,
        0
      ],
      "jt": {
        "ini": 8,
        "fim": 18
      }
    },
    {
      "zona": 0,
      "id": 43492,
      "x": -46.5254388,
      "y": -23.5559757,
      "totais": [
        218.65,
        0.166666666,
        1,
        0,
        0
      ],
      "jt": {
        "ini": 8,
        "fim": 18
      }
    },
    {
      "zona": 0,
      "id": 247524,
      "x": -46.5442297656,
      "y": -23.5563972932,
      "totais": [
        123.77,
        0.166666666,
        1,
        0,
        0
      ],
      "jt": {
        "ini": 8,
        "fim": 18
      }
    },
    {
      "zona": 0,
      "id": 43499,
      "x": -46.509155,
      "y": -23.5499475,
      "totais": [
        189,
        0.166666666,
        1,
        0,
        0
      ],
      "jt": {
        "ini": 8,
        "fim": 18
      }
    },
    {
      "zona": 0,
      "id": 43627,
      "x": -46.5438588,
      "y": -23.5411395,
      "totais": [
        152.41,
        0.166666666,
        1,
        0,
        0
      ],
      "jt": {
        "ini": 8,
        "fim": 18
      }
    },
    {
      "zona": 0,
      "id": 43628,
      "x": -46.5694348142,
      "y": -23.5460132744,
      "totais": [
        43.54,
        0.166666666,
        1,
        0,
        0
      ],
      "jt": {
        "ini": 8,
        "fim": 18
      }
    },
    {
      "zona": 1,
      "id": 43374,
      "x": -46.6061531,
      "y": -23.5977984,
      "totais": [
        345.36,
        0.166666666,
        1,
        0,
        0
      ],
      "jt": {
        "ini": 8,
        "fim": 18
      }
    },
    {
      "zona": 0,
      "id": 43631,
      "x": -46.4629282,
      "y": -23.4568847,
      "totais": [
        743.95,
        0.166666666,
        1,
        0,
        0
      ],
      "jt": {
        "ini": 14,
        "fim": 18
      }
    },
    {
      "zona": 1,
      "id": 43378,
      "x": -46.7345589,
      "y": -23.5259025,
      "totais": [
        798.71,
        0.166666666,
        1,
        0,
        0
      ],
      "jt": {
        "ini": 8,
        "fim": 18
      }
    },
    {
      "zona": 0,
      "id": 43636,
      "x": -46.5494789,
      "y": -23.4781816,
      "totais": [
        191.14,
        0.166666666,
        1,
        0,
        0
      ],
      "jt": {
        "ini": 8,
        "fim": 18
      }
    },
    {
      "zona": 0,
      "id": 43255,
      "x": -46.4973884,
      "y": -23.4397371,
      "totais": [
        1038.63,
        0.166666666,
        1,
        0,
        0
      ],
      "jt": {
        "ini": 8,
        "fim": 12
      }
    },
    {
      "zona": 0,
      "id": 43639,
      "x": -46.6033672,
      "y": -23.517316,
      "totais": [
        26.14,
        0.166666666,
        1,
        0,
        0
      ],
      "jt": {
        "ini": 8,
        "fim": 18
      }
    },
    {
      "zona": 0,
      "id": 43512,
      "x": -46.4735738,
      "y": -23.4577907,
      "totais": [
        564.17,
        0.166666666,
        1,
        0,
        0
      ],
      "jt": {
        "ini": 8,
        "fim": 18
      }
    },
    {
      "zona": 0,
      "id": 43256,
      "x": -46.6032489512,
      "y": -23.4929963523,
      "totais": [
        560.66,
        0.166666666,
        1,
        0,
        0
      ],
      "jt": {
        "ini": 8,
        "fim": 18
      }
    },
    {
      "zona": 1,
      "id": 43641,
      "x": -46.6217457,
      "y": -23.5292826,
      "totais": [
        1094,
        0.166666666,
        1,
        0,
        0
      ],
      "jt": {
        "ini": 8,
        "fim": 18
      }
    },
    {
      "zona": 1,
      "id": 43258,
      "x": -46.6957578,
      "y": -23.5532638,
      "totais": [
        79.17,
        0.166666666,
        1,
        0,
        0
      ],
      "jt": {
        "ini": 8,
        "fim": 18
      }
    },
    {
      "zona": 0,
      "id": 43259,
      "x": -46.4867538,
      "y": -23.4578972,
      "totais": [
        920.66,
        0.166666666,
        1,
        0,
        0
      ],
      "jt": {
        "ini": 8,
        "fim": 18
      }
    },
    {
      "zona": 0,
      "id": 1424572,
      "x": -46.6369787414,
      "y": -23.4999127273,
      "totais": [
        336.34,
        0.166666666,
        1,
        0,
        0
      ],
      "jt": {
        "ini": 8,
        "fim": 18
      }
    }
  ]
}



