{
  "zonas": [
    {
      "id": 0,
      "restricoes": [
        {
          "classeVeiculo": "TPP",
          "ini": 0.016666666666666666,
          "fim": 0.03333333333333333
        }
      ]
    },
    {
      "id": 1,
      "restricoes": [
        {
          "classeVeiculo": "PADRAO",
          "ini": 0.016666666666666666,
          "fim": 21
        }
      ]
    }
  ],
  "params": {
    "almoco": {
      "ini": 12,
      "fim": 13,
      "atr": 0.5,
      "ant": 0.5
    },"kgHora":2000,
    "cd": {
      "id": 1,
      "x": -38.5929861034,
      "y": -3.7264365955
    },
    "exped": {
      "ini": 8,
      "fim": 18
    }
  },
  "veiculos": [
    {
      "classeVeiculo": "PADRAO",
      "id": "p01",
      "limites": [
        7000,
        10,
        30,
        0,
        0
      ]
    },
    {
      "classeVeiculo": "PADRAO",
      "id": "p02",
      "limites": [
        7000,
        10,
        30,
        0,
        0
      ]
    },
    {
      "classeVeiculo": "PADRAO",
      "id": "p03",
      "limites": [
        7000,
        10,
        30,
        0,
        0
      ]
    },
    {
      "classeVeiculo": "PADRAO",
      "id": "p04",
      "limites": [
        7000,
        10,
        30,
        0,
        0
      ]
    },
    {
      "classeVeiculo": "PADRAO",
      "id": "p05",
      "limites": [
        7000,
        10,
        30,
        0,
        0
      ]
    },
    {
      "classeVeiculo": "PADRAO",
      "id": "p06",
      "limites": [
        7000,
        10,
        30,
        0,
        0
      ]
    },
    {
      "classeVeiculo": "PADRAO",
      "id": "p07",
      "limites": [
        7000,
        10,
        30,
        0,
        0
      ]
    },
    {
      "classeVeiculo": "PADRAO",
      "id": "p08",
      "limites": [
        7000,
        10,
        30,
        0,
        0
      ]
    },
    {
      "classeVeiculo": "PADRAO",
      "id": "p09",
      "limites": [
        7000,
        10,
        30,
        0,
        0
      ]
    },
    {
      "classeVeiculo": "PADRAO",
      "id": "p10",
      "limites": [
        7000,
        10,
        30,
        0,
        0
      ]
    },
    {
      "classeVeiculo": "VUC",
      "id": "v01",
      "limites": [
        3500,
        10,
        30,
        0,
        0
      ]
    },
    {
      "classeVeiculo": "VUC",
      "id": "v02",
      "limites": [
        3500,
        10,
        30,
        0,
        0
      ]
    },
    {
      "classeVeiculo": "VUC",
      "id": "v03",
      "limites": [
        3500,
        10,
        30,
        0,
        0
      ]
    },
    {
      "classeVeiculo": "VUC",
      "id": "v04",
      "limites": [
        3500,
        10,
        30,
        0,
        0
      ]
    },
    {
      "classeVeiculo": "VUC",
      "id": "v05",
      "limites": [
        3500,
        10,
        30,
        0,
        0
      ]
    },
    {
      "classeVeiculo": "VUC",
      "id": "v06",
      "limites": [
        3500,
        10,
        30,
        0,
        0
      ]
    },
    {
      "classeVeiculo": "VUC",
      "id": "v07",
      "limites": [
        3500,
        10,
        30,
        0,
        0
      ]
    },
    {
      "classeVeiculo": "VUC",
      "id": "v08",
      "limites": [
        3500,
        10,
        30,
        0,
        0
      ]
    },
    {
      "classeVeiculo": "VUC",
      "id": "v09",
      "limites": [
        3500,
        10,
        30,
        0,
        0
      ]
    },
    {
      "classeVeiculo": "VUC",
      "id": "v10",
      "limites": [
        3500,
        10,
        30,
        0,
        0
      ]
    }
  ],
  "clientes": [
    {
      "zona": 0,
      "id": 1024,
      "x": -38.5901,
      "y": -3.7585,
      "totais": [
        3227.16916,
        0.166666666,
        1,
        0,
        0
      ],
      "jt": {
        "ini": 8,
        "fim": 18
      }
    },
    {
      "zona": 0,
      "id": 1025,
      "x": -38.5655,
      "y": -3.7514,
      "totais": [
        44.785174,
        0.166666666,
        1,
        0,
        0
      ],
      "jt": {
        "ini": 8,
        "fim": 18
      }
    },
    {
      "zona": 0,
      "id": 1026,
      "x": -38.4615,
      "y": -3.8016,
      "totais": [
        730.118572,
        0.166666666,
        1,
        0,
        0
      ],
      "jt": {
        "ini": 8,
        "fim": 18
      }
    },
    {
      "zona": 0,
      "id": 1027,
      "x": -38.4952,
      "y": -3.7689,
      "totais": [
        190.388495,
        0.166666666,
        1,
        0,
        0
      ],
      "jt": {
        "ini": 8,
        "fim": 18
      }
    },
    {
      "zona": 0,
      "id": 1028,
      "x": -38.4836,
      "y": -3.7802,
      "totais": [
        185.054697,
        0.166666666,
        1,
        0,
        0
      ],
      "jt": {
        "ini": 8,
        "fim": 12
      }
    },
    {
      "zona": 0,
      "id": 1029,
      "x": -38.4974,
      "y": -3.7832,
      "totais": [
        56.848137,
        0.166666666,
        1,
        0,
        0
      ],
      "jt": {
        "ini": 8,
        "fim": 18
      }
    },
    {
      "zona": 0,
      "id": 1030,
      "x": -38.4822,
      "y": -3.7851,
      "totais": [
        409.642614,
        0.166666666,
        1,
        0,
        0
      ],
      "jt": {
        "ini": 8,
        "fim": 18
      }
    },
    {
      "zona": 0,
      "id": 1031,
      "x": -38.5505,
      "y": -3.8203,
      "totais": [
        260.414277,
        0.166666666,
        1,
        0,
        0
      ],
      "jt": {
        "ini": 8,
        "fim": 18
      }
    },
    {
      "zona": 0,
      "id": 1032,
      "x": -38.5846,
      "y": -3.827,
      "totais": [
        167.960036,
        0.166666666,
        1,
        0,
        0
      ],
      "jt": {
        "ini": 8,
        "fim": 18
      }
    },
    {
      "zona": 0,
      "id": 1033,
      "x": -38.4649,
      "y": -3.7609,
      "totais": [
        368.259663,
        0.166666666,
        1,
        0,
        0
      ],
      "jt": {
        "ini": 8,
        "fim": 18
      }
    },
    {
      "zona": 0,
      "id": 1034,
      "x": -38.589,
      "y": -3.7658,
      "totais": [
        1142.896326,
        0.166666666,
        1,
        0,
        0
      ],
      "jt": {
        "ini": 8,
        "fim": 18
      }
    },
    {
      "zona": 0,
      "id": 1035,
      "x": -38.4927,
      "y": -3.7722,
      "totais": [
        36.462251,
        0.166666666,
        1,
        0,
        0
      ],
      "jt": {
        "ini": 8,
        "fim": 12
      }
    },
    {
      "zona": 0,
      "id": 1036,
      "x": -38.5168315473,
      "y": -3.7456217577,
      "totais": [
        78.667899,
        0.166666666,
        1,
        0,
        0
      ],
      "jt": {
        "ini": 8,
        "fim": 18
      }
    },
    {
      "zona": 0,
      "id": 1037,
      "x": -38.5053,
      "y": -3.7987,
      "totais": [
        25.233107,
        0.166666666,
        1,
        0,
        0
      ],
      "jt": {
        "ini": 8,
        "fim": 18
      }
    },
    {
      "zona": 0,
      "id": 1038,
      "x": -38.5907,
      "y": -3.7828,
      "totais": [
        162.201759,
        0.166666666,
        1,
        0,
        0
      ],
      "jt": {
        "ini": 8,
        "fim": 18
      }
    },
    {
      "zona": 0,
      "id": 1039,
      "x": -38.5421,
      "y": -3.7626,
      "totais": [
        270.903387,
        0.166666666,
        1,
        0,
        0
      ],
      "jt": {
        "ini": 8,
        "fim": 18
      }
    },
    {
      "zona": 0,
      "id": 1040,
      "x": -38.5824,
      "y": -3.7292,
      "totais": [
        104.737833,
        0.166666666,
        1,
        0,
        0
      ],
      "jt": {
        "ini": 8,
        "fim": 18
      }
    },
    {
      "zona": 0,
      "id": 1041,
      "x": -38.534,
      "y": -3.8035,
      "totais": [
        125.752063,
        0.166666666,
        1,
        0,
        0
      ],
      "jt": {
        "ini": 8,
        "fim": 18
      }
    },
    {
      "zona": 0,
      "id": 1042,
      "x": -38.5839,
      "y": -3.739,
      "totais": [
        17.254487,
        0.166666666,
        1,
        0,
        0
      ],
      "jt": {
        "ini": 14,
        "fim": 18
      }
    },
    {
      "zona": 0,
      "id": 1043,
      "x": -38.4742,
      "y": -3.7241,
      "totais": [
        49.037971,
        0.166666666,
        1,
        0,
        0
      ],
      "jt": {
        "ini": 8,
        "fim": 18
      }
    },
    {
      "zona": 0,
      "id": 1044,
      "x": -38.5639,
      "y": -3.793,
      "totais": [
        64.79191,
        0.166666666,
        1,
        0,
        0
      ],
      "jt": {
        "ini": 8,
        "fim": 18
      }
    },
    {
      "zona": 0,
      "id": 1045,
      "x": -38.5025,
      "y": -3.7986,
      "totais": [
        59.466261,
        0.166666666,
        1,
        0,
        0
      ],
      "jt": {
        "ini": 8,
        "fim": 18
      }
    },
    {
      "zona": 0,
      "id": 1046,
      "x": -38.5713,
      "y": -3.7803,
      "totais": [
        125.563257,
        0.166666666,
        1,
        0,
        0
      ],
      "jt": {
        "ini": 8,
        "fim": 18
      }
    },
    {
      "zona": 0,
      "id": 1047,
      "x": -38.517215523,
      "y": -3.7185910368,
      "totais": [
        462.3811,
        0.166666666,
        1,
        0,
        0
      ],
      "jt": {
        "ini": 8,
        "fim": 18
      }
    },
    {
      "zona": 0,
      "id": 1048,
      "x": -38.5264,
      "y": -3.793,
      "totais": [
        212.969501,
        0.166666666,
        1,
        0,
        0
      ],
      "jt": {
        "ini": 8,
        "fim": 18
      }
    },
    {
      "zona": 0,
      "id": 1049,
      "x": -38.5433116172,
      "y": -3.7373876065,
      "totais": [
        30.399923,
        0.166666666,
        1,
        0,
        0
      ],
      "jt": {
        "ini": 8,
        "fim": 18
      }
    },
    {
      "zona": 0,
      "id": 1050,
      "x": -38.5723,
      "y": -3.7773,
      "totais": [
        563.21275,
        0.166666666,
        1,
        0,
        0
      ],
      "jt": {
        "ini": 14,
        "fim": 18
      }
    },
    {
      "zona": 0,
      "id": 1051,
      "x": -38.5472,
      "y": -3.779,
      "totais": [
        66.94716,
        0.166666666,
        1,
        0,
        0
      ],
      "jt": {
        "ini": 8,
        "fim": 18
      }
    },
    {
      "zona": 0,
      "id": 1052,
      "x": -38.5859,
      "y": -3.8057,
      "totais": [
        166.259973,
        0.166666666,
        1,
        0,
        0
      ],
      "jt": {
        "ini": 8,
        "fim": 18
      }
    },
    {
      "zona": 0,
      "id": 1053,
      "x": -38.566,
      "y": -3.7784,
      "totais": [
        259.57878,
        0.166666666,
        1,
        0,
        0
      ],
      "jt": {
        "ini": 8,
        "fim": 18
      }
    },
    {
      "zona": 0,
      "id": 1054,
      "x": -38.5521,
      "y": -3.7974,
      "totais": [
        62.147794,
        0.166666666,
        1,
        0,
        0
      ],
      "jt": {
        "ini": 8,
        "fim": 18
      }
    },
    {
      "zona": 0,
      "id": 1055,
      "x": -38.5539,
      "y": -3.7668,
      "totais": [
        263.479281,
        0.166666666,
        1,
        0,
        0
      ],
      "jt": {
        "ini": 8,
        "fim": 18
      }
    },
    {
      "zona": 0,
      "id": 1056,
      "x": -38.5391,
      "y": -3.8129,
      "totais": [
        95.768593,
        0.166666666,
        1,
        0,
        0
      ],
      "jt": {
        "ini": 8,
        "fim": 18
      }
    },
    {
      "zona": 0,
      "id": 1057,
      "x": -38.5627,
      "y": -3.7567,
      "totais": [
        18.657697,
        0.166666666,
        1,
        0,
        0
      ],
      "jt": {
        "ini": 8,
        "fim": 18
      }
    },
    {
      "zona": 0,
      "id": 1058,
      "x": -38.5001,
      "y": -3.7493,
      "totais": [
        529.589175,
        0.166666666,
        1,
        0,
        0
      ],
      "jt": {
        "ini": 8,
        "fim": 18
      }
    },
    {
      "zona": 0,
      "id": 1059,
      "x": -38.5694,
      "y": -3.8028,
      "totais": [
        24.662824,
        0.166666666,
        1,
        0,
        0
      ],
      "jt": {
        "ini": 8,
        "fim": 18
      }
    },
    {
      "zona": 0,
      "id": 1060,
      "x": -38.5649,
      "y": -3.7895,
      "totais": [
        173.897805,
        0.166666666,
        1,
        0,
        0
      ],
      "jt": {
        "ini": 8,
        "fim": 18
      }
    },
    {
      "zona": 0,
      "id": 1061,
      "x": -38.5380440911,
      "y": -3.7211375313,
      "totais": [
        172.436604,
        0.166666666,
        1,
        0,
        0
      ],
      "jt": {
        "ini": 8,
        "fim": 18
      }
    },
    {
      "zona": 0,
      "id": 1062,
      "x": -38.4639,
      "y": -3.8223,
      "totais": [
        22.674676,
        0.166666666,
        1,
        0,
        0
      ],
      "jt": {
        "ini": 8,
        "fim": 18
      }
    },
    {
      "zona": 0,
      "id": 1063,
      "x": -38.577,
      "y": -3.7374,
      "totais": [
        126.644484,
        0.166666666,
        1,
        0,
        0
      ],
      "jt": {
        "ini": 8,
        "fim": 18
      }
    },
    {
      "zona": 0,
      "id": 1064,
      "x": -38.5883,
      "y": -3.7313,
      "totais": [
        657.951375,
        0.166666666,
        1,
        0,
        0
      ],
      "jt": {
        "ini": 8,
        "fim": 12
      }
    },
    {
      "zona": 0,
      "id": 1065,
      "x": -38.5956,
      "y": -3.7616,
      "totais": [
        206.984242,
        0.166666666,
        1,
        0,
        0
      ],
      "jt": {
        "ini": 8,
        "fim": 18
      }
    },
    {
      "zona": 1,
      "id": 1066,
      "x": -38.4934,
      "y": -3.7288,
      "totais": [
        49.703399,
        0.166666666,
        1,
        0,
        0
      ],
      "jt": {
        "ini": 8,
        "fim": 18
      }
    },
    {
      "zona": 0,
      "id": 1067,
      "x": -38.4722,
      "y": -3.8103,
      "totais": [
        145.373879,
        0.166666666,
        1,
        0,
        0
      ],
      "jt": {
        "ini": 8,
        "fim": 18
      }
    },
    {
      "zona": 0,
      "id": 1068,
      "x": -38.4968,
      "y": -3.771,
      "totais": [
        277.184279,
        0.166666666,
        1,
        0,
        0
      ],
      "jt": {
        "ini": 8,
        "fim": 18
      }
    },
    {
      "zona": 0,
      "id": 1069,
      "x": -38.4936,
      "y": -3.7657,
      "totais": [
        336.067931,
        0.166666666,
        1,
        0,
        0
      ],
      "jt": {
        "ini": 8,
        "fim": 18
      }
    },
    {
      "zona": 0,
      "id": 1070,
      "x": -38.5148,
      "y": -3.7326,
      "totais": [
        728.730243,
        0.166666666,
        1,
        0,
        0
      ],
      "jt": {
        "ini": 8,
        "fim": 18
      }
    },
    {
      "zona": 0,
      "id": 1071,
      "x": -38.5157,
      "y": -3.823,
      "totais": [
        160.495726,
        0.166666666,
        1,
        0,
        0
      ],
      "jt": {
        "ini": 8,
        "fim": 18
      }
    },
    {
      "zona": 0,
      "id": 1072,
      "x": -38.5112,
      "y": -3.7894,
      "totais": [
        81.567774,
        0.166666666,
        1,
        0,
        0
      ],
      "jt": {
        "ini": 8,
        "fim": 18
      }
    },
    {
      "zona": 0,
      "id": 1073,
      "x": -38.5282,
      "y": -3.7612,
      "totais": [
        112.68429,
        0.166666666,
        1,
        0,
        0
      ],
      "jt": {
        "ini": 8,
        "fim": 18
      }
    },
    {
      "zona": 0,
      "id": 1074,
      "x": -38.4748,
      "y": -3.755,
      "totais": [
        666.016521,
        0.166666666,
        1,
        0,
        0
      ],
      "jt": {
        "ini": 14,
        "fim": 18
      }
    },
    {
      "zona": 0,
      "id": 1075,
      "x": -38.4853,
      "y": -3.8106,
      "totais": [
        339.148376,
        0.166666666,
        1,
        0,
        0
      ],
      "jt": {
        "ini": 8,
        "fim": 18
      }
    },
    {
      "zona": 0,
      "id": 1076,
      "x": -38.5954,
      "y": -3.8288,
      "totais": [
        129.213954,
        0.166666666,
        1,
        0,
        0
      ],
      "jt": {
        "ini": 8,
        "fim": 18
      }
    },
    {
      "zona": 0,
      "id": 1077,
      "x": -38.4658,
      "y": -3.7998,
      "totais": [
        577.155785,
        0.166666666,
        1,
        0,
        0
      ],
      "jt": {
        "ini": 8,
        "fim": 18
      }
    },
    {
      "zona": 0,
      "id": 1078,
      "x": -38.4661,
      "y": -3.8192,
      "totais": [
        65.5174,
        0.166666666,
        1,
        0,
        0
      ],
      "jt": {
        "ini": 8,
        "fim": 18
      }
    },
    {
      "zona": 0,
      "id": 1079,
      "x": -38.5051,
      "y": -3.7935,
      "totais": [
        51.946742,
        0.166666666,
        1,
        0,
        0
      ],
      "jt": {
        "ini": 8,
        "fim": 18
      }
    },
    {
      "zona": 0,
      "id": 1080,
      "x": -38.4754,
      "y": -3.7789,
      "totais": [
        145.061937,
        0.166666666,
        1,
        0,
        0
      ],
      "jt": {
        "ini": 8,
        "fim": 18
      }
    },
    {
      "zona": 0,
      "id": 1081,
      "x": -38.5877,
      "y": -3.8094,
      "totais": [
        198.472012,
        0.166666666,
        1,
        0,
        0
      ],
      "jt": {
        "ini": 8,
        "fim": 18
      }
    },
    {
      "zona": 0,
      "id": 1082,
      "x": -38.5883,
      "y": -3.7969,
      "totais": [
        2446.632097,
        0.166666666,
        1,
        0,
        0
      ],
      "jt": {
        "ini": 8,
        "fim": 18
      }
    },
    {
      "zona": 1,
      "id": 1083,
      "x": -38.5312,
      "y": -3.7343,
      "totais": [
        230.608876,
        0.166666666,
        1,
        0,
        0
      ],
      "jt": {
        "ini": 8,
        "fim": 18
      }
    },
    {
      "zona": 0,
      "id": 1084,
      "x": -38.5942,
      "y": -3.8038,
      "totais": [
        48.136522,
        0.166666666,
        1,
        0,
        0
      ],
      "jt": {
        "ini": 8,
        "fim": 18
      }
    },
    {
      "zona": 0,
      "id": 1085,
      "x": -38.5493,
      "y": -3.743,
      "totais": [
        346.783798,
        0.166666666,
        1,
        0,
        0
      ],
      "jt": {
        "ini": 8,
        "fim": 18
      }
    },
    {
      "zona": 0,
      "id": 1086,
      "x": -38.5893,
      "y": -3.7518,
      "totais": [
        126.324717,
        0.166666666,
        1,
        0,
        0
      ],
      "jt": {
        "ini": 8,
        "fim": 18
      }
    },
    {
      "zona": 0,
      "id": 1087,
      "x": -38.5755,
      "y": -3.7512,
      "totais": [
        115.270152,
        0.166666666,
        1,
        0,
        0
      ],
      "jt": {
        "ini": 8,
        "fim": 12
      }
    },
    {
      "zona": 0,
      "id": 1088,
      "x": -38.4642,
      "y": -3.7733,
      "totais": [
        277.210918,
        0.166666666,
        1,
        0,
        0
      ],
      "jt": {
        "ini": 8,
        "fim": 18
      }
    },
    {
      "zona": 0,
      "id": 1089,
      "x": -38.5468,
      "y": -3.8025,
      "totais": [
        470.967105,
        0.166666666,
        1,
        0,
        0
      ],
      "jt": {
        "ini": 8,
        "fim": 18
      }
    },
    {
      "zona": 0,
      "id": 1090,
      "x": -38.5042,
      "y": -3.7652,
      "totais": [
        71.280084,
        0.166666666,
        1,
        0,
        0
      ],
      "jt": {
        "ini": 8,
        "fim": 18
      }
    },
    {
      "zona": 1,
      "id": 1091,
      "x": -38.5288,
      "y": -3.7277,
      "totais": [
        828.612603,
        0.166666666,
        1,
        0,
        0
      ],
      "jt": {
        "ini": 8,
        "fim": 18
      }
    },
    {
      "zona": 0,
      "id": 1092,
      "x": -38.4702,
      "y": -3.7445,
      "totais": [
        201.423232,
        0.166666666,
        1,
        0,
        0
      ],
      "jt": {
        "ini": 8,
        "fim": 18
      }
    },
    {
      "zona": 0,
      "id": 1093,
      "x": -38.5215,
      "y": -3.7905,
      "totais": [
        432.262537,
        0.166666666,
        1,
        0,
        0
      ],
      "jt": {
        "ini": 8,
        "fim": 18
      }
    },
    {
      "zona": 0,
      "id": 1094,
      "x": -38.575,
      "y": -3.7457,
      "totais": [
        412.250117,
        0.166666666,
        1,
        0,
        0
      ],
      "jt": {
        "ini": 8,
        "fim": 18
      }
    },
    {
      "zona": 0,
      "id": 1095,
      "x": -38.5498,
      "y": -3.7527,
      "totais": [
        1383.819455,
        0.166666666,
        1,
        0,
        0
      ],
      "jt": {
        "ini": 8,
        "fim": 18
      }
    },
    {
      "zona": 0,
      "id": 1096,
      "x": -38.535,
      "y": -3.7919,
      "totais": [
        19.450852,
        0.166666666,
        1,
        0,
        0
      ],
      "jt": {
        "ini": 14,
        "fim": 18
      }
    },
    {
      "zona": 0,
      "id": 1097,
      "x": -38.4605,
      "y": -3.7385,
      "totais": [
        578.63931,
        0.166666666,
        1,
        0,
        0
      ],
      "jt": {
        "ini": 8,
        "fim": 18
      }
    },
    {
      "zona": 0,
      "id": 1098,
      "x": -38.539897346,
      "y": -3.7404500251,
      "totais": [
        1173.242906,
        0.166666666,
        1,
        0,
        0
      ],
      "jt": {
        "ini": 8,
        "fim": 18
      }
    },
    {
      "zona": 0,
      "id": 1099,
      "x": -38.4813,
      "y": -3.8258,
      "totais": [
        62.404992,
        0.166666666,
        1,
        0,
        0
      ],
      "jt": {
        "ini": 8,
        "fim": 18
      }
    },
    {
      "zona": 0,
      "id": 100,
      "x": -38.4638,
      "y": -3.7219,
      "totais": [
        355.691756,
        0.166666666,
        1,
        0,
        0
      ],
      "jt": {
        "ini": 8,
        "fim": 18
      }
    },
    {
      "zona": 0,
      "id": 101,
      "x": -38.52,
      "y": -3.823,
      "totais": [
        215.545093,
        0.166666666,
        1,
        0,
        0
      ],
      "jt": {
        "ini": 8,
        "fim": 18
      }
    },
    {
      "zona": 0,
      "id": 102,
      "x": -38.5825,
      "y": -3.745,
      "totais": [
        45.414983,
        0.166666666,
        1,
        0,
        0
      ],
      "jt": {
        "ini": 14,
        "fim": 18
      }
    },
    {
      "zona": 0,
      "id": 103,
      "x": -38.5867,
      "y": -3.7375,
      "totais": [
        45.004331,
        0.166666666,
        1,
        0,
        0
      ],
      "jt": {
        "ini": 8,
        "fim": 18
      }
    },
    {
      "zona": 0,
      "id": 104,
      "x": -38.4809,
      "y": -3.8022,
      "totais": [
        2276.452203,
        0.166666666,
        1,
        0,
        0
      ],
      "jt": {
        "ini": 8,
        "fim": 18
      }
    },
    {
      "zona": 0,
      "id": 105,
      "x": -38.5917,
      "y": -3.8277,
      "totais": [
        371.501143,
        0.166666666,
        1,
        0,
        0
      ],
      "jt": {
        "ini": 8,
        "fim": 18
      }
    },
    {
      "zona": 0,
      "id": 106,
      "x": -38.5756,
      "y": -3.8173,
      "totais": [
        1812.463033,
        0.166666666,
        1,
        0,
        0
      ],
      "jt": {
        "ini": 8,
        "fim": 18
      }
    },
    {
      "zona": 0,
      "id": 107,
      "x": -38.5008,
      "y": -3.7679,
      "totais": [
        242.578991,
        0.166666666,
        1,
        0,
        0
      ],
      "jt": {
        "ini": 8,
        "fim": 18
      }
    },
    {
      "zona": 0,
      "id": 108,
      "x": -38.4753,
      "y": -3.8207,
      "totais": [
        23.207369,
        0.166666666,
        1,
        0,
        0
      ],
      "jt": {
        "ini": 8,
        "fim": 18
      }
    },
    {
      "zona": 0,
      "id": 109,
      "x": -38.5403782924,
      "y": -3.7267862043,
      "totais": [
        592.95629,
        0.166666666,
        1,
        0,
        0
      ],
      "jt": {
        "ini": 8,
        "fim": 18
      }
    },
    {
      "zona": 0,
      "id": 10100,
      "x": -38.4861,
      "y": -3.763,
      "totais": [
        518.779712,
        0.166666666,
        1,
        0,
        0
      ],
      "jt": {
        "ini": 8,
        "fim": 12
      }
    },
    {
      "zona": 0,
      "id": 10101,
      "x": -38.5332,
      "y": -3.777,
      "totais": [
        346.679202,
        0.166666666,
        1,
        0,
        0
      ],
      "jt": {
        "ini": 8,
        "fim": 18
      }
    },
    {
      "zona": 0,
      "id": 10102,
      "x": -38.5612,
      "y": -3.7346,
      "totais": [
        2111.040006,
        0.166666666,
        1,
        0,
        0
      ],
      "jt": {
        "ini": 8,
        "fim": 18
      }
    },
    {
      "zona": 0,
      "id": 10103,
      "x": -38.5441,
      "y": -3.7609,
      "totais": [
        232.216383,
        0.166666666,
        1,
        0,
        0
      ],
      "jt": {
        "ini": 8,
        "fim": 18
      }
    },
    {
      "zona": 0,
      "id": 10104,
      "x": -38.4581,
      "y": -3.7603,
      "totais": [
        541.278964,
        0.166666666,
        1,
        0,
        0
      ],
      "jt": {
        "ini": 8,
        "fim": 18
      }
    },
    {
      "zona": 0,
      "id": 10105,
      "x": -38.5596,
      "y": -3.7686,
      "totais": [
        234.884911,
        0.166666666,
        1,
        0,
        0
      ],
      "jt": {
        "ini": 8,
        "fim": 18
      }
    },
    {
      "zona": 0,
      "id": 10106,
      "x": -38.4608,
      "y": -3.7511,
      "totais": [
        187.399972,
        0.166666666,
        1,
        0,
        0
      ],
      "jt": {
        "ini": 8,
        "fim": 18
      }
    },
    {
      "zona": 0,
      "id": 10107,
      "x": -38.5673,
      "y": -3.7778,
      "totais": [
        49.565704,
        0.166666666,
        1,
        0,
        0
      ],
      "jt": {
        "ini": 8,
        "fim": 18
      }
    },
    {
      "zona": 0,
      "id": 10108,
      "x": -38.5703,
      "y": -3.7539,
      "totais": [
        43.357336,
        0.166666666,
        1,
        0,
        0
      ],
      "jt": {
        "ini": 8,
        "fim": 18
      }
    },
    {
      "zona": 0,
      "id": 10109,
      "x": -38.53,
      "y": -3.8032,
      "totais": [
        439.853476,
        0.166666666,
        1,
        0,
        0
      ],
      "jt": {
        "ini": 8,
        "fim": 18
      }
    },
    {
      "zona": 0,
      "id": 10110,
      "x": -38.5283,
      "y": -3.7669,
      "totais": [
        157.576332,
        0.166666666,
        1,
        0,
        0
      ],
      "jt": {
        "ini": 8,
        "fim": 18
      }
    },
    {
      "zona": 0,
      "id": 10111,
      "x": -38.5555,
      "y": -3.787,
      "totais": [
        683.557161,
        0.166666666,
        1,
        0,
        0
      ],
      "jt": {
        "ini": 8,
        "fim": 18
      }
    },
    {
      "zona": 0,
      "id": 10112,
      "x": -38.5242,
      "y": -3.8137,
      "totais": [
        628.703491,
        0.166666666,
        1,
        0,
        0
      ],
      "jt": {
        "ini": 8,
        "fim": 18
      }
    },
    {
      "zona": 0,
      "id": 10113,
      "x": -38.5159,
      "y": -3.7969,
      "totais": [
        144.0501,
        0.166666666,
        1,
        0,
        0
      ],
      "jt": {
        "ini": 8,
        "fim": 18
      }
    },
    {
      "zona": 0,
      "id": 10114,
      "x": -38.4874,
      "y": -3.8266,
      "totais": [
        27.209909,
        0.166666666,
        1,
        0,
        0
      ],
      "jt": {
        "ini": 8,
        "fim": 12
      }
    },
    {
      "zona": 1,
      "id": 10115,
      "x": -38.5151,
      "y": -3.7312,
      "totais": [
        193.644984,
        0.166666666,
        1,
        0,
        0
      ],
      "jt": {
        "ini": 8,
        "fim": 18
      }
    },
    {
      "zona": 0,
      "id": 10116,
      "x": -38.4866,
      "y": -3.788,
      "totais": [
        743.412669,
        0.166666666,
        1,
        0,
        0
      ],
      "jt": {
        "ini": 8,
        "fim": 18
      }
    },
    {
      "zona": 1,
      "id": 10117,
      "x": -38.5298,
      "y": -3.7295,
      "totais": [
        22.90564,
        0.166666666,
        1,
        0,
        0
      ],
      "jt": {
        "ini": 8,
        "fim": 18
      }
    },
    {
      "zona": 0,
      "id": 10118,
      "x": -38.5225,
      "y": -3.7752,
      "totais": [
        90.98735,
        0.166666666,
        1,
        0,
        0
      ],
      "jt": {
        "ini": 8,
        "fim": 18
      }
    },
    {
      "zona": 0,
      "id": 10119,
      "x": -38.5217684026,
      "y": -3.7452750125,
      "totais": [
        95.868973,
        0.166666666,
        1,
        0,
        0
      ],
      "jt": {
        "ini": 8,
        "fim": 18
      }
    },
    {
      "zona": 0,
      "id": 10120,
      "x": -38.5705,
      "y": -3.7297,
      "totais": [
        192.992871,
        0.166666666,
        1,
        0,
        0
      ],
      "jt": {
        "ini": 8,
        "fim": 18
      }
    },
    {
      "zona": 1,
      "id": 10121,
      "x": -38.4995,
      "y": -3.7283,
      "totais": [
        89.195931,
        0.166666666,
        1,
        0,
        0
      ],
      "jt": {
        "ini": 8,
        "fim": 18
      }
    },
    {
      "zona": 0,
      "id": 10122,
      "x": -38.5064,
      "y": -3.7448,
      "totais": [
        73.688805,
        0.166666666,
        1,
        0,
        0
      ],
      "jt": {
        "ini": 8,
        "fim": 18
      }
    },
    {
      "zona": 0,
      "id": 10123,
      "x": -38.5788,
      "y": -3.768,
      "totais": [
        106.133829,
        0.166666666,
        1,
        0,
        0
      ],
      "jt": {
        "ini": 8,
        "fim": 18
      }
    },
    {
      "zona": 0,
      "id": 10124,
      "x": -38.5333,
      "y": -3.722,
      "totais": [
        1058.759113,
        0.166666666,
        1,
        0,
        0
      ],
      "jt": {
        "ini": 8,
        "fim": 18
      }
    },
    {
      "zona": 0,
      "id": 10125,
      "x": -38.4987,
      "y": -3.7869,
      "totais": [
        115.855812,
        0.166666666,
        1,
        0,
        0
      ],
      "jt": {
        "ini": 8,
        "fim": 18
      }
    },
    {
      "zona": 0,
      "id": 10126,
      "x": -38.5843,
      "y": -3.7761,
      "totais": [
        77.758218,
        0.166666666,
        1,
        0,
        0
      ],
      "jt": {
        "ini": 8,
        "fim": 18
      }
    },
    {
      "zona": 0,
      "id": 10127,
      "x": -38.4861,
      "y": -3.8215,
      "totais": [
        339.428616,
        0.166666666,
        1,
        0,
        0
      ],
      "jt": {
        "ini": 8,
        "fim": 12
      }
    },
    {
      "zona": 0,
      "id": 10128,
      "x": -38.535,
      "y": -3.7664,
      "totais": [
        128.115883,
        0.166666666,
        1,
        0,
        0
      ],
      "jt": {
        "ini": 8,
        "fim": 18
      }
    },
    {
      "zona": 0,
      "id": 10129,
      "x": -38.5287,
      "y": -3.7946,
      "totais": [
        158.557115,
        0.166666666,
        1,
        0,
        0
      ],
      "jt": {
        "ini": 8,
        "fim": 18
      }
    },
    {
      "zona": 0,
      "id": 10130,
      "x": -38.4672,
      "y": -3.7651,
      "totais": [
        505.698306,
        0.166666666,
        1,
        0,
        0
      ],
      "jt": {
        "ini": 8,
        "fim": 18
      }
    },
    {
      "zona": 0,
      "id": 10131,
      "x": -38.5966,
      "y": -3.7218,
      "totais": [
        68.075644,
        0.166666666,
        1,
        0,
        0
      ],
      "jt": {
        "ini": 8,
        "fim": 18
      }
    },
    {
      "zona": 0,
      "id": 10132,
      "x": -38.5393,
      "y": -3.8163,
      "totais": [
        156.895384,
        0.166666666,
        1,
        0,
        0
      ],
      "jt": {
        "ini": 8,
        "fim": 18
      }
    },
    {
      "zona": 0,
      "id": 10133,
      "x": -38.5949,
      "y": -3.7767,
      "totais": [
        1740.446204,
        0.166666666,
        1,
        0,
        0
      ],
      "jt": {
        "ini": 8,
        "fim": 18
      }
    },
    {
      "zona": 1,
      "id": 10134,
      "x": -38.5279,
      "y": -3.7335,
      "totais": [
        40.003695,
        0.166666666,
        1,
        0,
        0
      ],
      "jt": {
        "ini": 8,
        "fim": 18
      }
    },
    {
      "zona": 0,
      "id": 10135,
      "x": -38.4994,
      "y": -3.7981,
      "totais": [
        525.117481,
        0.166666666,
        1,
        0,
        0
      ],
      "jt": {
        "ini": 8,
        "fim": 18
      }
    },
    {
      "zona": 0,
      "id": 10136,
      "x": -38.5312,
      "y": -3.7585,
      "totais": [
        181.789445,
        0.166666666,
        1,
        0,
        0
      ],
      "jt": {
        "ini": 8,
        "fim": 18
      }
    },
    {
      "zona": 0,
      "id": 10137,
      "x": -38.4955,
      "y": -3.752,
      "totais": [
        203.480218,
        0.166666666,
        1,
        0,
        0
      ],
      "jt": {
        "ini": 8,
        "fim": 18
      }
    },
    {
      "zona": 0,
      "id": 10138,
      "x": -38.4816,
      "y": -3.8287,
      "totais": [
        1375.665515,
        0.166666666,
        1,
        0,
        0
      ],
      "jt": {
        "ini": 8,
        "fim": 18
      }
    },
    {
      "zona": 0,
      "id": 10139,
      "x": -38.4636,
      "y": -3.8014,
      "totais": [
        52.556543,
        0.166666666,
        1,
        0,
        0
      ],
      "jt": {
        "ini": 8,
        "fim": 18
      }
    },
    {
      "zona": 0,
      "id": 10140,
      "x": -38.5868,
      "y": -3.7391,
      "totais": [
        897.14164,
        0.166666666,
        1,
        0,
        0
      ],
      "jt": {
        "ini": 8,
        "fim": 18
      }
    },
    {
      "zona": 0,
      "id": 10141,
      "x": -38.4604,
      "y": -3.7918,
      "totais": [
        415.569514,
        0.166666666,
        1,
        0,
        0
      ],
      "jt": {
        "ini": 8,
        "fim": 18
      }
    },
    {
      "zona": 0,
      "id": 10142,
      "x": -38.5923,
      "y": -3.7203,
      "totais": [
        186.864013,
        0.166666666,
        1,
        0,
        0
      ],
      "jt": {
        "ini": 8,
        "fim": 18
      }
    },
    {
      "zona": 0,
      "id": 10143,
      "x": -38.5356,
      "y": -3.7242,
      "totais": [
        41.040968,
        0.166666666,
        1,
        0,
        0
      ],
      "jt": {
        "ini": 8,
        "fim": 18
      }
    },
    {
      "zona": 0,
      "id": 10144,
      "x": -38.4826,
      "y": -3.761,
      "totais": [
        195.110647,
        0.166666666,
        1,
        0,
        0
      ],
      "jt": {
        "ini": 8,
        "fim": 18
      }
    },
    {
      "zona": 0,
      "id": 10145,
      "x": -38.5088,
      "y": -3.8066,
      "totais": [
        3063.564492,
        0.166666666,
        1,
        0,
        0
      ],
      "jt": {
        "ini": 8,
        "fim": 12
      }
    },
    {
      "zona": 0,
      "id": 10146,
      "x": -38.5545,
      "y": -3.7298,
      "totais": [
        25.048427,
        0.166666666,
        1,
        0,
        0
      ],
      "jt": {
        "ini": 8,
        "fim": 18
      }
    },
    {
      "zona": 0,
      "id": 10147,
      "x": -38.5942,
      "y": -3.7437,
      "totais": [
        2724.193834,
        0.166666666,
        1,
        0,
        0
      ],
      "jt": {
        "ini": 8,
        "fim": 18
      }
    },
    {
      "zona": 0,
      "id": 10148,
      "x": -38.4609,
      "y": -3.728,
      "totais": [
        349.754031,
        0.166666666,
        1,
        0,
        0
      ],
      "jt": {
        "ini": 8,
        "fim": 18
      }
    },
    {
      "zona": 0,
      "id": 10149,
      "x": -38.5143,
      "y": -3.7858,
      "totais": [
        298.652088,
        0.166666666,
        1,
        0,
        0
      ],
      "jt": {
        "ini": 8,
        "fim": 18
      }
    },
    {
      "zona": 0,
      "id": 1010,
      "x": -38.5326,
      "y": -3.8249,
      "totais": [
        25.814635,
        0.166666666,
        1,
        0,
        0
      ],
      "jt": {
        "ini": 8,
        "fim": 18
      }
    },
    {
      "zona": 0,
      "id": 1011,
      "x": -38.5708,
      "y": -3.8209,
      "totais": [
        961.785954,
        0.166666666,
        1,
        0,
        0
      ],
      "jt": {
        "ini": 8,
        "fim": 18
      }
    },
    {
      "zona": 1,
      "id": 1012,
      "x": -38.5007,
      "y": -3.7457,
      "totais": [
        702.876598,
        0.166666666,
        1,
        0,
        0
      ],
      "jt": {
        "ini": 14,
        "fim": 18
      }
    },
    {
      "zona": 0,
      "id": 1013,
      "x": -38.5763,
      "y": -3.826,
      "totais": [
        16.135821,
        0.166666666,
        1,
        0,
        0
      ],
      "jt": {
        "ini": 8,
        "fim": 18
      }
    },
    {
      "zona": 0,
      "id": 1014,
      "x": -38.5177,
      "y": -3.7384,
      "totais": [
        29.445731,
        0.166666666,
        1,
        0,
        0
      ],
      "jt": {
        "ini": 8,
        "fim": 18
      }
    },
    {
      "zona": 0,
      "id": 1015,
      "x": -38.490349349,
      "y": -3.7274302454,
      "totais": [
        270.387485,
        0.166666666,
        1,
        0,
        0
      ],
      "jt": {
        "ini": 8,
        "fim": 18
      }
    },
    {
      "zona": 0,
      "id": 1016,
      "x": -38.5004,
      "y": -3.7886,
      "totais": [
        237.413177,
        0.166666666,
        1,
        0,
        0
      ],
      "jt": {
        "ini": 8,
        "fim": 18
      }
    },
    {
      "zona": 0,
      "id": 1017,
      "x": -38.5504,
      "y": -3.7837,
      "totais": [
        804.220596,
        0.166666666,
        1,
        0,
        0
      ],
      "jt": {
        "ini": 8,
        "fim": 18
      }
    },
    {
      "zona": 0,
      "id": 1018,
      "x": -38.52,
      "y": -3.8004,
      "totais": [
        5835.716659,
        0.166666666,
        1,
        0,
        0
      ],
      "jt": {
        "ini": 8,
        "fim": 18
      }
    },
    {
      "zona": 0,
      "id": 1019,
      "x": -38.5413,
      "y": -3.7802,
      "totais": [
        146.234237,
        0.166666666,
        1,
        0,
        0
      ],
      "jt": {
        "ini": 8,
        "fim": 18
      }
    },
    {
      "zona": 0,
      "id": 1020,
      "x": -38.5099,
      "y": -3.8268,
      "totais": [
        92.642102,
        0.166666666,
        1,
        0,
        0
      ],
      "jt": {
        "ini": 8,
        "fim": 18
      }
    },
    {
      "zona": 0,
      "id": 1021,
      "x": -38.4816402355,
      "y": -3.7500493992,
      "totais": [
        56.541023,
        0.166666666,
        1,
        0,
        0
      ],
      "jt": {
        "ini": 8,
        "fim": 18
      }
    },
    {
      "zona": 0,
      "id": 1022,
      "x": -38.5312,
      "y": -3.7604,
      "totais": [
        319.702772,
        0.166666666,
        1,
        0,
        0
      ],
      "jt": {
        "ini": 8,
        "fim": 18
      }
    },
    {
      "zona": 0,
      "id": 10231,
      "x": -38.4921,
      "y": -3.7611,
      "totais": [
        399.025501,
        0.166666666,
        1,
        0,
        0
      ],
      "jt": {
        "ini": 8,
        "fim": 12
      }
    }
  ]
}



